// 5021
//== Noticing Confusion
== Розділ 26. Помічання спантеличення

// 5022
//Yakka foob mog. Grug pubbawup zink wattoom gazork. Chumble spuzz J. K. Rowling.
//http://www.gocomics.com/calvinandhobbes/1995/01/09/
Яка фуб моґ. Ґраґ пабавап зінк ватум ґазорк. Чамбл спаз Дж. К. Ролінґ.

***

// 5023
//Professor Quirrell’s office hours consisted of 11:40 to 11:55 AM on Thursday.
//That was for all of his students in all years. It cost a Quirrell point just to
//knock on the door, and if he didn’t think your reason was worth his time, you
//would lose another fifty.
Прийомні години професора Квірела були з 11:40 до 11:55 ранку четверга. Це для
всіх учнів усіх років. Просто постукати в його двері коштувало один бал
Квірела, а якщо він вважав, що причина візиту не була варта його часу, то можна
було втратити ще пʼятдесят.

// 5024
//Harry knocked on the door.
Гаррі постукав у двері.

// 5025
//There was a pause. Then a biting voice said, “I suppose you may as well come
//in, Mr. Potter.”
Була пауза. Потім почувся злий голос.

-- Гадаю, ви можете й зайти, містере Поттер.

// 5026
//And before Harry could touch the doorknob, the door slammed open, hitting the
//wall with a sharp crack that sounded like something might have broken in the
//wood, or the stone, or both.
Ще перед тим, як Гаррі встиг доторкнутися до ручки, двері розчахнулися,
вдаривши стіну з пронизливим ляскотом, ніби щось зламалося в деревині, чи
камінні, чи й там, і там.

// 5027
//Professor Quirrell was leaning back in his chair and reading a suspiciously
//old-looking book, bound in night-blue leather with silver runes on the spine.
//His eyes had not moved from the pages. “I am not in a good mood, Mr. Potter.
//And when I am not a good mood, I am not a pleasant person to be around. For
//your own sake, conduct your business quickly and depart.”
Професор Квірел, відкинувшись на стільці, читав підозріло стародавню на вигляд
книжку в обкладинці з темно-синьої шкіри зі срібними рунами на корінці. Його
очі не відривалися від сторінок.

-- Я не в доброму гуморі, містере Поттер. А коли я не в доброму гуморі, то я не
та людина, поряд з якою приємно бути. Заради вашого ж блага, швидко завершуйте
свою справу та йдіть.

// 5028
//A cold chill seeped from the room, as though it contained something that cast
//darkness the way lamps cast light, and which hadn’t been fully shaded.
// hedrok: @ hadn't been fully shaded.
// ikakok: Guess - #4 Verb звідси https://en.oxforddictionaries.com/definition/shade
Холод сочився з кімнати, ніби там містилося щось, що проливає тьму, як лампи
проливають світло, і це при тому, що воно стримувалося.

// 5029
//Harry was a bit taken aback. __Not in a good mood__ didn’t quite seem to
//cover it. What could be bothering Professor Quirrell this much…?
Це захопило Гаррі зненацька. __Не в доброму гуморі__, видавалося, неповно
описувало ситуацію. Що могло так турбувати професора Квірела?..

// 5030
//Well, you didn’t just walk out on friends when they were feeling down. Harry
//cautiously advanced into the room. “Is there anything I can do to help -”
Ну, друзів просто так не кидають, коли в них поганий настрій. Гаррі обережно
зайшов до кімнати.

-- Чи можу я чимось допомогти...

// 5031
//“No,” said Professor Quirrell, still not looking up from the book.
-- Ні, -- сказав професор Квірел, досі не відводячи очей від книжки.

// 5032
//“I mean, if you’ve been dealing with idiots and want someone sane to talk to…”
// hedrok: про це йдеться в 090:16343
-- Тобто, якщо ви мали справу з ідіотами й хочете поговорити з кимось
розумним...

// 5033
//There was a surprisingly long pause.
Запала на диво довга тиша.

// 5034
//Professor Quirrell slammed the book shut and it vanished with a small
//whispering sound. He looked up, then, and Harry flinched.
Професор Квірел із шумом згорнув книжку, й вона зникла з тихим шипінням. Тоді
він підвів погляд, і Гаррі здригнувся.

// 5035
//“I suppose an intelligent conversation would be pleasant for __me__ at
//this point,” said Professor Quirrell in the same biting tone that had invited
//Harry to enter. “__You__ are not likely to find it so, be warned.”
-- Гадаю, інтелектуальна розмова буде наразі __мені__ приємною, -- сказав
професор Квірел тим самим злим голосом, яким запросив Гаррі зайти. -- Для
__вас__ вона навряд чи буде такою, я попередив.

// 5036
//Harry drew a deep breath. “I promise I won’t mind if you snap at me. What
//happened?”
Гаррі глибоко вдихнув.

-- Обіцяю, що не буду проти, якщо ви гаркатимете на мене. Що сталося?

// 5037
//The cold in the room seemed to deepen. “A sixth-year Gryffindor cast a curse at
//one of my more promising students, a sixth-year Slytherin.”
Холод у кімнаті ніби посилився.

-- Шестикласник-ґрифіндорець застосував прокляття на одному з моїх
перспективних учнів, шестикласнику-слизеринці.

// 5038
//Harry swallowed. “What… sort of curse?”
Гаррі ковтнув слину.

-- Яке саме... прокляття?

// 5039
//And the fury on Professor Quirrell’s face was no longer contained. “Why bother
//to ask an unimportant question like that, Mr. Potter? Our friend the sixth-year
//Gryffindor did not think it was important!”
І тут професор Квірел припинив стримувати свою лють.

-- Нащо цікавитися такими неістотними питаннями, містере Поттер? Наш друг
шестикласник-ґрифіндорець не вважав це важливим!

// 5040
//“Are you __serious?__” Harry said before he could stop himself.
-- Ви __серйозно__? -- запитав Гаррі перед тим, як встигнув себе зупинити.

// 5041
//“No, I’m in a terrible mood today for no particular reason. __Yes I’m
//serious, you fool!__ He didn’t know. He __actually didn’t know.__ I didn’t
//believe it until the Aurors confirmed it under Veritaserum. He is in his
//__sixth year at Hogwarts__ and he cast a high-level Dark curse
//__without knowing what it did.__”
-- Ні, я сьогодні в жахливому настрої просто так. __Так, я серйозно, дурню!__
Він не знав. Він __дійсно не знав__. Я не вірив, доки аврори не підтвердили за
допомогою сироватки правди. Він у __шостому класі Гоґвортсу__ й застосовує
темне прокляття високого рівня, __не знаючи, що воно робить__.

// 5042
//“You don’t mean,” Harry said, “that he was __mistaken__ about what it did,
//that he somehow read the wrong spell description -”
-- Ви ж не маєте на увазі, -- сказав Гаррі, -- що він __помилився__ щодо його
дії, що він якимось чином прочитав опис іншого закляття...

// 5043
//“All he knew was that it was meant to be directed at an enemy. He __knew__
//that was all he knew.”
-- Він знав лише, що прокляття треба направити на ворога. Він __знав__, що це
все, що він знав.

// 5044
//And that had been enough to cast the spell. “I do not understand how anything
//with that small a brain could walk upright.”
І цього було достатньо, щоб закляття спрацювало.

-- Я не розумію, як щось із таким крихітним мозком могло ходити на двох ногах.

// 5045
//“Indeed, Mr. Potter,” said Professor Quirrell.
-- І справді, містере Поттер, -- сказав професор Квірел.

// 5046
//There was a pause. Professor Quirrell leaned forward and picked up the silver
//inkwell from his desk, turning it around in his hands, staring at it as though
//wondering how he could go about torturing an inkwell to death.
Була пауза. Професор Квірел схилився вперед і підібрав срібну чорнильницю зі
стола, повертів її в руках, роздивляючись, ніби розмірковував, як би йому
закатувати чорнильницю до смерті.

// 5047
//“Was the sixth-year Slytherin seriously hurt?” said Harry.
-- Шестикласник-слизеринець серйозно постраждав? -- запитав Гаррі.

// 5048
//“Yes.”
-- Так.

// 5049
//“Was the sixth-year Gryffindor raised by Muggles?”
-- Шестикласника-ґрифіндорця виховували маґли?

// 5050
//“__Yes.__”
-- __Так.__

// 5051
//“Is Dumbledore refusing to expel him because the poor boy didn’t know?”
-- Дамблдор відмовляється виключати його, адже бідолашний хлопчик не знав?

// 5052
//Professor Quirrell’s hands whitened on the inkwell. “__Do you have a
//point, Mr. Potter, or are you just stating the obvious?__”
Руки професора Квірела аж побіліли на чорнильниці.

-- __Ви до чогось ведете, містере Поттер, чи просто стверджуєте очевидне?__

// 5053
//“Professor Quirrell,” said Harry gravely, “all the Muggle-raised students in
//Hogwarts need a safety lecture in which they are told the things so
//ridiculously obvious that no wizardborn would ever think to mention them. Don’t
//cast curses if you don’t know what they do, if you discover something dangerous
//don’t tell the world about it, don’t brew high-level potions without
//supervision in a bathroom, the reason why there are underage magic laws, all
//the basics.”
-- Професоре Квірел, -- авторитетно сказав Гаррі, -- усім вихованим маґлами
учням у Гоґвортсі потрібна лекція з безпеки. Їм треба розказати про настільки
сміховинно очевидні речі, що жодному з вихованих чарівниками не спаде на думку
згадати про них. Не застосовуйте заклять, що роблять щось вам невідоме, не
варіть високорівневі зілля без нагляду в туалеті, про причину існування законів
про неповнолітню магію, про всі базові речі.

// 5054
//“Why?” said Professor Quirrell. “Let the stupid ones die before they breed.”
-- Навіщо? -- запитав професор Квірел. -- Нехай дурні мруть перед тим, як
встигнуть розмножитися.

// 5055
//“If you don’t mind losing a few sixth-year Slytherins along with them.”
-- Якщо ви не проти втратити декількох шестикласників-слизеринців разом з ними.

// 5056
//The inkwell caught fire in Professor Quirrell’s hands and burned with a
//terrible slowness, hideous black-orange flames tearing at the metal and seeming
//to take tiny bites from it, the silver twisting as it melted, as though it were
//trying and failing to escape. There was a tinny shrieking sound, as though the
//metal were screaming.
Чорнильниця загорілася в руках професора Квірела й горіла жахливо повільно,
огидне червоно-оранжеве полумʼя роздирало метал й ніби відкушувало невеличкі
шматки від неї. Срібло скручувалося під час плавлення, ніби безуспішно
намагалося втекти. Чувся металевий пронизливий скрегіт, ніби чорнильниця
кричала.

// 5057
//“I suppose you are right,” Professor Quirrell said with a resigned smile. “I
//shall design a lecture to ensure that Muggleborns who are too stupid to live do
//not take anyone valuable with them as they depart.”
-- Гадаю, ви маєте рацію, -- сказав професор Квірел з покірною усмішкою. -- Я
розроблю лекцію, щоб переконатися, що учні маґлівського роду, що надто тупі,
щоб жити, не заберуть з собою когось цінного, коли покидатимуть нас.

// 5058
//The inkwell went on screaming and burning in Professor Quirrell’s hands, tiny
//droplets of metal, still on fire, now dripping to the desk, as though the
//inkwell were crying.
Чорнильниця кричала й горіла далі в руках професора Квірела, дрібні краплі металу,
не згасаючи, крапали на стіл, ніби чорнильниця плакала.

// 5059
//“You’re not running away,” observed Professor Quirrell.
-- Ви не тікаєте, -- зауважив професор Квірел.

// 5060
//Harry opened his mouth -
Гаррі розкрив рота.

// 5061
//“If you’re about to say you’re not scared of me,” said Professor Quirrell,
//“__don’t.__”
-- Якщо ви збираєтеся сказати, що не боїтеся мене, -- сказав професор Квірел,
-- __не треба__.

// 5062
//“You are the scariest person I know,” Harry said, “and one of the top reasons
//for that is your control. I simply can’t imagine hearing that you’d hurt
//someone you had not made a deliberate decision to hurt.”
-- Ви найстрашніша людина з усіх, що я знаю, -- сказав Гаррі, -- і однією з
головних причин цього є ваш контроль. Я просто не можу уявити, щоб ви комусь
зашкодили, якщо не прийняли свідомого рішення це зробити.

// 5063
//The fire in Professor Quirrell’s hands winked out, and he carefully placed the
//ruined inkwell on his desk. “You say the nicest things, Mr. Potter. Have you
//been taking lessons in flattery? From, perhaps, Mr. Malfoy?”
Вогонь у руках професора Квірела згас і він обережно поставив знищену
чорнильницю на стіл.

-- Ви кажете такі приємні речі, містере Поттер. Ви брали заняття з лестощів?
Можливо, у містера Мелфоя?

// 5064
//Harry kept his expression blank, and realized one second too late that it might
//as well have been a signed confession. Professor Quirrell didn’t care what your
//expression looked like, he cared which states of mind made it likely.
Гаррі зберігав нейтральний вираз обличчя, і на секунду надто пізно збагнув, що
міг би з тим же успіхом підписати зізнання. Професор Квірел не зважав на те,
який у тебе вираз, він зважав на стан розуму, що робив його ймовірним.

// 5065
//“I see,” said Professor Quirrell. “Mr. Malfoy is a useful friend to have, Mr.
//Potter, and there is much he can teach you, but I hope you have not made the
//mistake of trusting him with too many confidences.”
-- Зрозуміло, -- сказав професор Квірел. -- Мати в друзях містера Мелфоя
корисно, містере Поттер, і він багато чого може вас навчити, але, сподіваюся,
ви не зробили помилки, довіривши йому надто багато таємниць.

// 5066
//“He knows nothing which I fear becoming known,” said Harry.
-- Він не знає нічого такого, що загрожувало б мені, якби стало відомим,
-- сказав Гаррі.

// 5067
//“Well done,” said Professor Quirrell, smiling slightly. “So what was your
//original business here?”
-- Вітаю, -- сказав професор Квірел з легкою усмішкою. -- То в якій справі ви
сюди прийшли?

// 5068
//“I think I’m done with the preliminary exercises in Occlumency and ready for
//the tutor.”
-- Гадаю, я завершив з підготовчими вправами з блокології та готовий до занять з
інструктором.

// 5069
//Professor Quirrell nodded. “I shall conduct you to Gringotts this Sunday.” He
//paused, looking at Harry, and smiled. “And we might even make it a little
//outing, if you like. I’ve just had a pleasant thought.”
Професор Квірел кивнув.

-- Я супроводжуватиму вас до "`Ґрінґотсу`" цієї неділі, -- він зробив паузу й
поглянув на Гаррі з усмішкою. -- І ми можемо навіть трохи прогулятися, якщо
бажаєте. Мені щойно спало на гадку дещо приємне.

// 5070
//Harry nodded, smiling back.
Гаррі кивнув, усміхаючись у відповідь.

// 5071
//As Harry left the office, he heard Professor Quirrell humming a small tune.
Коли Гаррі вийшов з офісу, то почув, що професор Квірел наспівує мелодію.

// 5072
//Harry was glad he’d been able to cheer him up.
Гаррі був радий, що зміг підбадьорити його.

***

// 5073
//That Sunday there seemed to be a rather large number of people whispering in
//the hallways, at least when Harry Potter walked past them.
У ту неділю купа людей шепотіли в коридорах, принаймні коли Гаррі повз них
проходив.

// 5074
//And a lot of pointed fingers.
І багато хто показував пальцем.

// 5075
//And a great deal of female giggling.
І чимало дівочого хихотіння.

// 5076
//It had started at breakfast, when someone had asked Harry if he’d heard the
//news, and Harry had quickly interrupted and said that if the news was written
//by Rita Skeeter then he didn’t want to __hear__ about it, he wanted to
//read it in the paper himself.
Це почалося за сніданком, коли хтось запитав був Гаррі, чи чув той новини. Гаррі
швидко перервав його й сказав, що якщо новини були написані Рітою Скітер, то
він не хотів їх __чути__, він хотів сам прочитати статтю.

// 5077
//It had then developed that not many students at Hogwarts got copies of the
//__Daily Prophet,__ and that the copies which had not already been bought
//up from their owners were being passed around in some sort of complicated order
//and nobody really knew who had one at the moment…
Тоді виявилося, що мало учнів Гоґвортсу отримували примірники "`Щоденного
віщуна`", а ті примірники, що їх ще не викупили у власників, передавалися далі
якоюсь складною чергою, і ніхто насправді не знав, у кого наразі була газета...

// 5078
//So Harry had used a Quieting Charm and gone on to eat his breakfast, trusting
//to his seat-mates to wave off the many, many questioners, and doing his best to
//ignore the incredulity, the laughter, the congratulatory smiles, the pitying
//looks, the fearful glances, and the dropped plates as new people came down for
//breakfast and heard.
Тому Гаррі застосував закляття "`Квієтус`" і пішов снідати, довіривши сусідам
за столом позбуватися багатьох, багатьох допитливих учнів. І він як міг не
зважав на сміх, привітальні усмішки, співчутливі обличчя, недовіру, страшні
погляди та звуки падіння посуду, коли нові люди спускалися на сніданок та
дізнавалися.

// 5079
//Harry was feeling __rather__ curious, but it __really__ wouldn’t have
//done to spoil the artistry by hearing it secondhand.
Гаррі було __дуже__ цікаво, але ж __справді__ не годиться псувати артистичність
виконання, почувши лише переповідку.

// 5080
//He’d done homework in the safety of his trunk for the next couple of hours,
//after telling his dormmates to come get him if anyone found him an original
//newspaper.
Наступні декілька годин він виконував домашнє завдання у безпеці валізи після
того, як сказав своїм сусідам покликати його, якщо хтось дістане для нього саму
газету.

// 5081
//Harry was still ignorant at 10AM, when he’d left Hogwarts in a carriage with
//Professor Quirrell, who was in the front right, and currently slumped over in
//zombie-mode. Harry was sitting diagonally across, as far away as the carriage
//allowed, in the back left. Even so, Harry had a constant feeling of doom as the
//carriage rattled over a small path through a section of non-forbidden forest.
//It made it a bit hard to read, especially since the material was difficult, and
//Harry suddenly wished he was reading one of his childhood science fiction books
//instead -
Гаррі досі нічого не знав о десятій ранку, коли покинув Гоґвортс у диліжансі разом
з професором Квірелом, що сидів попереду праворуч і наразі розпластався в
зомбі-режимі. Гаррі сидів у протилежному куті, так далеко, як тільки дозволяв
диліжанс, -- позаду ліворуч. Навіть так у Гаррі було постійне почуття неминучого,
доки диліжанс трясся невеличким проходом через незаборонений ліс. Через це було
дещо важко читати, особливо враховуючи, що матеріал був складним, і Гаррі
раптом захотілося почитати натомість одну з дитячих науково-фантастичних
книжок...

// 5082
//“We’re outside the wards, Mr. Potter,” said Professor Quirrell’s voice from the
//front. “Time to go.”
-- Ми поза захисними чарами, містере Поттер, -- пролунав голос професора
Квірела спереду. -- Час іти.

// 5083
//Professor Quirrell carefully disembarked from the carriage, bracing himself as
//he stepped down. Harry, on his own side, jumped off.
Професор Квірел обережно зійшов з диліжанса, опанувавши себе. Гаррі ж зістрибнув.

// 5084
//Harry was wondering exactly how they’d get there when Professor Quirrell said
//“Catch!” and threw a bronze Knut at him, and Harry caught it without thinking.
Гаррі саме зацікавився, яким чином вони туди дістануться, як професор Квірел
сказав "`Лови!`" і кинув йому бронзовий кнат, що його Гаррі бездумно піймав.

// 5085
//A giant intangible hook caught at Harry’s abdomen and yanked him back, hard,
//only without any sense of acceleration, and an instant later Harry was standing
//in the middle of Diagon Alley.
Гігантський невідчутний гак зачепив Гаррі за живіт та смикнув його з силою, тільки
не було жодного відчуття прискорення, і ось вже за мить Гаррі стояв посеред алеї
Діаґон.

// 5086
//(__Excuse me, what?__ said his brain.)
(__Перепрошую, що?__ запитав його мозок.)

// 5087
//(__We just teleported,__ explained Harry.)
(__Ми щойно телепортувалися,__ пояснив Гаррі.)

// 5088
//(__That didn’t used to happen in the ancestral environment,__ Harry’s
//brain complained, and disoriented him.)
(__Цього не траплялося в середовищі пращурів,__ поскаржився мозок Гаррі й
дезорієнтував його.)

// 5089
//Harry staggered as his feet adjusted to the brick of the street instead of the
//dirt of the forest corridor they had been traversing. He straightened, still
//dizzy, with the bustling witches and wizards seeming to sway slightly, and the
//cries of the shopkeepers seeming to move around in his hearing, as his brain
//tried to place a world to be located in.
Гаррі похитнувся -- його ноги призвичаювалися до брукованої вулиці після ґрунту
лісового коридору, яким вони їхали. Він випрямився, хоч у нього досі
трохи паморочилося в голові: йому здавалося, що метушливі відьми й чаклуни
трохи погойдувалися, а галас від продавців ніби весь час переміщувався, доки
його мозок намагався розставити все на свої місця.

// 5090
//Moments later, there was a sort of sucking-popping sound from a few paces
//behind Harry, and when Harry turned to look Professor Quirrell was there.
Ще мить, і за спиною Гаррі в декількох кроках почувся звук смоктання й хлопок, і
коли Гаррі озирнувся, там вже був професор Квірел.

// 5091
//“Do you mind -” said Harry, at the same time as Professor Quirrell said, “I’m
//afraid I -”
"`Ви не проти...`" -- сказав Гаррі, а професор Квірел водночас почав: "`Боюся,
мені...`".

// 5092
//Harry stopped, Professor Quirrell didn’t.
Гаррі зупинився. Професор Квірел -- ні.

// 5093
//“- need to go off and set something in motion, Mr. Potter. As it has been
//thoroughly explained to me that I am responsible for anything whatsoever that
//happens to you, I’ll be leaving you with -”
// hedrok: @ set something in motion
-- ...треба відійти й запустити один процес, містере Поттер. Як мені докладно
розʼяснили, я відповідальний за абсолютно все, що з вами станеться, тому я
залишу вас з...

// 5094
//“Newsstand,” Harry said.
-- Газетою, -- сказав Гаррі.

// 5095
//“Pardon?”
-- Прошу?

// 5096
//“Or anywhere I can buy a copy of the __Daily Prophet.__ Put me there and
//I’ll be happy.”
-- Чи будь-де, де я можу купити примірник "`Щоденного віщуна`". Залиште мене
там, і я буду щасливим.

// 5097
//Shortly after, Harry had been delivered into a bookstore, accompanied by
//several quietly spoken, ambiguous threats. And the shopkeeper had gotten
//__less__ ambiguous threats, judging by the way he had cringed, and how his
//eyes now kept darting between Harry and the entrance.
Незабаром Гаррі доставили до книгарні, дорогою він почув декілька тихих неясних
погроз. А продавець отримав __менш__ неясні погрози, судячи з того, як він
зіщулився, і як його очі зиркали то на Гаррі, то на вхід.

// 5098
//If the bookstore burned down, Harry was going to stick around in the middle of
//the fire until Professor Quirrell got back.
Якщо книгарня згорить, то Гаррі мав чекати там посеред пожежі, доки не повернеться
професор Квірел.

// 5099
//Meanwhile -
Тим часом...

// 5100
//Harry took a quick glance around.
Гаррі швидко огледівся.

// 5101
//The bookstore seemed rather small and shoddy, with only four rows of bookcases
//visible, and the nearest shelf Harry’s eyes had jumped to seemed to deal with
//narrow, cheaply bound books with grim titles like __The Massacre of
//Albania in the Fifteenth Century.__
Книгарня була доволі маленькою й низькосортною: видно було лише чотири шафи, і
на найближчій Гаррі бачив лише тоненькі, погано зроблені книжки зі зловісними
назвами на кшталт "`Різанина Албанії в пʼятнадцятому сторіччі`".

// 5102
//First things first. Harry stepped over to the seller’s counter.
Передусім головне. Гаррі підійшов до прилавка продавця.

// 5103
//“Pardon me,” said Harry, “One copy of the __Daily Prophet,__ please.”
-- Перепрошую, -- сказав Гаррі. -- Один примірник "`Щоденного віщуна`", будь
ласка.

// 5104
//“Five Sickles,” said the shopkeeper. “Sorry, kid, I’ve only got three left.”
-- Пʼять серпиків, -- сказав крамар. -- Вибач, хлопче, у мене залишилося лише
три.

// 5105
//Five Sickles dropped onto the counter. Harry had the feeling he could have
//bargained him down a couple of points, but at this point he didn’t really care.
Пʼять серпиків упали на прилавок. Гаррі відчував, що міг би збити декілька
пунктів з ціни, проте наразі йому було байдуже.

// 5106
//The shopkeeper’s eyes widened and he seemed to really notice Harry for the
//first time. “__You!__”
Очі продавця розширилися, видається, він вперше справді подивився на Гаррі.

-- __Ти!__

// 5107
//“__Me!__”
-- __Я!__

// 5108
//“Is it __true?__ Are you __really__ -”
-- Це __правда__? Ти __дійсно__...

// 5109
//“__Shut up!__ Sorry, I’ve been waiting __all day__ to read this in
//the original newspaper instead of hearing about it secondhand, so please just
//__hand it over__, all right?”
-- __Замовкніть!__ Вибачте, я чекав __цілий день__, щоб прочитати оригінальну
статтю, а не почути від когось переказ, отже, будь ласка, просто __передайте
газету__, гаразд?

// 5110
//The shopkeeper stared at Harry for a moment, then wordlessly reached under the
//counter and passed over one folded copy of the __Daily Prophet__.
Крамар трохи повитріщався на Гаррі, а потім без жодного слова дістав з-під
прилавка й передав Гаррі складений примірник "`Щоденного віщуна`".

// 5111
//The headline read:
Заголовок був таким:

// 5112
//__HARRY POTTER__
__ГАРРІ ПОТТЕР__

// 5113
//__SECRETLY BETROTHED__
__ТАЄМНО ЗАРУЧЕНИЙ__

// 5114
//__TO GINEVRA WEASLEY__
__З ДЖІНЕВРОЮ ВІЗЛІ__

// 5115
//Harry stared.
Гаррі втупився в газету.

// 5116
//He lifted the newspaper off the counter, softly, reverently, like he was
//handling an original Escher artwork, and unbent it to read…
Потім взяв її з прилавка, охайно, шанобливо, ніби це була оригінальна
картина Ешера, розгорнув її й почав читати...

// 5117
//…about the evidence that had convinced Rita Skeeter.
...про докази, що переконали Ріту Скітер.

// 5118
//…and some interesting further details.
...і про інші цікаві подробиці.

// 5119
//…and yet more evidence.
...і ще додаткові докази.

// 5120
//Fred and George had cleared it with their sister first, surely? Yes, of course
//they had. There was a picture of Ginevra Weasley sighing longingly over what
//Harry could see, looking closely, was a photo of himself. That had to have been
//staged.
Фред та Джордж узгодили ж це спершу з сестрою, правда? Так, звісно узгодили. Там
була світлина Джіневри Візлі, що самотньо зітхала над, як міг бачити Гаррі, його
власним портретом. Це ж треба було інсценувати.

// 5121
//But __how__ on __Earth…?__
Але __яким дивом__?..

// 5122
//Harry was sitting in a cheap folding chair, rereading the newspaper for the
//fourth time, when the door whispered softly and Professor Quirrell came back
//into the shop.
Гаррі сидів у дешевому розкладному стільці й перечитував газету вчетверте,
коли двері тихенько відчинилися, і професор Квірел повернувся до крамниці.

// 5123
//“My apologies for - __what__ in Merlin’s name are you reading?”
-- Перепрошую за... __що__, заради Мерліна, ви читаєте?

// 5124
//“It would seem,” said Harry, awe in his voice, “that one Mr. Arthur Weasley was
//placed under the Imperius Curse by a Death Eater whom my father killed, thus
//creating a debt to House Potter, which my father demanded be repaid by the hand
//in marriage of the recently born Ginevra Weasley. Do people actually do that
//sort of thing around here?”
-- Здавалося б, -- сказав Гаррі з благоговінням, -- що на деякого містера
Артура Візлі наслав закляття "`Імперіус`" смертежер, якого вбив мій батько,
створивши таким чином борг родові Поттерів, що його мій батько вимагав сплатити
шлюбом нещодавно народженої Джіневри Візлі. Люди справді тут таке роблять?


// 5125
//“How could Miss Skeeter __possibly__ be fool enough to believe -”
-- Та __не може бути__, щоб міс Скітер була такою дурепою, щоб повірити...

// 5126
//And Professor Quirrell’s voice cut off.
Раптом професор Квірел затнувся.

// 5127
//Harry had been reading the newspaper held vertically and unfolded, which meant
//that Professor Quirrell, from where he was standing, could see the text
//underneath the headline.
Газета в руках Гаррі була повністю розгорнута. Він тримав її вертикально, доки
читав, тому професор Квірел зі свого місця міг бачити текст під заголовком.

// 5128
//The look of shock on Professor Quirrell’s face was a work of art almost on par
//with the newspaper itself.
Шок на обличчі професора Квірела був витвором мистецтва, що не поступався
якістю самій газеті.

// 5129
//“Don’t worry,” said Harry cheerfully, “it’s all fake.”
-- Не хвилюйтеся, -- бадьоро сказав Гаррі, -- це все липа.

// 5130
//From elsewhere in the store, he heard the shopkeeper gasp. There was the sound
//of a stack of books falling over.
Десь у крамниці пролунав зойк крамаря. І звук падіння стосу книжок.

// 5131
//“Mr. Potter…” Professor Quirrell said slowly, “are you __sure__ of that?”
-- Містере Поттер... -- повільно сказав професор Квірел, -- ви __впевнені__ в
цьому?

// 5132
//“Quite sure. Shall we go?”
-- Доволі впевнений. Ходімо?

// 5133
//Professor Quirrell nodded, looking rather abstracted, and Harry folded the
//newspaper back up, and followed him out of the door.
Професор Квірел кивнув, він здавався неуважним, і Гаррі згорнув газету й вийшов
слідом за ним.

// 5134
//For some reason Harry didn’t seem to be hearing any street noises now.
З якоїсь причини тепер Гаррі не чув жодного шуму вулиці.

// 5135
//They walked in silence for thirty seconds before Professor Quirrell spoke.
//“Miss Skeeter viewed the original proceedings of the restricted Wizengamot
//session.”
Вони йшли серед тиші тридцять секунд, доки професор Квірел не заговорив.

-- Міс Скітер перевірила оригінальні записи закритої сесії Чарверсуду.

// 5136
//“Yes.”
-- Так.

// 5137
//“The __original proceedings of the Wizengamot.__”
-- __Оригінальні записи Чарверсуду.__

// 5138
//“Yes.”
-- Так.

// 5139
//“__I__ would have trouble doing that.”
-- __Мені__ було б складно таке провернути.

// 5140
//“Really?” said Harry. “Because if my suspicions are correct, this was done by a
//Hogwarts student.”
-- Справді? Бо, якщо мої підозри правильні, то це зробив учень Гоґвортсу.

// 5141
//“That is beyond impossible,” Professor Quirrell said flatly. “Mr. Potter… I
//regret to say that this young lady expects to marry you.”
-- Це поза межами можливого, -- сухо сказав професор Квірел. -- Містере Поттер...
Мені прикро це казати, але ця молода леді очікує на шлюб з вами.

// 5142
//“But __that__ is improbable,” said Harry. “To quote Douglas Adams, the
//impossible often has a kind of integrity which the merely improbable lacks.”
-- Але __це__ малоймовірно. Процитую Дугласа Адамса: неможливе часто має таку
цілісність, якої бракує просто малоймовірному.

// 5143
//“I see your point,” Professor Quirrell said slowly. “But… no, Mr. Potter. It
//may be impossible, but I can __imagine__ tampering with the Wizengamot
//proceedings. It is __unimaginable__ that the Grand Manager of Gringotts
//should affix the seal of his office in witness to a false betrothal contract,
//and Miss Skeeter personally verified that seal.”
-- Розумію вас, -- повільно сказав професор Квірел. -- Але... ні, містере Поттер.
Може це й неможливо, але я __можу__ уявити підробку записів Чарверсуду. А щоб
найвищий менеджер "`Ґрінґотсу`" завірив печаткою свого офісу свідоцтво про
підробну угоду про заручення, просто __неможливо__ уявити, а міс Скітер сама
перевірила цю печатку.

// 5144
//“Indeed,” said Harry, “you would expect the Grand Manager of Gringotts to get
//involved with that much money changing hands. It seems Mr. Weasley was greatly
//in debt, and so demanded an additional payment of ten thousand Galleons -”
-- Дійсно, -- сказав Гаррі, -- доволі очікувано, що стільки грошей не могли
перейти з рук у руки без найвищого менеджера "`Ґрінґотсу`". Видається, містер
Візлі був у боргах і вимагав додаткової плати в десять тисяч ґалеонів...

// 5145
//“__Ten thousand__ Galleons for a __Weasley?__ You could buy the
//daughter of a Noble House for that!”
-- __Десять тисяч__ ґалеонів за __Візлі__? Та за такі гроші можна купити доньку
шляхетного роду!

// 5146
//“Excuse me,” Harry said. “I really have to ask at this point, do people
//actually do that sort of thing around here -”
-- Перепрошую, -- сказав Гаррі. -- Але мені справді потрібно запитати, люди
дійсно тут таке роблять...

// 5147
//“Rarely,” said Professor Quirrell, with a frown on his face. “And not at all, I
//suspect, since the Dark Lord departed. I suppose that according to the
//newspaper, your father just paid it?”
-- Зрідка, -- похмуро сказав професор Квірел. -- І, підозрюю, не після того, як
нас покинув Темний Лорд. Гадаю, згідно з газетою, твій батько просто заплатив?

// 5148
//“He didn’t have any choice,” said Harry. “Not if he wanted to fulfill the
//conditions of the prophecy.”
-- У нього не було вибору. Жодного вибору, якщо він хотів задовольнити умови
пророцтва.

// 5149
//“__Give me that,__” said Professor Quirrell, and the newspaper leaped out
//of Harry’s hand so fast that he got a paper cut.
-- __Віддайте мені це__, -- сказав професор Квірел, і газета вистрибнула з рук
Гаррі так швидко, що аж порізала йому палець.

// 5150
//Harry automatically put the finger in his mouth to suck on, feeling rather
//shocked, and turned to remonstrate with Professor Quirrell -
Гаррі автоматично поклав палець до рота й почав його смоктати. Він був вкрай
здивований і обернувся, щоб обуритися професором Квірелом...

// 5151
//Professor Quirrell had stopped short in the middle of the street, and his eyes
//were flickering rapidly back and forth as an invisible force held the newspaper
//suspended before him.
Професор Квірел зупинився посеред вулиці, його очі бігали туди-сюди газетою,
що її тримала перед ним невидима сила.

// 5152
//Harry watched, gaping in open awe, as the newspaper opened to reveal pages two
//and three. And not much long after, four and five. It was like the man had cast
//off a pretense of mortality.
Гаррі дивився з роззявленим від благоговіння ротом, як газета відкрилася, щоб
показати другу й третю сторінку. Зовсім незабаром четверту й пʼяту. Скидалося
на те, що цей чоловік відкинув маскування звичайного смертного.

// 5153
//And after a troublingly short time, the paper neatly folded itself up again.
//Professor Quirrell plucked it from the air and tossed it to Harry, who caught
//it in sheer reflex; and then Professor Quirrell started walking again, and
//Harry automatically trudged after.
І після неприємно короткого часу папір охайно знову згорнувся. Професор Квірел
взяв газету з повітря й кинув її Гаррі, що рефлекторно її піймав. Потім професор
Квірел знову почав іти, і Гаррі автоматично поплентався за ним.

// 5154
//“No,” said Professor Quirrell, “that prophecy didn’t sound quite right to me
//either.”
-- Ні, -- сказав професор Квірел, -- мені теж це пророцтво не здається
правильним.

// 5155
//Harry nodded, still stunned.
Гаррі кивнув, досі приголомшений.

// 5156
//“The centaurs could have been put under an __Imperius__,” Professor
//Quirrell said, frowning, “__that__ seems understandable. What magic can
//make, magic can corrupt, and it is not unthinkable that the Great Seal of
//Gringotts could be twisted to another’s hand. The Unspeakable could have been
//impersonated with Polyjuice, likewise the Bavarian seer. And with
//__enough__ effort it might be possible to tamper with the proceedings of
//the Wizengamot. Do you have any idea how that was done?”
-- На кентаврів могли накласти закляття "`Імперіус`", -- похмуро сказав
професор Квірел, -- __це__ можна зрозуміти. Що магія може створити, те магія
може зіпсувати, і це не зовсім немислимо, щоб велика печатка "`Ґрінґотсу`"
потрапила не в ті руки. Невимовців міг зіграти хтось за допомогою
багатозільної настійки. Як і баварійську провидицю. І якщо докласти
__достатньо__ зусиль, то підробити записи Чарверсуду можливо. Ви хоч щось
знаєте про те, як це було зроблено?

// 5157
//“I do not have one single plausible hypothesis,” said Harry. “I do know it was
//done on a total budget of forty Galleons.”
-- У мене немає жодної правдоподібної гіпотези. Але я знаю, що це було зроблено
із загальним бюджетом сорок ґалеонів.

// 5158
//Professor Quirrell stopped short and whirled on Harry. His expression was now
//completely incredulous. “Forty Galleons will pay a competent ward-breaker to
//open a path into a home you wish to burglarize! Forty __thousand__
//Galleons __might__ pay a team of the greatest professional criminals in
//the world to tamper with the proceedings of the Wizengamot!”
Професор Квірел різко зупинився й крутнувся на місці, щоб обернутися до Гаррі.
На його обличчі була цілковита недовіра.

-- На сорок ґалеонів можна найняти компетентного зломщика захисних чарів, щоб
відкрити вхід до будинку, що ви бажаєте пограбувати! На сорок __тисяч__ ґалеонів,
__можливо__, можна найняти команду найвидатніших професійних злочинців у світі,
щоб вони підробили записи Чарверсуду!

// 5159
//Harry shrugged helplessly. “I’ll remember that the next time I want to save
//thirty-nine thousand, nine hundred and sixty Galleons by finding the right
//contractor.”
Гаррі безпорадно знизав плечима.

-- Я памʼятатиму це наступного разу, коли захочу зекономити тридцять девʼять тисяч
девʼятсот шістдесят ґалеонів, просто вибравши правильного підрядника.

// 5160
//“I do not say this often,” said Professor Quirrell. “I am impressed.”
-- Я нечасто таке кажу, -- промовив професор Квірел. -- Я вражений.

// 5161
//“Likewise,” said Harry.
-- Я теж, -- сказав Гаррі.

// 5162
//“And who is this incredible Hogwarts student?”
-- І хто ж цей неймовірний учень Гоґвортсу?

// 5163
//“I’m afraid I couldn’t say.”
-- Боюся, я не можу сказати.

// 5164
//Somewhat to Harry’s surprise, Professor Quirrell made no objection to this.
Гаррі трохи здивувався, але професор Квірел не наполягав.

// 5165
//They walked in the direction of the Gringotts building, thinking, for they were
//neither of them the sort of person who would give up on the problem without
//considering it for at least five minutes.
Вони йшли в напрямку будівлі "`Ґрінґотс`", розмірковуючи. Вони обидва
обовʼязково розглядали задачу принаймні пʼять хвилин перед визнанням своєї
поразки.

// 5166
//“I have a feeling,” Harry said finally, “that we’re coming at this from the
//wrong angle. There’s a tale I once heard about some students who came into a
//physics class, and the teacher showed them a large metal plate near a fire. She
//ordered them to feel the metal plate, and they felt that the metal nearer the
//fire was cooler, and the metal further away was warmer. And she said, write
//down your guess for why this happens. So some students wrote down ‘because of
//how the metal conducts heat’, and some students wrote down ‘because of how the
//air moves’, and no one said ‘this just seems impossible’, and the real answer
//was that before the students came into the room, the teacher turned the plate
//around.”
-- У мене відчуття, -- нарешті сказав Гаррі, -- що ми дивимося на це під
неправильним кутом. Я якось чув історію про учнів, що прийшли в кабінет фізики,
і вчителька показала їм велику металеву пластину поряд з вогнищем. Вона
наказала їм обмацати металеву пластину, і вони відчули, що метал ближче до
полумʼя холодний, а далі -- теплий. І вона сказала їм записати свої здогади з
приводу того, чому так відбувається. І багато учнів написали "`через те, як
метал проводить тепло`", інші "`через рух повітря`", але ніхто не сказав "`це
здається просто неможливим`". А справжньою відповіддю було те, що вчителька ще
перед приходом першого учня розвернула пластину.

// 5167
//“Interesting,” said Professor Quirrell. “That does sound similar. Is there a
//moral?”
-- Цікаво. Звучить схоже. Чи є якась мораль у цієї історії?

// 5168
//“That your strength as a rationalist is your ability to be more confused by
//fiction than by reality,” said Harry. “If you’re equally good at explaining any
//outcome, you have zero knowledge. The students thought they could use words
//like ‘because of heat conduction’ to explain anything, even a metal plate being
//cooler on the side nearer the fire. So they didn’t notice how confused they
//were, and that meant they couldn’t be more confused by falsehood than by truth.
//If you tell me that the centaurs were under the __Imperius__ Curse, I
//still have the feeling of something being not quite right. I notice that I’m
//still confused even after hearing your explanation.”
// hedrok: копія "strength as a rationalist ... than by reality" 031:6488
-- Що сила раціоналіста в здатності бути більш спантеличеним фікцією, ніж
дійсністю. Якщо ви однаково добре пояснюєте будь-який результат, то у вас
немає жодних знань. Учні думали, що як використати фрази на кшталт "`через
провідність тепла`", то можна пояснити що завгодно, навіть якщо металева
пластина холодніша біля вогню. Тобто вони не усвідомили, які вони
спантеличені, а це означало, що обман їх спантеличує не більше, ніж правда.
Якщо ви кажете мені, що на кентаврів наклали закляття "`Імперіус`", мені все
одно здається, що щось тут не так. Я відчуваю, що я все одно спантеличений,
навіть після того, як почув це пояснення.

// 5169
//“Hm,” said Professor Quirrell.
-- Гм, -- сказав професор Квірел.

// 5170
//They walked on further.
Вони пішли далі.

// 5171
//“I don’t suppose,” said Harry, “that it’s possible to __actually__ swap
//people into alternate universes? Like, this isn’t our own Rita Skeeter, or they
//temporarily sent her somewhere else?”
-- Я так розумію, -- сказав Гаррі, -- що неможливо __справді__ міняти людей з
їхніми копіями з альтернативних всесвітів? Ну, ніби це не наша власна Ріта
Скітер, і її тимчасово відправили деінде?

// 5172
//“If __that__ was possible,” Professor Quirrell said, his voice rather dry,
//“would I still be __here?__”
-- Якби __таке__ було можливим, -- доволі сухо сказав професор Квірел, -- хіба
я б досі був __тут__?

// 5173
//And just as they were almost to the huge white front of the Gringotts building,
//Professor Quirrell said:
І коли вони майже підійшли до величезного білого фасаду будівлі "`Ґрінґотсу`",
професор Квірел сказав:

// 5174
//“Ah. Of __course.__ I see it now. Let me guess, the Weasley twins?”
-- А. Ну __звісно__. Тепер я розумію. Спробую здогадатися, близнюки Візлі?

// 5175
//“__What?__” said Harry, his voice going up another octave in pitch.
//”__How?__”
-- __Що?__ -- запитав Гаррі, його голос піднявся на октаву. -- __Як?__

// 5176
//“I’m afraid I couldn’t say.”
-- Боюся, я не можу сказати.

// 5177
//“…That is __not__ fair.”
-- ...Це __нечесно__.

// 5178
//“I think it is extremely fair,” said Professor Quirrell, and they entered
//through the bronze doors.
-- А я вважаю, що це надзвичайно чесно, -- сказав професор Квірел, і вони
пройшли крізь бронзові двері.

***

// 5179
//The time was just before noon, and Harry and Professor Quirrell were seated at
//the foot and head of a wide, long, flat table, in a sumptuously appointed
//private room with thoroughly cushioned couches and chairs along the walls, and
//soft curtains hanging everywhere.
Був майже полудень. Професор Квірел сидів у голові стола, а Гаррі -- з
протилежного боку. Вони були в розкішно обставленій окремій кімнаті з
диванчиками, що були наповнені подушками, і стільцями вздовж стін, а також там
повсюди висіли мʼякі занавіски.

// 5180
//They were about to eat lunch in Mary’s Place, which Professor Quirrell had said
//was known to him as one of the best restaurants in Diagon Alley, especially for
//- his voice had dropped meaningfully - __certain purposes.__
Вони збиралися пообідати у закладі "`У Мері`", що, за словами професора
Квірела, був одним з найкращих ресторанів алеї Діаґон, особливо для, він
змовницьки стишив голос, для __деяких цілей__.

// 5181
//It was the nicest restaurant that Harry had ever been in, and it was really
//eating away at Harry that Professor Quirrell was treating __him__ to the
//meal.
Це був найприємніший ресторан з усіх, в яких Гаррі бував, і його справді гризло,
що професор Квірел пригощав __його__ обідом.

// 5182
//The first part of the mission, to find an Occlumency instructor, had been a
//success. Professor Quirrell, smiling evilly, had told Griphook to recommend the
//best he knew, and not worry about the expense, since Dumbledore was paying it;
//and the goblin had smiled in return. There might have been a certain amount of
//smiling on Harry’s part as well.
Перша частина їхньої місії -- пошуки інструктора з блокології -- завершилася
успішно. Професор Квірел зі злою посмішкою сказав був Ґрипхукові порекомендувати
найкращого з відомих і не зважати на витрати, адже Дамблдор усе сплачує. Ґоблін
посміхнувся був у відповідь. Можливо й Гаррі не стримав посмішки.

// 5183
//The second part of the plan had been a complete failure.
А ось друга частина плану завершилася повною невдачею.

// 5184
//Harry was not allowed to take money out of his vault without Headmaster
//Dumbledore or some other school official present, and Professor Quirrell had
//not been given the vault key. Harry’s Muggle parents could not authorize it
//because they were Muggles, and Muggles had around the same legal standing as
//children or kittens: they were cute, so if you tortured them in public you
//could get arrested, but they weren’t __people__. Some reluctant provision
//had been made for recognizing the parents of Muggleborns as human in a limited
//sense, but Harry’s adoptive parents did not fall into that legal category.
Гаррі не дозволялося брати гроші зі свого сховища без присутності директора
Дамблдора чи присутності іншого представника школи, а професорові Квірелу не
надали ключа. Маґлівські батьки Гаррі не могли надати дозволу, адже були
маґлами, а маґли мали приблизно стільки ж юридичних прав, скільки діти чи
кошенята: вони були гарнюсінькими, отже якщо прилюдно їх катувати, то вас
заарештують, проте вони не були __людьми__. Неохоче були зроблені деякі
поступки з визнання батьків маґлородців людьми в обмеженому сенсі, проте
названі батьки Гаррі не належали до цієї юридичної категорії.

// 5185
//It seemed that Harry was effectively an orphan in the eyes of the wizarding
//world. As such, the Headmaster of Hogwarts, or his designees __within__
//the school system, were Harry’s guardians until he graduated. Harry
//__could__ breathe without Dumbledore’s permission, but only so long as the
//Headmaster did not specifically prohibit it.
Видавалося, що в очах чаклунського світу Гаррі був фактично сиротою.
Відповідно, директор Гоґвортсу чи його представники __зі шкільної системи__
були опікунами Гаррі, доки той не завершить навчання. Гаррі __міг__ дихати без
дозволу Дамблдора, але лише доки той окремо не заборонить це.

// 5186
//Harry had then asked if he could simply __tell__ Griphook how to diversify
//his investments beyond stacks of gold coins sitting in his vault.
Тоді Гаррі запитав був, чи може він просто __сказати__ Ґрипхукові, як
розподілити свої вклади зі стосів золота з його сховища.

// 5187
//Griphook had stared blankly and asked what ‘diversify’ meant.
Ґрипхук нерозуміюче втупився в нього й запитав, що він має на увазі,
"`розподілити`".

// 5188
//Banks, it seemed, did not make investments. Banks stored your gold coins in
//secure vaults for an annual fee.
Видається, банки не робили вкладів. Банки зберігали ваші золоті монети в
безпечних сховищах за річну платню.

// 5189
//The wizarding world did not have a concept of stock. Or equity. Or
//corporations. Businesses were run by families out of their personal vaults.
Чаклунський світ не мав поняття ринку. Чи акціонерного товариства. Чи
корпорації. Існував лише родинний бізнес, що зберігав гроші в особистих
сховищах.

// 5190
//Loans were made by rich people, not banks. Though Gringotts would witness the
//contract, for a fee, and enforce its collection, for a much larger fee.
Позичали гроші багатії -- не банки. Хоча "`Ґрінґотс`" міг бути свідком -- за
платню, і міг сприяти поверненню боргу -- за значно більшу платню.

// 5191
//Good rich people let their friends borrow money and pay it back whenever.
//__Bad__ rich people charged you __interest.__
Добрі багатії позичали гроші друзям, і дозволяли повернути коли завгодно.
__Погані__ багатії вимагали __відсоток__.

// 5192
//There was no secondary market in loans.
Другого ринку позик не існувало.

// 5193
//Evil rich people charged you annual interest rates of at least 20//.
Злі багатії вимагали принаймні 20% на рік.

// 5194
//Harry had stood up, turned away, and rested his head against the wall.
Гаррі підвівся, відвернувся й поклав голову на стіну.

// 5195
//Harry had asked if he needed the Headmaster’s permission before he could start
//a bank.
Тоді Гаррі запитав, чи потрібен дозвіл директора, щоб створити власний банк.

// 5196
//Professor Quirrell had interrupted at this point, saying that it was time for
//lunch, and swiftly conducted a fuming Harry out of the bronze doors of
//Gringotts, through Diagon Alley, and to a fine restaurant called Mary’s Place,
//where a room had been reserved for them. The owner had looked shocked at seeing
//Professor Quirrell accompanied by Harry Potter, but had conducted them to the
//room without complaint.
Тоді професор Квірел його перервав, сказавши, що їм вже час обідати, швидко провів
розгніваного Гаррі через бронзові двері, алеєю Діаґон, і до гарного ресторану під
назвою "`У Мері`", де на них чекала заброньована кімната. Видавалося, власник був
шокований тим, що з професором Квірелом був Гаррі Поттер, проте довів їх до кімнати
без зайвого слова.

// 5197
//And Professor Quirrell had quite deliberately announced that he would pay the
//bill, seeming to rather enjoy the look on Harry’s face.
Далі професор Квірел нарочито проголосив, що оплатить рахунок, і він явно
насолоджувався виразом обличчя Гаррі.

// 5198
//“No,” said Professor Quirrell to the waitress, “we will not require menus. I
//will have the daily special accompanied by a bottle of Chianti, and Mr. Potter
//will have the Diracawl soup to start, followed by a plate of Roopo balls, and
//treacle pudding for dessert.”
// hedrok @ Roopo balls - babylon 5, також у 88:15929
-- Ні, -- сказав офіціантці професор Квірел, -- нам не потрібно меню. Я буду
сьогоднішню фірмову страву з пляшкою кʼянті, а містер Поттер буде дірікольний
суп на перше, таріль кульок рупу на друге й мелясовий пудинг на десерт.

// 5199
//The waitress, clad in robes that still looked severe and formal while being
//rather shorter than usual, bowed respectfully and departed, shutting the door
//behind her.
Офіціантка, вбрана в мантію, що хоч і була суворою й офіційною, але була значно
коротшою за звичайну, з повагою вклонилася й пішла, зачинивши за собою двері.

// 5200
//Professor Quirrell waved a hand in the direction of the door, and a bolt slid
//shut. “Note the bolt on the inside. This room, Mr. Potter, is known as Mary’s
//Room. It happens to be proof against all scrying, and I do mean __all;__
//Dumbledore himself could detect nothing of what happens here. Mary’s Room is
//used by two kinds of people. The first sort are engaged in illicit dalliances.
//And the second sort lead interesting lives.”
Професор Квірел махнув рукою в напрямку дверей і клямка зачинилася.

// hedrok: @ scrying
-- Зверніть увагу на клямку зсередини. Ця кімната, містере Поттер, відома під
назвою "`Кімната Мері`". Так сталося, що вона захищена від всіх магічних
методів підглядання, і я маю на увазі __всіх__. Сам Дамблдор не може дізнатися,
що тут відбувається. "`Кімнату Мері`" використовують два типи людей. Перші
беруть участь у недозволених стосунках. А другі мають цікаве життя.

// 5201
//“__Really,__” said Harry.
-- __Справді__, -- сказав Гаррі.

// 5202
//Professor Quirrell nodded.
Професор Квірел кивнув.

// 5203
//Harry’s lips were parted in anticipation. “It would be a waste to just sit here
//and eat lunch, then, without doing anything special.”
// hedrok: @ хтось сформулюйте це нормально :)
Гаррі трохи розтулив вуста від очікування.

-- Тоді просто сидіти тут, їсти обід і не робити нічого особливого було б
марнотратством.

// 5204
//Professor Quirrell grinned, then took out his wand and flicked it in the
//direction of the door. “Of course,” he said, “people who lead interesting lives
//take precautions more __thorough__ than the dalliers. I have just sealed
//us in. Nothing will now pass in or out of this room - through the crack under
//the door, for example. And…”
Професор Квірел широко всміхнувся, потім дістав паличку й вказав нею на двері.

-- Звісно, -- сказав він, -- ті, що мають цікаве життя, застосовують __ретельніші__
запобіжні заходи, ніж люди, що крутять романи. Я щойно нас запечатав. Тепер ніщо не
може проникнути в кімнату чи з неї -- наприклад, крізь щілину під дверима. І...

// 5205
//Professor Quirrell then spoke no fewer than four different Charms, none of
//which Harry recognized.
Потім професор Квірел вимовив не менш ніж чотири різних закляття, жодне з яких
Гаррі не впізнав.

// 5206
//“Even that does not __really__ suffice,” said Professor Quirrell. “If we
//were doing anything of truly great import, it would be necessary to perform
//another twenty-three checks besides those. If, say, Rita Skeeter knew or
//guessed that we would come here, it is possible that she could be in this room
//wearing the true Cloak of Invisibility. Or she could be an Animagus with a tiny
//form, perhaps. There are tests to rule out such rare possibilities, but to
//perform all of them would be arduous. Still, I wonder if I should do them
//anyway, just so as not to teach you bad habits?” And Professor Quirrell tapped
//a finger on his cheek, looking abstracted.
-- Навіть цього __насправді__ недостатньо, -- сказав професор Квірел. -- Якби
ми робили щось дійсно важливе, то обовʼязково треба було б застосувати ще
двадцять три перевірки. Якщо, скажімо, Ріта Скітер знала б чи здогадалася,
що ми прийдемо сюди, то вона б теоретично могла бути в цій кімнаті під
справжнім Плащем невидимості. Або вона могла б бути анімагом з якоюсь дрібною
формою. Є перевірки, щоб виключити навіть такі рідкісні можливості, проте виконувати
їх усіх було б клопотом. І все одно я вагаюся: можливо варто все одно їх виконати,
просто щоб не привчати вас до поганого?

І професор Квірел почав постукувати пальцем по щоці, ніби замислився.

// 5207
//“It’s fine,” Harry said, “I understand, and I’ll remember.” Though he was a
//little disappointed that they weren’t doing anything of truly great import.
-- Усе гаразд, -- сказав Гаррі, -- я розумію, і я запамʼятаю.

Хоча він був дещо розчарований, що вони не збиралися робити нічого дійсно
важливого.

// 5208
//“Very well,” Professor Quirrell said. He leaned back in his chair, smiling
//broadly. “You wrought quite well today, Mr. Potter. The basic notion was yours,
//I’m sure, even if you delegated the execution. I don’t think we’ll be hearing
//much more from Rita Skeeter after this. Lucius Malfoy will not be pleased with
//her failure. If she’s smart, she’ll flee the country the instant she realizes
//she’s been fooled.”
-- Ну гаразд, -- сказав професор Квірел. Він сперся на спинку крісла й широко
всміхнувся. -- Ви добре попрацювали сьогодні, містере Поттер. Я впевнений,
загальна думка була вашою, навіть якщо ви доручили комусь виконання. Не думаю,
що ми колись ще почуємо про Ріту Скітер. Луціус Мелфой не буде задоволеним її
невдачею. Якщо вона розумна, то втече з країни, щойно збагне, що її обдурили.

// 5209
//A sinking sensation began to dawn in Harry’s stomach. “Lucius was behind Rita
//Skeeter…?”
Гаррі стало зле.

-- За Рітою Скітер стояв Луціус?..

// 5210
//“Oh, you didn’t realize that?” said Professor Quirrell.
-- О, ви цього не знали? -- запитав професор Квірел.

// 5211
//Harry hadn’t thought about what would happen to Rita Skeeter afterward.
Гаррі не думав був, що станеться з Рітою Скітер після цього.

// 5212
//At all.
Узагалі.

// 5213
//Not in the slightest.
Ані крапельки.

// 5214
//But she would get fired from her job, __of course__ she would be fired,
//she might have children going through Hogwarts for all Harry knew, and now it
//was worse, much worse -
Але ж її звільнять з роботи, __ну звісно__ її звільнять. У неї цілком можуть
бути діти в Гоґвортсі, а тепер усе було гірше, значно гірше...

// 5215
//“Is Lucius going to have her killed?” Harry said in a barely audible voice.
//Somewhere in his head, the Sorting Hat was screaming at him.
-- Луціус її вбʼє? -- ледь чутно запитав Гаррі. Десь у його розумі на нього
гучно кричав Сортувальний Капелюх.

// 5216
//Professor Quirrell smiled dryly. “If you have not dealt with journalists
//before, take it from me that the world gets a little brighter every time one
//dies.”
Професор Квірел сухо посміхнувся.

-- Якщо вам раніше не доводилося мати справу з журналістами, повірте мені на слово, що
світ стає трохи яскравішим щоразу, як хтось із них помирає.

// 5217
//Harry jumped out of his chair with a convulsive movement, he had to find Rita
//Skeeter and warn her before it was too late -
Гаррі підстрибнув зі свого стільця конвульсивним рухом. Він мав знайти Ріту
Скітер та попередити її, доки не стало запізно...

// 5218
//“__Sit down__,” Professor Quirrell said sharply. “__No__, Lucius
//won’t kill her. But Lucius makes life __extremely__ unpleasant for those
//who serve him ill. Miss Skeeter will flee and start her life over with a new
//name. __Sit down,__ Mr. Potter; there is nothing you can do at this point,
//and you have a lesson to learn.”
-- __Сядьте__, -- різко сказав професор Квірел. -- __Ні__, Луціус її не вбʼє.
Але Луціус вміє зробити життя __вкрай__ неприємним для тих, хто йому погано
прислужився. Міс Скітер втече й почне життя спочатку під новим імʼям.
__Сядьте__, містере Поттер. Наразі ви нічого не можете вдіяти, і маєте дечого
навчитися.

// 5219
//Harry sat down, slowly. There was a disappointed, annoyed look on Professor
//Quirrell’s face that was doing more to stop him than the words.
Гаррі повільно сів. На обличчі професора Квірела було розчарування й
роздратування. Це зупинило Гаррі успішніше, ніж слова.

// 5220
//“There are times,” Professor Quirrell said, his voice cutting, “when I worry
//that your brilliant Slytherin mind is simply wasted on you. Repeat after me.
//Rita Skeeter was a vile, disgusting woman.”
-- Подеколи, -- різко сказав професор Квірел, -- я непокоюся, чи не змарновано
на вас ваш геніальний слизеринський розум. Повторюйте за мною. Ріта Скітер була
мерзенною, огидною жінкою.

// 5221
//“Rita Skeeter was a vile, disgusting woman,” Harry said. He wasn’t comfortable
//saying it, but there didn’t seem to be any other possible actions, none at all.
-- Ріта Скітер була мерзенною, огидною жінкою, -- сказав Гаррі. Йому було
незручно це казати, проте інших можливих дій не існувало -- жодної.

// 5222
//“Rita Skeeter tried to destroy my reputation, but I executed an ingenious plan
//and destroyed __her__ reputation first.”
-- Ріта Скітер намагалася знищити мою репутацію, проте я виконав геніальний план
і першим знищив __її__ репутацію.

// 5223
//“Rita Skeeter challenged me. She lost the game, and I won.”
-- Ріта Скітер кинула мені виклик. Вона програла, а я виграв.

// 5224
//“Rita Skeeter was an obstacle to my future plans. I had no choice but to deal
//with her if I wanted those plans to succeed.”
-- Ріта Скітер була перешкодою для моїх майбутніх планів. І в мене не було вибору,
крім як розібратися з нею, якщо я хочу втілити свої плани.

// 5225
//“Rita Skeeter was my enemy.”
-- Ріта Скітер була моїм ворогом.

// 5226
//“I cannot possibly get anything done in life if I am not willing to defeat my
//enemies.”
-- Неможливо досягти чогось у житті, якщо не мати можливості перемагати
ворогів.

// 5227
//“I have defeated one of my enemies today.”
-- Я сьогодні переміг одного зі своїх ворогів.

// 5228
//“I am a good boy.”
-- Я гарний хлопчик.

// 5229
//“I deserve a special reward.”
-- Я заслуговую на особливу винагороду.

// 5230
//“Ah,” said Professor Quirrell, who had been grinning a benevolent smile for the
//last few lines, “I see I have succeeded in catching your attention.”
-- А, -- сказав професор Квірел, що великодушно посміхався протягом останніх
декількох фраз, -- як я бачу, мені вдалося привернути вашу увагу.

// 5231
//That was true. And while Harry felt like he was being railroaded into something
//- no, that wasn’t just a feeling, he __had__ been railroaded - he couldn’t
//deny that saying those things, and seeing Professor Quirrell’s smile,
//__did__ make him feel better.
Це було правдою. І хоча Гаррі почувався, ніби йому навʼязали щось -- ні, це
було не просто почуття, йому __навʼязали__ думку, -- він не міг заперечити, що
сказавши ці слова й побачивши усмішку професора Квірела, йому стало __справді__
ліпше.

// 5232
//Professor Quirrell reached into his robes, the gesture slow and deliberately
//significant, and drew forth…
Професор Квірел повільно й нарочито значуще занурив руку в мантію та дістав...

// 5233
//…a __book__.
...__книжку__.

// 5234
//It was different from any book Harry had ever seen, the edges and corners
//visibly misshapen; __rough-hewn__ was the phrase that came to mind, like
//it had been hacked out of a book mine.
Вона не була схожа на жодну книжку, яку бачив Гаррі: краї та кути були
неправильної форми, на думку спадало словосполучення "`грубо обтесаний`", ніби
книжку видобули з книжкової шахти.

// 5235
//“What is it?” breathed Harry.
-- Що це? -- видихнув Гаррі.

// 5236
//“A diary,” said Professor Quirrell.
-- Щоденник, -- сказав професор Квірел.

// 5237
//“Whose?”
-- Чий?

// 5238
//“That of a famous person.” Professor Quirrell was smiling broadly.
-- Однієї відомої людини, -- професор Квірел широко всміхався.

// 5239
//“Okay…”
-- Добренько...

// 5240
//Professor Quirrell’s expression became more serious. “Mr. Potter, one of the
//requisites for becoming a powerful wizard is an excellent memory. The key to a
//puzzle is often something you read twenty years ago in an old scroll, or a
//peculiar ring you saw on the finger of a man you met only once. I mention this
//to explain how I managed to remember this item, and the placard attached to it,
//after meeting you a good deal later. You see, Mr. Potter, over the course of my
//life, I have viewed a number of private collections held by individuals who
//are, perhaps, not quite deserving of all that they have -”
// hedrok: копія в 056:9907 (one of the ... met only once)
Професор Квірел посерйознішав.

-- Містере Поттер, однією з обовʼязкових якостей могутнього чаклуна є відмінна
памʼять. Ключем до загадки часто є щось, що ви прочитали двадцять років тому в
старому манускрипті, чи ексцентричний перстень, що ви його побачили на пальці
людини, яку зустрічали лише одного разу. Я кажу це, щоб пояснити, як мені
вдалося згадати цю річ і причеплене до неї оголошення після того, як я вас
зустрів значно пізніше. Розумієте, містере Поттер, за час свого життя я
переглянув чимало приватних колекцій, що належать особистостям, які, гадаю, не
зовсім заслуговують мати те, що вони мають...

// 5241
//“You __stole__ it?” Harry said incredulously.
-- Ви __вкрали__ її? -- недовірливо запитав Гаррі.

// 5242
//“That is correct,” said Professor Quirrell. “Very recently, in fact. I think
//you will appreciate this particular item much more than the vile little man who
//held it for no other purpose than impressing his equally vile friends with its
//rarity.”
-- Саме так. Насправді, зовсім нещодавно. Я вважаю, що ви оціните цю річ значно
більше, ніж дрібний підлий чоловічок, що зберігав її лише для того, щоб
справляти враження на своїх не менш підлих друзів її рідкісністю.

// 5243
//Harry was simply gaping now.
Тепер Гаррі просто роззявив рота.

// 5244
//“But if you feel that my actions were incorrect, Mr. Potter, I suppose you
//needn’t accept your special present. Though of course I shan’t go to the
//trouble of stealing it __back__. So which is it to be?”
-- Але якщо вам мої дії здаються неправильними, містере Поттер, гадаю, ви не
зобовʼязані приймати свій особливий подарунок. Хоча, звичайно, я не обтяжуватиму
себе __зворотним__ викраданням. То як воно буде?

// 5245
//Professor Quirrell tossed the book from one hand to another, causing Harry to
//reach out involuntarily with a look of dismay.
Професор Квірел перекидав книжку з руки в руку, через що Гаррі мимоволі
з тривогою простягнув руки.

// 5246
//“Oh,” said Professor Quirrell, “don’t worry about a little rough handling. You
//could toss this diary in a fireplace and it would emerge unscathed. In any
//case, I await your decision.”
-- О, -- сказав професор Квірел, -- не хвилюйтеся про дещо грубе користування.
Цей щоденник можна кинути у вогнище і він залишиться неушкодженим. Хай там як --
я чекаю на ваше рішення.

// 5247
//Professor Quirrell casually threw the book up into the air and caught it again,
//grinning.
Професор Квірел, посміхаючись, мимохідь підкинув книжку в повітря й знову
впіймав її.

// 5248
//__No,__ said Gryffindor and Hufflepuff.
__Ні__, сказали ґрифіндорець і гафелпафець.

// 5249
//__Yes__, said Ravenclaw. __What part of the word ‘book’ did you two
//not understand?__
__Так__, сказав рейвенкловець. __Яку частину слова "`книжка`" ви двоє
не зрозуміли?__

// 5250
//__The theft part,__ said Hufflepuff.
__Частину про крадіжку__, відповів гафелпафець.

// 5251
//__Oh, come on,__ said Ravenclaw, __you can’t seriously ask us to say
//no and spend the rest of our life wondering what it was.__
__Ой, облиш__, -- сказав рейвенкловець, __ви ж не можете всерйоз пропонувати
відмовитися й провести решту життя в роздумах, що ж це було.__

// 5252
//__It sounds like a net positive from a utilitarian standpoint,__ said
//Slytherin. __Think of it as an economic transaction which generates gains
//from trade, only without the trade part.____ Plus, __we __didn’t steal it and
//it won’t help anyone to have Professor Quirrell keep it.__
__Здається, підсумковий результат позитивний з утилітарної точки зору__, сказав
слизеринець. __Вважайте це економічною транзакцією, що призводить до виграшу
від торгівлі, тільки без торгівлі. На додачу, __ми__ нічого не крали і ніхто не
виграє, якщо професор Квірел залишить книжку собі.__

// 5253
//__He’s trying to turn you Dark!__ shrieked Gryffindor, and Hufflepuff
//nodded firmly.
__Він намагається перетягти тебе на Темну сторону!__ заверещав ґрифіндорець, а
гафелпафець впевнено кивнув.

// 5254
//__Don’t be a naive little boy,__ said Slytherin, __he’s trying to
//teach you Slytherin.__
__Не будь наївним маленьким хлопчиком__, сказав слизеринець, __він намагається
навчити тебе Слизерину__.

// 5255
//__Yeah,__ said Ravenclaw. __Whoever owned the book originally was
//probably a Death Eater or something. It belongs with us.__
__Ага__, сказав рейвенкловець. __Хай хто володів цією книжкою, він напевно був
смертежером чи кимось таким. Вона належить нам__.

// 5256
//____

// 5257
//Harry’s mouth opened, then halted that way, an agonized look on his face.
Гаррі розкрив рота та так його й залишив -- на його обличчі було видно боротьбу.

// 5258
//Professor Quirrell seemed to be quite enjoying himself. He had balanced the
//book on its corner, on one finger, and was keeping it upright while humming a
//little tune.
Професор Квірел, задавалося, щиро насолоджувався собою. Він тримав книжку
кутком на одному пальці й балансував рукою, щоб вона залишалася вертикальною,
та наспівував невеличку мелодію.

// 5259
//There came a knock at the door.
Пролунав стук у двері.

// 5260
//The book vanished back into Professor Quirrell’s robes, and he rose up from his
//chair. Professor Quirrell started to walk over to the door -
Книжка зникла під мантією професора Квірела, він підвівся зі стільця. Професор
Квірел почав йти до дверей...

// 5261
//- and staggered, suddenly lurching into the wall.
...і раптом похитнувся та вдарився об стіну.

// 5262
//“It’s all right,” said Professor Quirrell’s voice, which suddenly sounded a lot
//weaker than usual. “Sit down, Mr. Potter, it’s just a dizzy spell. Sit down.”
-- Усе гаразд, -- пролунав голос професора Квірела, що звучав значно слабше, ніж
зазвичай. -- Сядьте, містере Поттер, це просто запаморочливе закляття. Сядьте.

// 5263
//Harry’s fingers gripped the edge of his chair, uncertain as to what he should
//do, what he __could__ do. Harry couldn’t even get too close to Professor
//Quirrell, not unless he wanted to defy that sense of Doom -
Гаррі стиснув край стільця, він не знав, що слід зробити, що він __міг__
зробити. Гаррі навіть не міг підійти до професора Квірела близько, якщо не
хотів боротися з цим відчуттям невідворотного...

// 5264
//Professor Quirrell straightened, then, his breathing seeming a bit heavy, and
//opened the door.
Професор Квірел випростався і, хоча він трохи важко дихав, відчинив двері.

// 5265
//The waitress came in, bearing a platter of food; and as she distributed the
//plates, Professor Quirrell walked slowly back to the table.
Офіціантка зайшла з тацею їжі. Доки вона розподіляла тарілки, професор
Квірел повільно повернувся до столу.

// 5266
//But by the time the waitress had bowed her way out, Professor Quirrell was
//sitting upright and smiling again.
Але коли офіціантка вклонилася й пішла, професор Квірел вже сидів прямо й знову
всміхався.

// 5267
//Still, the brief episode of whatever-it-was had decided Harry. He couldn’t say
//no, not after Professor Quirrell had gone to that much trouble.
І все одно цей короткий епізод хай-там-що-це-було переконав Гаррі. Він не міг
відмовитися, не після того, як професор Квірел пішов був на такі труднощі.

// 5268
//“Yes,” Harry said.
-- Так, -- сказав Гаррі.

// 5269
//Professor Quirrell held up a cautioning finger, then took out his wand again,
//locked the door again, and repeated three of the same Charms from earlier.
Професор Квірел застережливо підняв палець, потім знову дістав паличку, знову
замкнув двері й повторив ті самі три закляття, що й раніше.

// 5270
//Then Professor Quirrell took the book back out of his robes and tossed it to
//Harry, who almost dropped it into his soup.
Далі професор Квірел дістав книжку з мантії та кинув її Гаррі так, що він ледь
не впустив її у свій суп.

// 5271
//Harry shot Professor Quirrell a look of helpless indignation. You weren’t
//supposed to __do__ that with books, enchanted or not.
Гаррі зиркнув з безпомічним обуренням на професора Квірела. Так не __роблять__
з книжками, зачаклованими чи ні.

// 5272
//Harry opened the book with ingrained, instinctive care. The pages seemed too
//thick, with a texture unlike either Muggle paper or wizarding parchment. And
//the contents were…
Гаррі розгорнув книжку з невідʼємною, інстинктивною обережністю. Сторінки здавалися
надто товстими, з не схожою ані на маґлівський папір, ані чаклунський пергамент
текстурою. А текст був...

// 5273
//…blank?
...відсутній?

// 5274
//“Am I supposed to be seeing -”
-- Чи маю я бачити...

// 5275
//“Look nearer the beginning,” said Professor Quirrell, and Harry (again with
//that helpless, ingrained care) turned a block of pages back.
-- Подивіться ближче до початку, -- сказав професор Квірел, і Гаррі (він знову
нічого не міг вдіяти -- з невідʼємною обережністю) перегорнув багато сторінок
назад.

// 5276
//The lettering was obviously handwritten, and very hard to read, but Harry
//thought the words might be Latin.
Літери явно були написані від руки, і їх було вкрай важко прочитати, але Гаррі
здалося, що слова можуть бути латинськими.

// 5277
//“What __is__ this?” said Harry.
-- __Що__ це? -- запитав Гаррі.

// 5278
//“That,” said Professor Quirrell, “is a record of the magical researches of a
//Muggleborn who never came to Hogwarts. He refused his letter, and conducted his
//own small investigations, which never did get very far without a wand. From the
//description on the placard, I expect that his name bears rather more
//significance to you than to me. That, Harry Potter, is the diary of Roger
//Bacon.”
-- Це, -- відповів професор Квірел, -- записи про магічні дослідження маґлородця, що не відвідував Гоґвортс. Він
відповів відмовою на лист і проводив свої власні невеличкі дослідження, що ніколи
не просунулися далеко без палички. З опису на оголошенні, я гадаю, що його імʼя має
для вас більше значення, ніж для мене. Це, Гаррі Поттере, щоденник Роджера Бекона.

// 5279
//Harry almost fainted.
Гаррі ледь не знепритомнів.

// 5280
//Nestled up against the wall, where Professor Quirrell had stumbled, glistened
//the crushed remains of a beautiful blue beetle.
Біля того місця стіни, об яке вдарився професор Квірел, приховалися блискучі
розчавлені рештки гарного синього жука.
