// 5951
//== Egocentric Bias
== Розділ 29. Егоцентричне упередження

// 5952
//Unfortunately, no one can be told who J. K. Rowling is. You have to see her for
//yourself.
// hedrok: Матриця, переклад 1+1
На жаль, не можна просто пояснити, хто така Дж. К. Ролінґ. Ти повинен побачити
її сам.

// 5953
//Science disclaimers: Luosha points out that the theory of empathy in Ch. 27
//(you use your own brain to simulate others) isn’t quite a known scientific
//fact. The evidence so far points in that direction, but we haven’t analyzed the
//brain circuitry and proven it. Similarly, timeless formulations of quantum
//mechanics (alluded to in Ch. 28) are so elegant that I’d be shocked to find the
//final theory had time in it, but they’re not established yet either.
Наукові попередження: Luosha зазначає, що теорія емпатії в 27-му розділі (мовляв,
для симуляції роботи мозку інших використовується власний) не є відомим науковим
фактом. Наявні докази вказують у цьому напрямку, проте ми ще не проаналізували
електричні кола мозку й не довели цього. Так само, безчасові формулювання
квантової механіки (згадані в 28-му розділі) такі елегантні, що я буду шокованим,
якщо фінальна теорія міститиме час, проте вони теж ще не підтверджені.

***

// 5954
//There’d been a sinking feeling in Hermione’s stomach lately, every time she
//heard the other students talking about her and Harry. She’d been in a shower
//stall this morning when she’d overheard a conversation between Morag and Padma
//that had been the last straw piled on top of quite a lot of other straws.
Останнім часом Герміону пересмикувало щоразу, як вона чула, що інші учні
обговорюють її та Гаррі. Зранку, доки вона була в душовій кабінці, вона
підслухала розмову Мораґ і Падми, що стала останньою краплею в доволі великій
цеберці.

// 5955
//She was starting to think that getting involved in a rivalry with Harry Potter
//had been a terrible mistake.
Вона починала підозрювати, що розпочинати суперництво з Гаррі Поттером було
жахливою помилкою.

// 5956
//If she’d just __stayed away__ from Harry Potter, she could have been
//Hermione Granger, the brightest academic star of Hogwarts, who was earning more
//points for Ravenclaw than anyone. She wouldn’t have been __as__ famous as
//the Boy-Who-Lived, but she would have been famous for __herself__.
Якби вона просто __трималася подалі__ від Гаррі Поттера, то могла б бути
Герміоною Ґрейнджер, найяскравішою академічною зіркою Гоґвортсу, що заробила
більше очок Рейвенклову, ніж будь-хто. Вона б не була __такою ж__ відомою, як
Хлопчик-Що-Вижив, проте вона б змогла бути відомою __як вона сама__.

// 5957
//Instead the Boy-Who-Lived had an academic rival, and her name happened to be
//Hermione Granger.
Натомість Хлопчик-Що-Вижив мав суперницю з навчання, і так трапилося, що її звуть
Герміона Ґрейнджер.

// 5958
//And worse, she had gone on a date with him.
Що було гірше, вона пішла з ним на побачення.

// 5959
//The idea of getting into a Romance with Harry had seemed like an appealing idea
//at first. She’d read books like that, and if there was anyone in Hogwarts who
//was a candidate for the heroine’s love interest it was obviously Harry Potter.
//Bright, funny, famous, sometimes scary…
Спершу їй здавалося, що трохи романтики з Гаррі -- гарна думка. Вона
читала такі книжки, і якщо хтось в Гоґвортсі й заслуговував бути любовним
захопленням героїні, то це, очевидно, був Гаррі. Розумний, веселий, відомий, інколи
страшний...

// 5960
//So she’d forced Harry into going on a date with her.
І тому вона змусила Гаррі піти з нею на побачення.

// 5961
//And now __she__ was __his__ love interest.
І тепер це __вона__ стала __його__ любовним захопленням.

// 5962
//Or worse, one of the options on his dinner menu.
А то й гірше, одним з пунктів його меню на вечерю.

// 5963
//She’d been in a shower stall that morning and just about to turn on the water,
//when she’d heard giggles coming from outside. And she’d heard Morag talking
//about how that Muggleborn girl probably wouldn’t fight hard enough to win
//against Ginevra Weasley, and Padma speculating that Harry Potter might decide
//he wanted __both__.
Коли вона зранку була в душовій кабінці й вже майже увімкнула воду, то почула
хихотіння зовні. І підслухала, як Мораґ казала, що навряд ця дівчина
маґлівського роду докладе достатньо зусиль, щоб перемогти Джіневру Візлі, а
Падма припустила, що Гаррі Поттер може вирішити, що хоче __обох__.

// 5964
//It was like they didn’t understand that GIRLS had options on their dinner menu
//and BOYS fought over them.
Ніби вони не розуміли, що це ДІВЧАТА мали пункти в меню на вечерю, а ХЛОПЦІ
боролися за них.

// 5965
//But that wasn’t even the part that hurt, really. It was that when she scored 98
//on one of Professor McGonagall’s tests, the news wasn’t that Hermione Granger
//had scored the highest in the class, the news was that Harry Potter’s rival had
//scored seven more points than him.
Але насправді навіть не це було образливо. Образливо було, що коли вона отримала
98 на одному з тестів професорки Макґонеґел, то балачки були не про те, що Герміона
Ґрейнджер отримала найвищий бал у класі, а про те, що суперниця Гаррі Поттера
отримала на сім балів більше, ніж він.

// 5966
//If you got too close to the Boy-Who-Lived, you became part of his story.
Якщо ти опиняєшся надто близько до Хлопчика-Що-Вижив, то стаєш частиною його
історії.

// 5967
//You didn’t get your own.
І не отримуєш власної.

// 5968
//And the thought had come to Hermione that she should just walk away, but that
//would’ve been too sad.
І Герміоні спало було на думку, що їй варто просто піти, проте це було б надто
сумно.

// 5969
//But she did want to get __back__ what she’d accidentally given away by
//letting herself become known as Harry’s rival. She wanted to be a separate
//person again instead of Harry Potter’s third leg, was that too much to ask?
Але вона хотіла отримати __назад__ те, що вона випадково віддала, ставши
відомою як суперниця Гаррі. Вона хотіла знову стати окремою особистістю, а не
третьою ногою Гаррі. Невже вона надто багато хоче?

// 5970
//It was a hard trap to climb out of once you fell in. No matter how high you
//scored in class, even if you did something that deserved a special dinnertime
//announcement, it just meant you were rivaling Harry Potter again.
З цієї ями важко було вилізти, якщо ти в неї вже впав. Хоч які високі оцінки
ти отримував у класі, навіть якщо ти робив щось, що заслуговує окремого оголошення
під час вечері, це лише означало, що ти знову кидаєш виклик Гаррі Поттерові.

// 5971
//But she thought she’d come up with a way.
Але вона вважала, що вигадала спосіб.

// 5972
//Something to do that __wouldn’t__ be seen as pushing up on the opposite
//end of Harry Potter’s seesaw.
Щось таке, що __ніхто не сприйме__ як черговий хід проти Гаррі.

// 5973
//It would be hard.
Це буде складно.

// 5974
//It would go against her nature.
Це буде проти її природи.

// 5975
//She would have to fight someone very evil.
Їй доведеться боротися з кимось дуже злим.

// 5976
//And she would need to ask someone even __more__ evil for help.
І доведеться попросити когось навіть __злішого__ про допомогу.

// 5977
//Hermione raised her hand to knock upon that terrible door.
Герміона підняла руку, щоб постукати в жахливі двері.

// 5978
//She hesitated.
Вона завагалася.

// 5979
//Hermione realized she was being __silly__, and raised her hand a bit
//higher.
Герміона вирішила, що поводиться __по-дурному__, підвела руку трохи вище.

// 5980
//She tried to knock again.
Вона знову спробувала постукати.

// 5981
//Her hand quite failed to touch the door.
Але її рука не спромоглася торкнутися дверей.

// 5982
//And then the door swung open anyway.
А тоді двері все одно розчахнулися.

// 5983
//“Dear me,” said the spider, sitting in its web. “Was it really that hard to
//lose a single Quirrell point, Miss Granger?”
-- Подумати тільки, -- сказав павук, сидячи в павутинні. -- Невже втратити один
єдиний бал Квірела було так важко, міс Ґрейнджер?

// 5984
//Hermione stood there with her hand raised, her cheeks growing pink. It
//__had__ been.
Герміона так і застигла з піднятою рукою, її щоки налилися румʼянцем. __Було__.

// 5985
//“Well, Miss Granger, I shall be merciful,” said the evil Professor Quirrell.
//“Consider it already lost. There, I have taken a hard choice from you. Are you
//not grateful?”
-- Ну, міс Ґрейнджер, я змилуюся над вами, -- сказав злий професор Квірел. --
Вважайте, що вже втратили його. Ось, я позбавив вас важкого вибору. Ну хіба ви
не вдячні?

// 5986
//“Professor Quirrell,” Hermione managed to say in a voice that squeaked a
//little. “I have a lot of Quirrell points, don’t I?”
-- Професоре Квірел, -- спромоглася сказати Герміона, хоча її голос був трохи
писклявим. -- У мене ж багато балів Квірела, чи не так?

// 5987
//“You do indeed,” said Professor Quirrell. “Though one less than you had before.
//Terrible, isn’t it? Just think, if I don’t like your reason for coming here,
//you could lose another fifty. Maybe I’d take them away one… by one… by one…”
-- Без сумнівів. Проте на один менше, ніж раніше. Жахіття, правда? Лише уявіть:
якщо мені не сподобається причина, через яку ви сюди прийшли, то ви можете втратити
ще пʼятдесят. Можливо я їх зніматиму один... за одним... за одним...

// 5988
//Hermione’s cheeks were going even redder. “You’re really evil, did anyone ever
//tell you that?”
Щоки Герміони почервоніли навіть сильніше.

-- Ви дійсно злий, вам хтось про це казав?

// 5989
//“Miss Granger,” Professor Quirrell said gravely, “it can be dangerous to give
//people compliments like that when they have not been truly earned. The
//recipient might feel bashful and undeserving and want to do something worthy of
//your praise. Now what was it you wanted to talk to me about, Miss Granger?”
-- Міс Ґрейнджер, -- загрозливо сказав професор Квірел, -- небезпечно робити
людям такі компліменти, якщо вони цього ще насправді не заслужили. Одержувач
може засоромитися від власної недостойності та захотіти зробити щось гідне
вашої похвали. То про що ви хотіли зі мною поговорити, міс Ґрейнджер?

***

// 5990
//It was after lunch on Thursday afternoon, and Hermione and Harry were ensconced
//in a little library nook, with a __Quietus__ field up so they could talk.
//Harry was lying stomach-down on the ground with his elbows resting on the floor
//and his head in his hands and his feet kicking up casually behind him. Hermione
//was occupying a stuffed chair much too large for her, like she was the Hermione
//center of a candy shell.
Четвер, після обіду. Герміона й Гаррі зручно влаштувалися в невеличкому закутку
бібліотеки, із полем __Квієтус__, щоб можна було спокійно розмовляти. Гаррі
лежав на животі, його лікті спиралися на підлогу, голова -- на руки, він
подеколи змахував ногами в повітрі. Герміона розмістилася в набитому кріслі, що
було значно більшим за неї, ніби Герміона була начинням цукерки.

// 5991
//Harry had suggested that they could, as a first pass, read just the
//__titles__ of all the books in the library, and then Hermione could read
//all the tables of contents.
Гаррі запропонував був, що вони можуть першим проходом прочитати лише __назви__
усіх книжок бібліотеки, а потім Герміона може прочитати зміст кожної книжки.

// 5992
//Hermione had thought this was a brilliant idea. She’d never done that with a
//library before.
Герміоні це тоді здалося геніальною думкою. Вона ніколи раніше не робила такого
з бібліотекою.

// 5993
//Unfortunately there was a slight flaw in this plan.
На жаль, цей план дещо не враховував.

// 5994
//Namely, they were both Ravenclaws.
А саме, що вони обидвоє були рейвенкловцями.

// 5995
//Hermione was reading a book called __Magical Mnemonics.______
Герміона читала книжку "`Чаклунські мнемоніки`".

// 5996
//____

// 5997
//Harry was reading a book called __The Skeptical Wizard.______
Гаррі читав книжку "`Скептичний чарівник`".

// 5998
//____

// 5999
//Each had thought it was just one special exception they would make only this
//one time, and neither had yet realized it was impossible for either of them to
//ever finish reading all the book titles no matter how hard they tried.
Кожен гадав був, що це буде одним особливим винятком -- лише цього одного разу.
Жоден з них ще не усвідомив, що жоден з них не здатен дочитати назви всіх
книжок, хай як сильно намагатиметься.

// 6000
//The quiet of their little nook was broken by two words.
Тишу їхнього невеличкого закутка порушили два слова.

// 6001
//“Oh, __no__,” Harry suddenly said out loud, sounding like the words had
//been torn out of him.
-- О __ні__, -- раптом вигукнув Гаррі, ніби ці слова з нього вирвали.

// 6002
//There was a bit more quiet.
Ненадовго запанувала тиша.

// 6003
//“He __didn’t__,” Harry said, in the same voice.
-- __Не може бути__, -- сказав Гаррі таким само голосом.

// 6004
//Then she heard Harry start giggling helplessly.
Потім вона почула, що Гаррі безпорадно хихоче.

// 6005
//Hermione looked up from her book.
Герміона підвела погляд зі своєї книжки.

// 6006
//“All right,” she said, “what __is__ it?”
-- Гаразд, __що__ там у тебе?

// 6007
//“I just found out why you never ask the Weasleys about the family rat,” Harry
//said. “It’s __really__ awful and I shouldn’t be laughing and I’m a
//terrible person.”
-- Я щойно дізнався, чому ніколи не можна згадувати пацюка родини Візлі. Це
__справді__ жахливо, мені не варто сміятися, і я погана людина.

// 6008
//“Yes,” Hermione said primly, “you are. Tell me too.”
-- Так, -- строго сказала Герміона, -- погана. А тепер і мені розкажи.

// 6009
//“Okay, first the background. There’s a whole chapter in this book about Sirius
//Black conspiracy theories. You remember who that is, right?”
-- Гаразд, спочатку декілька потрібних фактів. У цій книзі є цілий розділ про
теорії змов щодо Сіріуса Блека. Ти ж памʼятаєш, хто це, так?

// 6010
//“Of course,” said Hermione. Sirius Black was a traitor, a friend of James
//Potter who had let Voldemort into the protected home of the Potters.
-- Звісно, -- відповіла Герміона. Сіріус Блек був зрадником, другом Джеймса
Поттера, що впустив Волдеморта в захищений дім Поттерів.

// 6011
//“So it turns out there were a number of, shall we say, __irregularities__,
//associated with Black going to Azkaban. He didn’t get a trial, and the Junior
//Minister in charge when the Aurors arrested Black was none other than Cornelius
//Fudge, who became our current Minister of Magic.”
-- Виявляється, було чимало, скажімо так, __незвичного__, з тим, як Блек
потрапив до Азкабану. Для нього не було суду, а керував арештом Блека,
виявляється, саме молодший міністр Корнеліус Фадж, що став поточним міністром
магії.

// 6012
//That sounded a little suspicious to Hermione too, and she said as much.
Це й Герміоні здавалося трохи підозрілим, про що вона й повідомила.

// 6013
//Harry made a shrugging motion with his shoulders, as he lay on the floor
//looking at his book. “Suspicious things happen all the time, and if you’re a
//conspiracy theorist you can always find __something__.”
Гаррі лише знизав плечима, лежачи на підлозі й не відводячи очей від книжки.

-- Підозрілі речі трапляються повсякчасно. Якщо тобі подобаються теорії
змов, завжди можна знайти __щось__.

// 6014
//“But __no trial?__” said Hermione.
-- Але __без суду__? -- запитала Герміона.

// 6015
//“It was right after the Dark Lord’s defeat,” Harry said, his voice serious as
//he said it. “Things were incredibly chaotic, and when the Aurors tracked down
//Black he was standing there laughing in a street ankle-deep in blood, with
//twenty eyewitnesses to recount how he’d killed a friend of my father’s named
//Peter Pettigrew plus twelve bystanders. I’m not saying I approve of Black not
//getting a trial. But these are wizards we’re talking about here, so it’s not
//really any more suspicious than, I don’t know, the sort of thing people point
//to when they want to argue over who shot John F. Kennedy. So anyway, Sirius
//Black is the wizarding Lee Harvey Oswald. There’s all sorts of conspiracy
//theories about who __really__ betrayed my parents instead of him, and one
//of the favorites is Peter Pettigrew, and this is where it starts getting
//complicated.”
-- Це сталося одразу після поразки Темного Лорда, -- сказав Гаррі, тепер
серйозно. -- Панував надзвичайний хаос, а коли аврори знайшли Блека, він стояв
посеред вулиці по кісточки в крові й реготав. Було двадцять свідків, що
розповіли, як він вбив був друга мого батька Пітера Петіґру та ще дванадцять
перехожих. Я не маю на увазі, що я схвалюю те, що Блек не отримав суду. Але ж
ідеться про чарівників, тому це не більш підозріло ніж, ну не знаю, усе те, на
що звертають увагу люди, що сперечаються, хто застрелив Джона Кеннеді. Отже,
хай там як, Сіріус Блек -- це Лі Гарві Освальд чаклунського світу. Існують
найрізноманітніші теорії змов щодо того, хто __насправді__ зрадив моїх батьків
замість нього, одним з улюблених кандидатів є Пітер Петіґру, і тут усе стає
складно.

// 6016
//Hermione listened, fascinated. “But how do you go from there to the Weasleys’
//__pet rat__ -”
Герміона захоплено слухала.

-- Але як це може бути повʼязано з __пацюком__ родини Візлі?..

// 6017
//“Hold on,” said Harry, “I’m getting there. Now, after Pettigrew’s death it came
//out that he’d been a spy for the Light - not a double agent, just someone who
//snuck around and found things out. He’d been good at that since he was a
//teenager, even in Hogwarts he had a reputation for finding out all sorts of
//secrets. So the conspiracy theory is that Pettigrew became an unregistered
//Animagus while he was still in Hogwarts, an Animagus of something small that
//could scurry around and listen to conversations. The main problem being that
//successful Animagi are rare and doing it as a teenager would be really
//unlikely, so of course the conspiracy theory says that my father and Black were
//unregistered Animagi too. And in that conspiracy theory, Pettigrew himself
//killed the twelve bystanders, turned into his small Animagus form, and ran. So
//Michael Shermer says there are four additional problems with this. One, Black
//was the only one besides my parents who knew how to get through the wards
//around their house.” (Harry’s voice was a little hard as he said that.) “Two,
//Black was a more likely suspect to start with than Pettigrew, there’s a rumor
//Black deliberately tried to get a student killed during his time at Hogwarts,
//and he was from this really nasty pureblood family, Bellatrix Black was
//literally his cousin. Three, Black was twenty times the fighting wizard that
//Pettigrew was, even if he wasn’t as smart. The duel between them would have
//been like Professor Quirrell versus Professor Sprout. Pettigrew probably didn’t
//even get a chance to draw his wand, let alone fake all the evidence the
//conspiracy theory requires. And four, Black was standing in the street
//__laughing.__”
-- Чекай, зараз дізнаєшся. Ось, після смерті Петіґру стало відомим, що він був
шпигуном Світла -- не подвійним агентом, а просто кимось, хто винюхував
інформацію. У нього це добре виходило ще відколи він був юнаком, навіть у
Гоґвортсі в нього була репутація, що він вміє дізнаватися про всілякі таємниці.
Отже ця теорія змови полягає в тому, що Петіґру став незареєстрованим анімагом
ще в Гоґвортсі, анімагом чогось маленького, що могло потайки пересуватися й
підслуховувати розмови. Тут головна проблема в тому, що успішні анімаги
рідкісні, і те, що хтось став ним у такому юному віці, вкрай малоймовірно, отже
звісно прибічники цієї теорії стверджують, що мій батько та Блек також були
незареєстрованими анімагами. І, згідно цієї теорії, Петіґру сам убив дванадцять
перехожих, перетворився на свою маленьку форму анімага та втік. А Майкл Шермер
стверджує, що в цієї теорії є чотири додаткові серйозні проблеми. По-перше,
Блек був єдиною людиною, крім моїх батьків, хто знав, як обійти захисні чари
їхнього будинку, -- голос Гаррі дещо посуворішав, коли він це казав. --
По-друге, Блек імовірніший підозрюваний, ніж Петіґру: є чутка, що він навмисно
намагався зробити так, щоб інший учень помер, доки він відвідував Гоґвортс, і
він зі справді бридкої чистокровної родини. Белатриса Блек насправді його
двоюрідна сестра. По-третє, Блек був удвадцятеро сильнішим бойовим магом,
ніж Петіґру, хоч і не був настільки розумним. Дуель між ними скидалася б на
дуель між професором Квірелом та професоркою Спраут. Петіґру напевно не встиг
би навіть витягти паличку, не те що сфабрикувати всі докази, як того вимагає
теорія змови. І, по-четверте, Блек стояв посеред вулиці та __реготав__.

// 6018
//“But the __rat__ -” said Hermione.
-- Але __пацюк__... -- сказала Герміона.

// 6019
//“Right,” Harry said. “Well, to make a long story short, Bill Weasley decided
//that his little brother Percy’s pet rat was Pettigrew’s Animagus form -”
-- Так. Ну, якщо стисло, Білл Візлі вирішив, що пацюк його молодшого брата
Персі й був формою анімага Петіґру...

// 6020
//Hermione’s jaw dropped.
У Герміони відпала щелепа.

// 6021
//“Yes,” Harry said, “you wouldn’t exactly expect Evil Pettigrew to be living a
//sad and furtive life as the pet rat of an enemy wizarding family, he’d either
//be with the Malfoys or, more likely, off in the Carribean after a bit of
//plastic surgery. Anyway, Bill knocks out his little brother Percy, stuns and
//grabs the rat, sends out all these emergency owl messages -”
// hedrok: @ knock out
-- Так, -- продовжив Гаррі, -- складно уявити, що Злий Петіґру житиме сумне й
таємне життя як пацюк ворожої чаклунської родини. Він радше б був із Мелфоями,
чи, імовірніше, десь на Карибах після пластичної операції. Хай там як, Білл
вирубає свого молодшого брата Персі, паралізує та хапає пацюка й надсилає купу
совиних повідомлень про надзвичайну ситуацію...

// 6022
//“Oh, __no!__” Hermione said, the words torn out of her.
-- О __ні!__ -- вигукнула Герміона, ніби ці слова з неї вирвали.

// 6023
//“- and somehow manages to gather Dumbledore, the Minister of Magic, and the
//Head Auror -”
-- ...і якимось чином йому вдається зібрати Дамблдора, міністра магії та
головного аврора...

// 6024
//“He __didn’t!__” said Hermione.
-- __Не може бути!__ -- сказала Герміона.

// 6025
//“And of course when they get there they think he’s crazy, but they use
//__Veritas Oculum __on the rat anyway, just to be sure, and what do they
//discover?”
-- І звісно, коли вони дісталися до місця, то вирішили, що він збожеволів,
проте вони все одно застосували __Верітас Окулум__ на пацюку, просто щоб
переконатися. І що ж вони зʼясували?

// 6026
//She would’ve __died__. “A rat.”
Вона б __померла__.

-- Це пацюк.

// 6027
//“You win a cookie! So they dragged poor Bill Weasley off to St. Mungo’s and it
//turned out to be a pretty standard schizophrenic break, it just happens to some
//people, especially young men around what we’d consider college age. Guy was
//convinced he was ninety-seven years old and had died and gone back in time to
//his younger self via train station. And he responded perfectly well to
//antipsychotics and is back to normal and everything’s fine now, except people
//don’t talk as much anymore about Sirius Black conspiracy theories, and you
//don’t ever ask the Weasleys about the family rat.”
-- Вітаю, ти виграла тістечко! Отже, вони витягли бідолашного Білла Візлі до
лікарні Святого Мунґо. Виявилося, що в нього був звичайний шизофренічний зрив
-- таке просто трапляється з деякими людьми, особливо з парубками у віці, який
ми б назвали студентським. Хлопець був переконаний, що йому девʼяносто сім
років, він помер був та повернувся в часі в молодшого себе за допомогою
залізничної станції. Він чудово відреагував на антипсихотичні засоби, знову
здоровий, і все тепер гаразд, крім того, що теорії змов щодо Сіріуса Блека
обговорюють значно менше й про родинного пацюка Візлі ніколи не згадують.

// 6028
//Hermione was giggling helplessly. It was really awful and she shouldn’t be
//laughing and she was a terrible person.
Герміона безпорадно хихотіла. Це було справді жахливо, їй не варто було сміятися
і вона була поганою людиною.

// 6029
//“The thing I __don’t__ understand,” Harry said, after their giggles had
//died down, “is __why__ Black would hunt down Pettigrew instead of running
//as fast as he could. He had to know the Aurors would be after him. I wonder if
//they got the reason out of Black before they took him to Azkaban? See, this is
//why people who are absolutely positively guilty still go through the legal
//system and get trials.”
-- Чого я __не розумію__, -- сказав Гаррі, коли їхнє хихотіння вщухло, -- так
це __чому__ Блек вистежив Петіґру замість того, щоб тікати якомога швидше. Він
не міг не знати, що аврори його шукають. Цікаво, чи дізналися вони його мотив
перед тим, як відправити до Азкабану? Ось через це навіть люди, що без жодних
сумнівів винні, все одно мають пройти через юридичну систему та отримати суд.

// 6030
//Hermione had to agree with that.
Герміона могла з цим лише погодитися.

// 6031
//Soon Harry was done with his book while Hermione was only halfway through hers
//- hers was a much more difficult book than Harry’s, but she still felt
//embarrassed about that. And then she had to put __Magical Mnemonics__ back
//on the shelf and drag herself away, because it was time for her to face the
//most dreaded class in Hogwarts, BROOMSTICK RIDING.
Невдовзі Гаррі вже дочитав свою книжку, а Герміона здолала лише половину своєї.
І хоча в неї була значно складніша книжка, ніж у Гаррі, вона все одно відчувала
через це сором. А тоді їй довелося поставити "`Чаклунські мнемоніки`" назад на
полицю та відтягнути себе від неї, адже вже був майже час зустрітися з
найстрашнішим предметом Гоґвортсу -- ПОЛЬОТИ НА МІТЛАХ.

// 6032
//Harry tagged along as she walked there, even though his own class wasn’t until
//an hour and a half later, like a fighter jet escorting a sad little propeller
//plane on its way to its own funeral.
Гаррі склав їй компанію по дорозі, хоча до його власного заняття було ще
півтори години. Ніби реактивний літак проводжав сумний гвинтовий літачок до
місця його поховання.

// 6033
//The boy wished her goodbye in a quiet, sympathetic voice, and she walked onto
//the grassy fields of Doom.
Хлопець сказав "`хай щастить`" тихо й зі співчуттям, а вона вийшла на зелені поля
приречення.

// 6034
//And there was much shrieking and almost falling and horrible brushes with death
//and the ground in completely the __wrong place__ and the sun getting in
//her eyes and Morag buzzing her and Mandy thinking she was being __subtle__
//about always being near enough to catch her if she fell and she __knew__
//the other students were laughing at both of them but she never said anything to
//Mandy because she didn’t actually want to die.
Далі було чимало вереску та ледь не падінь; жахливої близькості зі смертю;
землі, що була зовсім __не там де треба__; сонця, що сліпило очі; Мораґ, що
снувала навкруги, і Менді, яка гадала, що їй вдається __непомітно__ завжди бути
поряд, щоб встигнути впіймати Герміону, раптом вона впаде. Герміона __знала__, що
інші учениці сміялися з них обох, але ніколи нічого не казала Менді, бо не
хотіла справді померти.

// 6035
//After ten million years the class ended, and she was back on the ground where
//she belonged until next Thursday. Sometimes she had nightmares about it always
//being Thursday.
Після десяти мільйонів років заняття закінчилося, і вона знову повернулася на
землю, де їй і було місце до наступного четверга. Іноді їй снилися кошмари,
ніби завжди був четвер.

// 6036
//__Why__ everyone had to learn this, when they were just going to Apparate
//or Floo or portkey everywhere once they grew up, was a complete and utter
//mystery to Hermione. Nobody actually needed to ride broomsticks as an adult, it
//was like being forced to play dodgeball in P.E.
__Чому__ всі мають навчатися цього, хоча вони матимуть змогу потрапити куди
завгодно за допомогою явлення, флу чи летиключів, щойно виростуть, було для
Герміони покрито таємницею. Насправді дорослим не було жодної потреби літати на
мітлах, її ніби змушували грати у вибивали на фізкультурі.

// 6037
//At least Harry had the decency to be ashamed of being good at it.
Принаймні Гаррі стало порядності, щоб соромитися своїх успіхів у цій царині.

***

// 6038
//It was a couple of hours later, and she was in a Hufflepuff study hall with
//Hannah, Susan, Leanne, and Megan. Professor Flitwick, surprisingly diffident
//for a teacher, had asked if she might possibly maybe help those four with their
//Charms homework for a while, even though they weren’t Ravenclaws, and Hermione
//had felt so proud she’d almost __burst__.
Декілька годин потому вона була в навчальній залі Гафелпафу разом з Анною,
Сьюзен, Ліною та Меґан. Професор Флитвік -- на диво боязкий, як на вчителя, --
попросив був її, якщо, можливо, їй буде не складно, будь ласочка, приділити
деякий час на допомогу цим чотирьом з їхнім домашнім завданням з чарів, хоч
вони й не були рейвенкловками. Герміона так запишалася, що ледь не
__вибухнула__.

// 6039
//Hermione took a piece of parchment, spilled a little bit of ink on it, tore it
//into four pieces, crumpled them, and tossed the pieces on the table.
Вона взяла аркуш пергаменту, пролила на нього трохи чорнил, розірвала його на
шматочки, зіжмакала їх та кинула на стіл.

// 6040
//__She__ could have gotten it just from crumpling it, but doing all that
//made it more like garbage, and that helped when someone was first practicing
//the Disposal Charm.
__Їй__ було б достатньо й просто зіжмаканого паперу, але вся ця процедура
робила його справді ближчим до сміття, що допомагало, коли хтось вперше
починав вивчати чари усунення.

// 6041
//Hermione sharpened her ears and eyes, and said, “Okay, try it.”
Герміона нашорошила вуха та зір і сказала:

-- Гаразд, спробуйте.

// 6042
//“__Everto.__”
-- __Еверто.__

// 6043
//“__Everto.__”
-- __Еверто.__

// 6044
//“__Everto.__”
-- __Еверто.__

// 6045
//“__Everto.__”
-- __Еверто.__

// 6046
//Hermione didn’t think she’d quite caught all the problems. “Can you all try it
//again?”
Герміона сумнівалася, що вона помітила всі помилки.

-- Спробуйте, будь ласка, ще раз.

// 6047
//An hour later Hermione had concluded that (1), Leanne and Megan were sort of
//sloppy, but if you asked them to keep practicing something, they would, (2)
//Hannah and Susan were focused and driven to the point where you had to keep
//telling them to __slow down__ and __relax__ and __think__ about
//things instead of __trying__ so hard - it was odd to think that those two
//would soon be __hers__ - and (3) she liked helping Hufflepuffs, the whole
//study hall had a very cheerful atmosphere.
За годину Герміона зробила такі висновки: (1) Ліна та Меґан були, так би мовити,
недбалими, але якщо попросити їх над чимось попрацювати, вони зроблять це; (2)
Анна та Сьюзен були зосередженими та старанними до краю -- їх аж треба було
просити __пригальмувати__, __розслабитися__ та __обмірковувати__ дії замість
того, щоб просто __старатися__ так сильно -- дивно було думати про те,
що ці дві невдовзі будуть __у неї__ -- і (3) їй подобалося допомагати гафелпафцям
-- вся їхня навчальна зала була доволі радісним місцем.

// 6048
//When she left for dinner, she found the Boy-Who-Lived reading a book while he
//waited to escort her. It made her feel flattered, and also a little worried
//because Harry didn’t seem to really talk to __anyone__ besides her.
Коли вона пішла на вечерю, виявилося, що Хлопчик-Що-Вижив чекав на неї за
читанням книжки. Це їй лестило, але й трохи бентежило: здавалося, ніби Гаррі
насправді не розмовляв з __жодною__ людиною, крім неї.

// 6049
//“Did you know there’s a girl in Hufflepuff who’s a Metamorphmagus?” said
//Hermione as they headed toward the Great Hall. “She makes her hair really red,
//like stopsign red not Weasley red, and when she spilled hot tea on herself she
//turned into a black-haired boy until she got it under control again.”
// hedrok: @ гра слів red - red...
-- А ти знав, що в Гафелпафі є дівчина-метаморфомаг? -- запитала Герміона
дорогою до Великої Зали. -- Вона може робити своє волосся червоним. Я не маю на
увазі рудим, як у Візлі, а червоним мов знак стоп. А коли вона пролила на себе
гарячий чай, то вона обернулася на чорноволосого хлопця, доки все не владнала.

// 6050
//“Really? Cool,” said Harry, sounding a bit distracted. “Um, Hermione, just to
//check, you know tomorrow is the last day to sign up for Professor Quirrell’s
//armies, right?”
-- Справді? Чудово, -- розсіяно сказав Гаррі. -- Ем, Герміоно, про всяк
випадок, ти ж знаєш, що завтра останній день, коли можна записатися до військ
професора Квірела, так?

// 6051
//“Yes,” Hermione said. “The armies of the evil Professor Quirrell.” Her voice
//was a little angry, though Harry didn’t know why, of course.
-- Так. Війська злого професора Квірела, -- у її голосі відчувалася злість,
хоча Гаррі, звісно, гадки не мав, чому.

// 6052
//“Hermione,” Harry said, his voice exasperated, “he’s not evil. He’s a little
//bit Dark and a whole lot Slytherin. It’s not the same as being __evil__.”
-- Герміоно, -- роздратовано сказав Гаррі, -- він не злий. Він трохи темний і
дуже слизеринський. Це не те ж саме, що бути __злим__.

// 6053
//Harry Potter had too many words for things, that was his problem. He would have
//been better off if he’d just divided the universe into Good and Bad. “Professor
//Quirrell called me up in front of the whole class and told me to __shoot
//someone!__”
Гаррі Поттер мав забагато слів для понять -- у цьому була його проблема. Для
нього було б набагато ліпше, якби він просто розділяв усесвіт на хороше та
погане.

-- Професор Квірел викликав мене перед усім класом та сказав мені __вистрелити
в когось__!

// 6054
//“He was right,” Harry said, his face sober. “I’m sorry, Hermione, but he was.
//You should have shot __me,__ I wouldn’t have minded. You can’t learn
//Battle Magic if you can’t practice against real opponents using real spells.
//And now you’re doing okay in sparring, aren’t you?”
-- Він мав рацію, -- розсудливо сказав Гаррі. -- Вибач, Герміоно, але мав. Ти
мала вистрелити __у мене__, я був не проти. Не можна навчитися бойової магії,
якщо ти не можеш практикувати на справжніх супротивниках справжні закляття.
Крім того, тепер у тебе зі спарингами немає проблем, чи не так?

// 6055
//Hermione was only twelve, and so she knew, but she couldn’t put it into words,
//she couldn’t find the thing to say that would convince Harry.
Герміоні було лише дванадцять, тому вона знала, але не могла висловити це, не
могла підібрати слів, що переконали б Гаррі.

// 6056
//Professor Quirrell had taken a young girl and called up that girl in front of
//everyone, and ordered her to open fire without provocation on a classmate.
Професор Квірел вибрав дівчинку, викликав її перед усіма й наказав їй вистрелити
в однокласника без будь-якої провокації.

// 6057
//It didn’t __matter__ if Professor Quirrell was right about her needing to
//learn it.
__Байдуже__, чи мав професор Квірел рацію, що їй треба цього навчитися.

// 6058
//Professor McGonagall wouldn’t ever have done that.
Професорка Макґонеґел ніколи б такого не зробила.

// 6059
//Professor Flitwick wouldn’t ever have done that.
Професор Флитвік ніколи б такого не зробив.

// 6060
//Maybe not even Professor Snape would have done that.
Напевно навіть професор Снейп ніколи б такого не зробив.

// 6061
//Professor Quirrell was __EVIL__.
Професор Квірел був __ЗЛИМ__.

// 6062
//But she couldn’t find the words, and she knew that Harry would never believe
//her.
Але вона не могла дібрати слів і знала, що Гаррі все одно ніколи їй не
повірить.

// 6063
//“Hermione, I’ve talked to older students,” Harry said. “Professor Quirrell
//could be the __only__ competent Defense Professor we get in all seven
//years at Hogwarts. Anything else we can learn later. If we want to study
//Defense, we have to do it __this year.__ The students who sign up for the
//extracurricular stuff are going to be learning huge amounts, way beyond what
//the Ministry thinks first-years are supposed to study - did you know we’re
//going to be learning the Patronus Charm? In __January?__”
-- Герміоно, я спілкувався зі старшими учнями. Професор Квірел може бути
__єдиним__ компетентним професором із захисту за всі сім років нашого
відвідування Гоґвортсу. Будь-що інше ми можемо вивчити й пізніше. Якщо ми
хочемо навчитися захисту, ми маємо це зробити __цього року__. Учні, що
запишуться на факультативні заняття, вивчать купу всього, незрівнянно більше,
ніж міністерство вважає за потрібне для першокласників. Ти знала, що ми
вивчатимемо закляття "`Патронус`"? У __січні__?

// 6064
//“The __Patronus Charm?__” Hermione said, her voice going up in surprise.
-- __Закляття__ "`__Патронус__`"? -- гучно від подиву запитала Герміона.

// 6065
//Her books said that was one of the brightest magics known, a weapon against the
//Darkest creatures, cast with pure positive emotions. It wasn’t something she’d
//expect the evil Professor Quirrell to teach - or arrange to be taught, since
//Hermione couldn’t imagine he could do the spell himself.
Згідно з її книжками, це були одні з найчудовіших чарів з відомих, зброя проти
найтемніших істот, ці чари можливо накласти лише за допомогою найщиріших
позитивних емоцій. Вона не очікувала, що злий професор Квірел навчатиме такого
-- чи організує навчання, адже Герміона не могла уявити, щоб він міг
застосувати закляття сам.

// 6066
//“Yes,” Harry said. “Students don’t usually learn the Patronus Charm until their
//fifth years or even later! But Professor Quirrell says the Ministry schedules
//were made up by talking Flobberworms, and the ability to cast the Patronus
//Charm depends on emotions more than magical strength. Professor Quirrell says
//that he thinks most students do __way__ less than they can, and this year
//he’s going to prove it.”
-- Так, -- сказав Гаррі. -- Зазвичай учнів навчають цього закляття лише у
пʼятому класі, а то й пізніше! Проте професор Квірел каже, що програму
міністерства склали балакучі флобервʼяки, а здатність накладати чари
"`Патронус`" більше залежить від емоцій, ніж від магічної сили. Професор Квірел
вважає, що більшість учнів робить __значно__ менше за свої можливості, і каже,
що цього року він доведе це.

// 6067
//There was the usual tone of awed worship that Harry’s voice had when he talked
//about Professor Quirrell, and Hermione gritted her teeth and kept walking.
Як і завжди, коли Гаррі розмовляв про професора Квірела, його голос набув
благоговійного трепету. А Герміона стиснула щелепи і йшла далі.

// 6068
//“I already signed up, actually,” Hermione said, her voice a little quiet. “I
//did it this morning. For everything, just like you said.”
-- Взагалі-то, я вже записалася, -- тихо сказала Герміона. -- Зранку. Заради
усього, як ти й сказав.

// 6069
//__In for a penny, in for a pound__ was the usual expression.
Як кажуть, "`взявся за гуж, не кажи, що не дуж`".

// 6070
//Besides, she didn’t want to __lose__, and if she wanted to win she had to
//learn.
Крім того, вона не збиралася __програвати__, а якщо вона хотіла виграти, то
їй треба було навчатися.

// 6071
//“So you __will__ be in the armies, then?” Harry’s voice was suddenly
//enthusiastic. “That’s awesome, Hermione! I’ve already gotten my list of
//soldiers, but I’m sure Professor Quirrell will let me add one more, or trade -”
-- То ти __береш участь__ у військах? -- раптом Гаррі був сповнений ентузіазму.
-- Це чудово, Герміоно! Я вже отримав список солдатів, проте я впевнений, що
професор Квірел дозволить мені взяти ще одного, чи обміняти...

// 6072
//“I’m not joining __your__ army.” Hermione’s voice was sharp. She knew it
//was a reasonable assumption but it __still__ annoyed her.
-- Я не збираюся до __твого__ війська, -- різко сказала Герміона. Вона знала,
що це було розумне припущення, але це __все одно__ дратувало її.

// 6073
//Harry blinked. “Not Draco Malfoy’s, surely. So you want to be in the third
//army? Even though we don’t know who the general __is__ yet?” Harry sounded
//surprised and a little wounded, and she couldn’t blame him, though of course
//she did blame him, since in fact it was all his fault. “But why not mine?”
Гаррі кліпнув очима.

-- Ну не до війська ж Драко Мелфоя. Отже ти хочеш бути в третьому війську?
Хоча ми досі не знаємо, __хто__ там буде генералом? -- здивовано та
трохи ображено запитав Гаррі, не можна було йому за це дорікати, хоча звісно
вона дорікала, адже насправді це він був у всьому винний. -- Але чому не до
мого?

// 6074
//“Think about it,” Hermione snapped, “and maybe you’ll work it out!”
-- Поміркуй про це, -- кинула Герміона, -- і можливо збагнеш!

// 6075
//And she sped up her stride and left Harry gaping behind her.
Вона прискорилася й залишила позаду остовпілого Гаррі.

***

// 6076
//“Professor Quirrell,” Draco said in his most formal voice, “I must protest your
//appointment of Hermione Granger as the third general.”
-- Професоре Квірел, -- сказав Драко якомога офіційнішим тоном, -- я
зобовʼязаний оскаржити призначення Герміони Ґрейнджер на посаду третього
генерала.

// 6077
//“Oh?” said Professor Quirrell, leaning back in his chair in a casual and
//relaxed manner. “Protest away, Mr. Malfoy.”
-- О? -- вимовив професор Квірел, недбало й розслаблено спершись на спинку
стільця. -- То оскаржуйте, містере Мелфой.

// 6078
//“Granger is unfit for the position,” said Draco.
-- Ґрейнджер непридатна для цієї посади, -- сказав Драко.

// 6079
//Professor Quirrell tapped a finger on his cheek thoughtfully. “Why yes, yes she
//is. Do you have any further protests?”
Професор Квірел задумливо постукав пальцем по щоці.

-- О так, так і є. Ще якісь скарги?

// 6080
//“Professor Quirrell,” said Harry Potter beside him, “with all due respect to
//Miss Granger’s many outstanding academic talents and the Quirrell points she
//has justly earned in your classes, her personality is not suited to military
//command.”
-- Професоре Квірел, -- сказав Гаррі Поттер, що стояв поряд із Драко, -- з усією
повагою до багатьох видатних академічних талантів міс Ґрейнджер, а також балів
Квірела, що вона їх чесно заслужила на ваших заняттях, її особистість не
відповідає потребам військового командування.

// 6081
//Draco had been relieved when Harry had agreed to accompany him to Professor
//Quirrell’s office. It wasn’t __just__ that Harry was a gigantic blatant
//teacher’s pet where Professor Quirrell was concerned. Draco had also started to
//worry that Harry actually __was__ friends with Granger, it had been a
//while now and he __still__ hadn’t made his move… but this was more like
//it.
Драко відчув був полегшення, коли Гаррі погодився піти з ним до кабінету
професора Квірела. Не __лише__ через те, що Гаррі був очевидним улюбленцем
вчителя на заняттях професора Квірела, а також і через те, що Драко почав
хвилюватися, чи бува Гаррі дійсно не __був__ другом Ґрейнджер. Уже минуло чимало
часу, а він __досі__ не зробив свій хід... Проте тепер усе йшло як треба.

// 6082
//“I agree with Mr. Potter,” said Draco. “Appointing her as a general turns it
//into a farce.”
-- Я погоджуюся з містером Поттером, -- сказав Драко. -- Призначення її
генералом перетворює це все на фарс.

// 6083
//“Harshly put,” said Harry, “but I cannot bring myself to disagree with Mr.
//Malfoy. To be blunt, Professor Quirrell, Hermione Granger has around as much
//intent to kill as a bowl of wet grapes.”
// hedrok: intent to kill as bowl of wet grapes копія в 078:13931
-- Різкі слова, -- сказав Гаррі, -- проте я не можу не погодитися з містером
Мелфоєм. Якщо відверто, професоре Квірел, у Герміони Ґрейнджер приблизно такий
рівень готовності вбити, як у чаші митого винограду.

// 6084
//“That,” said Professor Quirrell mildly, “is not a thing I would fail to notice
//myself. You are telling me nothing I do not already know.”
-- Це, -- мʼяко сказав професор Квірел, -- я й сам не міг не помітити. Ви не
кажете мені нічого, чого я б уже не знав.

// 6085
//It was Draco’s turn to say something, but the conversation had suddenly
//hiccupped. That answer had __not__ been in the possibilities he and Harry
//had brainstormed before coming here. What __did__ you say after the
//teacher said that he knew everything you knew and he was still going to commit
//an obvious mistake?
Була черга Драко щось сказати, але розмова раптом захлинулася. Цієї відповіді
__не було__ серед розглянутих ним з Гаррі протягом мозкового штурму перед
приходом сюди. Що __можна__ було сказати після того, як учитель казав, що знає
все, що вам відомо, і все одно збирається скоїти явну помилку?

// 6086
//The silence stretched.
Тиша затягнулася.

// 6087
//“Is this some sort of plot?” Harry said slowly.
-- Це якийсь хитрий план? -- повільно запитав Гаррі.

// 6088
//“Must everything I do be some sort of plot?” said Professor Quirrell. “Can’t I
//ever create chaos just for the sake of chaos?”
-- Невже все, що я роблю, має бути якимось планом? Невже я не можу просто
створювати хаос заради хаосу?

// 6089
//Draco almost choked.
Драко ледь не похлинувся.

// 6090
//“Not in your Battle Magic class,” Harry said with calm certainty. “Other
//places, maybe, but not there.”
-- Тільки не на заняттях бойової магії, -- зі спокійною впевненістю сказав
Гаррі. -- Можливо деінде, але не тут.

// 6091
//Professor Quirrell slowly raised his eyebrows.
Професор Квірел повільно здійняв брови.

// 6092
//Harry gazed steadily back at him.
Геррі незмигно дивився йому в очі.

// 6093
//Draco shivered.
Драко затремтів.

// 6094
//“Well then,” Professor Quirrell said. “Neither of you seem to have considered a
//very simple question. Who could I appoint instead of Miss Granger?”
-- Ну що ж, -- сказав професор Квірел. -- Видається, жоден з вас не подумав над
дуже простим питанням. Кого ж мені призначити замість міс Ґрейнджер?

// 6095
//“Blaise Zabini,” Draco said without hesitation.
-- Блеза Забіні, -- негайно відповів Драко.

// 6096
//“Any other suggestions?” said Professor Quirrell, sounding quite amused.
-- Ще якісь пропозиції? -- запитав професор Квірел. Здавалося, що це його
розважало.

// 6097
//__Anthony Goldstein and Ernie Macmillan,__ came the thought, before
//Draco’s common sense kicked in and ruled out mudbloods and Hufflepuffs no
//matter how aggressively they dueled. So instead Draco just said, “What’s wrong
//with Zabini?”
__Ентоні Ґолдштейн та Ерні Макмілан__ спали на думку, перш ніж здоровий
ґлузд втрутився та заветував бруднокровців та гафелпафців, хай як агресивно
вони виступали на дуелях. Натомість Драко просто запитав:

-- А що не так із Забіні?

// 6098
//“I __see__…” Harry said slowly.
-- __Розумію__... -- повільно сказав Гаррі.

// 6099
//“I __don’t,__” said Draco. “Why not Zabini?”
-- А я __ні__. Чому не Забіні?

// 6100
//Professor Quirrell looked at Draco. “Because, Mr. Malfoy, no matter how hard he
//tries, he’ll never be able to keep up with you or Mr. Potter.”
Професор Квірел поглянув на Драко.

-- Тому що, містере Мелфой, хоч як він старається, він ніколи не зможе бути на
одному рівні з вами чи містером Поттером.

// 6101
//The shock of it staggered Draco. “You can’t believe __Granger__ is going
//to -”
Драко похитнувся від потрясіння.

-- Ви ж не можете вважати, що __Ґрейнджер__ колись...

// 6102
//“He’s gambling on her,” Harry said quietly. “It’s not guaranteed. The odds
//aren’t even good. She’ll probably never give us a good fight, and even if she
//does, it may take her months to learn. But she’s the only one in our year with
//any chance at all of growing to beat us.”
-- Він робить ставку на неї, -- тихо сказав Гаррі. -- Не обовʼязково вийде.
Шанси навіть не гарні. Вона напевно ніколи не зможе дати нам гідний бій, а
навіть якщо зможе, то їй доведеться для цього вчитися місяці. Проте вона єдина
з нашого року, хто має бодай якийсь шанс дорости до того, щоб перемогти нас.

// 6103
//Draco’s hands twitched but didn’t clench into fists. Showing up as your
//supporter and then backing out was a classic undermining tactic, so Harry
//Potter __was__ in it with Granger and __that __implied -
Руки Драко смикнулися, але не склалися в кулаки. Прийти як підтримка, а потім
передумати було класичним прийомом, отже Гаррі Поттер __дружив__ з Ґрейнджер, а
з цього __випливало__...

// 6104
//“But Professor,” Harry went on smoothly, “I’m worried Hermione will be
//__miserable __as the general of an army. I’m speaking as her friend now,
//Professor Quirrell. The competition might be good for Draco and me, but what
//you’re asking her to do isn’t good for __her!__”
-- Але професоре, -- продовжив Гаррі, -- я хвилююся, чи не буде Герміона
__нещасною__ на посаді генерала війська. Я кажу це як її друг, професоре
Квірел. Змагання може йти на користь Драко та мені, проте те, чого ви від неї
просите, не піде на користь __їй__!

// 6105
//Never mind.
Проїхали.

// 6106
//“Your friendship for Hermione Granger does you credit,” Professor Quirrell said
//dryly. “Especially as you are able to be friends with Draco Malfoy at the same
//time. Quite a feat, that.”
-- Ваша дружба з Герміоною Ґрейнджер робить вам честь, -- сухо сказав професор
Квірел. -- Особливо враховуючи, що ви одночасно дружите з Драко Мелфоєм. Оце
так звитяга.

// 6107
//Harry suddenly looked a little nervous, meaning he probably felt a lot
//__more __nervous, and Draco silently swore to himself. Of course Harry
//wasn’t going to fool Professor Quirrell.
Раптом здалося, що Гаррі трохи нервує, що напевно означало, що він був __значно
більш__ знервованим, і Драко подумки вилаявся. Звісно, Гаррі не обдурить
професора Квірела.

// 6108
//“And I doubt Miss Granger would appreciate your friendly concern,” said
//Professor Quirrell. “She asked me for the position, Mr. Potter, I did not ask
//her.”
-- І я сумніваюся, що міс Ґрейнджер оцінить ваше дружнє піклування. Вона сама
мене попросила про цю посаду, містере Поттер. Я її не просив.

// 6109
//Harry was quiet at this for a moment. Then he flashed Draco a quick look that
//mixed apology and warning, saying at the same time, __Sorry, I did my
//best__ and __We’d better not press it any further.__
Гаррі трохи помовчав. Потім на мить поглянув на Драко зі змішаним вибаченням та
попередженням, ніби одночасно казав: "`Вибач, я зробив що міг`" та "`Краще нам
на цьому зупинитися`".

// 6110
//“As for her being miserable,” Professor Quirrell went on, a slight smile now
//playing about his lips, “I suspect that she will have a much easier time with
//the rigors of her position than either of you suspect, and that she will put up
//a good fight much sooner than you think.”
-- Щодо того, що вона буде нещасною, -- продовжив професор Квірел з легкою
посмішкою. -- Я підозрюю, що вона набагато легше впорається з викликами своєї
посади, ніж ви гадаєте, і покаже вам гарний бій значно раніше, ніж ви вважаєте.

// 6111
//Harry and Draco both gasped in horror.
Гаррі й Драко скрикнули від жаху.

// 6112
//“You’re not going to __advise__ her, are you?” said Draco, utterly aghast.
-- Ви ж не будете їй __порадником__, чи не так? -- приголомшено запитав Драко.

// 6113
//“I never signed up to fight __you!__” said Harry.
-- Я не погоджувався боротися з __вами__! -- сказав Гаррі.

// 6114
//The smile playing around Professor Quirrell’s lips grew wider. “As a matter of
//fact, I __did__ offer to share a few suggestions regarding Miss Granger’s
//first battles.”
Посмішка на обличчі професора Квірела поширшала.

-- Насправді я __пропонував__ міс Ґрейнджер декілька порад щодо її перших боїв.

// 6115
//“__Professor Quirrell!__” said Harry.
-- __Професоре Квірел!__ -- вигукнув Гаррі.

// 6116
//“Oh, don’t worry,” Professor Quirrell said. “She turned me down. Just as I
//expected.”
-- О, не переймайтеся. Вона відмовилася. Як я й очікував.

// 6117
//Draco’s eyes narrowed.
Драко примружив очі.

// 6118
//“Dear me, Mr. Potter,” said Professor Quirrell, “didn’t anyone ever tell you
//it’s rude to stare?”
-- Заради Мерліна, містере Поттер, -- сказав професор Квірел, -- невже ніхто
вам ніколи не казав, що витріщатися неввічливо?

// 6119
//“You’re not going to secretly help her some __other__ way, are you?” said
//Harry.
-- Ви ж не збираєтеся таємно допомагати їй у якийсь __інший__ спосіб? --
запитав Гаррі.

// 6120
//“Would I do that?” said Professor Quirrell.
-- Невже я на таке здатен? -- запитав професор Квірел.

// 6121
//“Yes,” said Draco and Harry at the same time.
-- Так, -- одночасно відповіли Драко та Гаррі.

// 6122
//“I am wounded by your lack of trust. Well then, I promise not to help General
//Granger in any way that the two of you don’t know about. And now I suggest that
//both of you be about your military affairs. November approaches, and swiftly.”
-- Мене глибоко ранить відсутність вашої довіри. Ну що ж, я обіцяю не
допомагати генералові Ґрейнджер будь-яким чином, про який ви не знаєте. А тепер
я пропоную вам повертатися до своїх військових справ. Листопад наближається, і
швидко.

***

// 6123
//Draco saw the implications before the door had closed all the way behind them
//on their way out of Professor Quirrell’s office.
Драко зрозумів наслідки цього ще перед тим, як за ними зачинилися двері до
кабінету професора Квірела.

// 6124
//Harry had once spoken dismissively of “people stuff”.
// копія: "people stuff" з 024:4764
Гаррі колись зневажливо згадував "`людську всячину`".

// 6125
//And now that was Draco’s only hope.
І це тепер було єдиною надією Драко.

// 6126
//Let him not realize, let him not realize…
Хай тільки він не зрозуміє, хай тільки він не зрозуміє...

// 6127
//“We should just attack the Granger girl first and get her out of our way,” said
//Draco. “After we crush her, we can have our own contest without any
//distractions.”
-- Нам варто просто атакувати це дівчисько Ґрейнджер спершу, прибрати її з
нашого шляху, -- сказав Драко. -- А коли ми її розтрощимо, зможемо спокійно
змагатися -- ніщо нас не відволікатиме.

// 6128
//“Now that doesn’t really seem fair to her, does it?” said Harry in a mild
//voice.
-- Ну, це здається дещо нечесним щодо неї, чи не так? -- лагідно запитав Гаррі.

// 6129
//“What do __you__ care?” said Draco. “She’s your rival, right?” Then, with
//just the right note of suspicion in his voice, “Don’t tell me you’ve started
//__really__ liking her, after being her rival all this time…”
-- А що __тобі__ до того? Вона твій суперник, правильно? -- тоді, з чітко
виміряною підозрою в голосі. -- Тільки не кажи мені, що вона тобі почала
__справді__ подобатися, після того, як ви були суперниками стільки часу...

// 6130
//“Founders forbid,” said Harry. “What can I say, Draco? I merely have a natural
//sense of justice. Granger does too, you know. She has a very firm grasp on good
//and evil, and she’s probably going to attack evil first. Having a name like
//‘Malfoy’ is just asking for it, you know.”
-- Хай боронять засновники. Ну що я можу тут сказати, Драко? У мене просто є
природне відчуття справедливості. І в Ґрейнджер воно теж є, знаєш. У неї
надзвичайно чітке уявлення про добро та зло, і вона напевно атакуватиме зло
спершу. Знаєш, мати таке імʼя, як "`Мелфой`", -- ніби просто благати про це.

// 6131
//__DAMN IT!__
__ПРОКЛЯТТЯ!__

// 6132
//“Harry,” said Draco, sounding wounded and maybe a little superior, “don’t you
//want to fight __fairly__ against me?”
-- Гаррі, -- ображено й трохи зневажливо запитав Драко, -- а хіба ти не хочеш
боротися __чесно__ зі мною?

// 6133
//“You mean rather than attacking you after you’ve already lost some of your
//forces beating Granger?” said Harry. “Oh, I don’t know. Maybe after I get bored
//with just winning I’ll try that ‘fair’ thing.”
-- Замість того, щоб атакувати тебе вже після того, як ти втратиш частину
своїх сил на перемогу над Ґрейнджер? Ну не знаю... Можливо після того, як мені
набридне просто вигравати, я спробую цю "`чесну`" штуку.

// 6134
//“Maybe she’ll attack __you,__” Draco said. ”__You’re__ her rival.”
-- Може вона атакує __тебе__, __ти__ ж її суперник.

// 6135
//“But I’m her __friendly__ rival,” Harry said with an evil grin. “I bought
//her a nice birthday present and everything. You wouldn’t go around sabotaging
//your friendly rival like that.”
-- Але я її __дружній__ суперник, -- сказав Гаррі зі злою посмішкою. -- Я купив
їй гарний подарунок на день народження і таке інше. Ніхто отак просто не псує
стосунки з дружнім суперником.

// 6136
//“What about sabotaging your __friend’s__ chance at a fair fight?” said
//Draco angrily. “I thought we were friends!”
-- А як щодо псування шансів свого __друга__ на чесний бій? -- зло запитав
Драко. -- Я гадав, що ми друзі!

// 6137
//“Let me rephrase that,” said Harry. “__Granger__ wouldn’t sabotage a
//friendly rival. But that’s because she has the killing intention of a bowl of
//wet grapes. __You__ would. You __totally__ would. And guess what, so
//would I.”
-- Дозволь перефразувати. __Ґрейнджер__ не вчинить так з дружнім суперником.
Але лише через те, що в неї готовність вбити чаші з митим виноградом. __Ти__
вчинив би. __Ще й як__ вчинив би. І знаєш що? Я теж.

// 6138
//__DAMN IT!__
__ПРОКЛЯТТЯ!__

***

// 6139
//If it had been a play, there would have been dramatic music.
Якби це була пʼєса, то грала б драматична музика.

// 6140
//The hero, impeccably turned out in green-trimmed robes and perfectly combed
//white-blonde hair, faced the villain.
Герой, що бездоганно зʼявився у мантії з зеленим оздобленням та ідеально
вкладеним білявим волоссям, зустрівся поглядом з лиходійкою.

// 6141
//The villain, leaning back in a simple wooden chair with her buckteeth clearly
//visible and stray chestnut curls drifting over her cheeks, faced the hero.
Лиходійка спиралася на спинку простого деревʼяного стільця, її заячі зуби
було добре видно, а неохайні каштанові пасма спадали на її щоки. Вона зустрілася
поглядом з героєм.

// 6142
//It was Wednesday, October 30th, and the first battle was coming up on Sunday.
Була середа, тридцяте жовтня, і перший бій відбудеться в неділю.

// 6143
//Draco was standing in General Granger’s office, a room the size of a small
//classroom. (__Why__ each general’s office was so large, Draco wasn’t quite
//sure. A chair and a desk would have worked for him. He wasn’t even clear on why
//the generals needed offices at all, his soldiers knew where to find him. Unless
//Professor Quirrell had deliberately arranged the huge offices for them as a
//sign of status, in which case Draco was all for it.)
Драко стояв у кабінеті генерала Ґрейнджер -- розміром з невелику класну
кімнату. (__Навіщо__ кожному генералові потрібен був такий великий офіс, Драко не зовсім
розумів. Йому б вистачило й просто стола зі стільцем. Насправді не до кінця
зрозумілим було, навіщо генералам взагалі потрібен кабінет, його солдати й так
знали, де його знайти. Хіба що професор Квірел навмисно надав їм величезні
кабінети для підкреслення їхнього статусу, тоді Драко цілковито підтримував цю
ідею.)

// 6144
//Granger sat on the room’s single chair like a throne, all the way on the other
//end of the office from where the door opened. There was a long oblong table
//stretched across the middle of the room between them, and four small circular
//tables scattered around the corners, but only that one single chair, all the
//way at the opposite end. The room had windows along one wall, and one beam of
//sunlight touched the top of Granger’s hair like a glowing crown.
Ґрейнджер сиділа на єдиному стільці в кімнаті, ніби на троні, -- аж на
протилежному від дверей місці. Посеред кімнати між ними стояв довгий стіл, ще
чотири невеличких круглих столи стояли в кутках. Але в кімнаті був лише один
стілець -- аж на протилежному краї. Вздовж однієї стіни були вікна, і один
сонячний промінь осяював вершечок волосся Ґрейнджер, ніби блискуча корона.

// 6145
//It would have been nice if Draco could have walked slowly forward. But there
//was a table in the way, and Draco had to go around it diagonally, and there was
//no good way to do that in a dramatic and dignified fashion. Had that been
//deliberate? If it had been his father, it surely would have been; but this was
//Granger, so surely not.
Усе було б чудово, якби Драко міг повільно пройти вперед. Але йому перешкоджав
стіл, і Драко довелося обійти його по діагоналі, а зробити це драматично й гідно
було неможливо. Чи навмисно це зроблено? Якби це був його батько, то безперечно
так; але йшлося про Ґрейнджер, тому безсумнівно ні.

// 6146
//There was nowhere for him to sit, and Granger hadn’t stood up, either.
Йому не було де сісти, а Ґрейнджер вирішила не підводитися.

// 6147
//Draco kept the outrage entirely off his face.
Драко ніяк не виявив своєї люті.

// 6148
//“Well, Mr. Draco Malfoy,” Granger said once he stood before her, “you requested
//an audience with me and I have been so gracious as to grant it. What was your
//plea?”
-- Ну, містере Драко Мелфой, -- сказала Ґрейнджер, коли він підійшов, -- ти
просив аудієнції зі мною, і я милостиво надала її тобі. Про що ти хочеш
просити?

// 6149
//__Come with me to visit Malfoy Manor, my father and I would like to show
//you some interesting spells.__
__Ходімо до маєтку Мелфоїв, ми з батьком хочемо показати тобі декілька цікавих
заклять.__

// 6150
//____

// 6151
//“Your rival, Potter, came to me with an offer,” said Draco, putting a serious
//look on his face. “He doesn’t mind losing to me, but would be humiliated if you
//won. So he wants to join with me and wipe you out immediately, not just in our
//first battle, all of them. If I won’t do that, Potter wants me to hold back or
//harass you, while he launches an all-out attack on you as his first move.”
-- Твій суперник, Поттер, приходив до мене з пропозицією, -- сказав Драко з
серйозним виразом обличчя. -- Він не проти програти мені, проте для нього було
б надто принизливо програти тобі. Тому він хоче обʼєднати сили зі мною та
знищити тебе одразу, не лише в нашій першій битві, а в усіх битвах. Якщо я не
погоджуся, то Поттер хоче, щоб я зачекав чи знесилював тебе, доки він почне
атаку повними силами проти тебе.

// 6152
//“I see,” Granger said, looking surprised. “And you’re offering to help me
//against him?”
-- Зрозуміло, -- здивовано сказала Ґрейнджер. -- І ти пропонуєш мені допомогу
проти нього?

// 6153
//“Of course,” said Draco smoothly. “I didn’t think what he wanted to do to you
//was fair.”
-- Звісно, -- улесливо сказав Драко. -- Мені здалося нечесним те, що він пропонував.

// 6154
//“Why, that’s very nice of you, Mr. Malfoy,” said Granger. “I’m sorry for how I
//spoke to you earlier. We should be friends. Can I call you Drakey?”
-- Ну як це мило з твого боку, містере Мелфой. Мені так прикро за те, як я
раніше з тобою розмовляла. Ми маємо бути друзями. Можна називати тебе Дракі?

// 6155
//Alarm bells started to sound in Draco’s head, but there was a __chance__
//she meant it…
Драко почув дзвоники небезпеки в голові, проте була __можливість__, що вона
серйозно...

// 6156
//“Of course,” said Draco, “if I can call you Hermy.”
-- Звісно. Якщо мені можна називати тебе Гермі.

// 6157
//Draco was pretty sure he saw her expression flicker.
Драко був доволі впевнений, що побачив, як вона на мить змінилася в обличчі.

// 6158
//“Anyway,” Draco said, “I was thinking it would serve Potter right if we both
//attacked him and wiped him out.”
-- Хай там як, -- продовжив Драко, -- я гадав, може нам варто провчити Поттера:
обʼєднатися та знищити його.

// 6159
//“But that wouldn’t be fair to Mr. Potter, would it?” said Granger.
-- Але ж це буде нечесно щодо містера Поттера, чи не так? -- запитала Ґрейнджер.

// 6160
//“I think it’d be very fair,” Draco said. “He was planning to do it to you
//first.”
-- Я вважаю, що це буде вкрай чесно. Він планував зробити це з тобою першим.

// 6161
//Granger was giving him a stern look that could possibly have intimidated him if
//he’d been a Hufflepuff instead of a Malfoy. “You think I’m pretty stupid, don’t
//you, Mr. Malfoy?”
Ґрейнджер суворо на нього дивилася. Можливо, це подіяло б на якогось гафелпафця, проте
він був Мелфоєм.

-- Ти вважаєш мене доволі дурною, чи не так, містере Мелфой?

// 6162
//Draco smiled charmingly. “No, Miss Granger, but I thought I’d at least
//__check.__ So, what do you want?”
Драко чарівно посміхнувся.

-- Ні, міс Ґрейнджер, але я подумав, що варто принаймні __перевірити__. Отже,
чого ти хочеш?

// 6163
//“Are you offering to __bribe__ me?” said Granger.
-- Ти пропонуєш __підкупити__ мене?

// 6164
//“Sure,” said Draco. “Can I just slip you a Galleon and have you beat on Potter
//instead of me for the rest of the year?”
-- Звичайно. Я підкину тобі ґалеон, а ти атакуватимеш Поттера, а не мене, до
кінця року, гаразд?

// 6165
//“Nope,” said Granger, “but you can offer me ten Galleons and have me attack
//both of you equally, instead of just you.”
-- Ні, але ти можеш запропонувати мені десять ґалеонів за те, що я атакуватиму
вас обох однаково, а не лише тебе.

// 6166
//“Ten Galleons is a lot of money,” Draco said cautiously.
-- Десять ґалеонів -- це великі гроші, -- обережно сказав Драко.

// 6167
//“I didn’t know the Malfoys were poor,” said Granger.
-- Не знала, що Мелфої зараз у злиднях, -- сказала Ґрейнджер.

// 6168
//Draco stared at Granger.
Драко витріщився на Ґрейнджер.

// 6169
//He was starting to get a strange feeling about this.
Він почав відчувати, що коїться щось дивне.

// 6170
//That particular reply didn’t seem like it should have come from this particular
//girl.
Здавалося, що саме ця відповідь не мала б надійти від саме цієї дівчини.

// 6171
//“Well,” said Draco, “you don’t get to be rich by wasting money, you know.”
-- Ну, марнотратством не збагатієш, знаєш.

// 6172
//“I don’t know if you know what a dentist is, Mr. Malfoy, but my parents are
//__dentists__ and anything less than ten Galleons isn’t worth my time at
//all.”
-- Не знаю, чи знаєш ти, що таке дантист, містере Мелфой, але мої батьки
__дантисти__, і будь-що менше за десять ґалеонів не варте мого часу.

// 6173
//“Three Galleons,” Draco said, more as a probe than anything else.
-- Три ґалеони, -- сказав Драко більше з дослідницькими цілями.

// 6174
//“Nope,” said Granger. “If you want an equal fight at all, I don’t believe that
//a Malfoy wants an equal fight less than he wants ten Galleons.”
-- Ні. Якщо ти справді хочеш рівного бою, то не думаю, що Мелфой хоче рівного
бою менше за десять ґалеонів.

// 6175
//Draco was starting to get a __very__ strange feeling about this.
Драко почав відчувати, що коїться щось __дуже__ дивне.

// 6176
//“No,” said Draco.
-- Ні, -- сказав він.

// 6177
//“No?” said Granger. “This is a limited time offer, Mr. Malfoy. Are you sure you
//want to risk a whole year of being miserably crushed by the Boy-Who-Lived? That
//would be pretty embarrassing for the House of Malfoy, wouldn’t it?”
-- Ні? -- запитала Ґрейнджер. -- Це обмежена в часі пропозиція, містере Мелфой.
Ти впевнений, що готовий до ризику того, що решту року тебе вщент нищитиме
Хлопчик-Що-Вижив? Це буде доволі принизливо для роду Мелфоїв, чи не так?

// 6178
//It was a very persuasive argument, one that was hard to refuse, but you didn’t
//get to be rich by spending money when your heart told you it was a setup.
Це був переконливий аргумент, і було важко відмовитися, проте ніхто не стає
багатим, якщо витрачає гроші, коли серце підказує, що все підстроїли.

// 6179
//“No,” said Draco.
-- Ні, -- сказав Драко.

// 6180
//“See you on Sunday,” said Granger.
-- До зустрічі в неділю, -- сказала Ґрейнджер.

// 6181
//Draco turned and walked out of the office without another word.
Драко розвернувся й пішов з кабінету без жодного слова.

// 6182
//That had been __not right…__
Це було __неправильно__...

***

// 6183
//“Hermione,” Harry said patiently, “we’re __supposed__ to be plotting
//against each other. You could even betray me and it wouldn’t mean anything
//outside the battlefield.”
-- Герміоно, -- терпляче сказав Гаррі, -- ми __маємо__ змовлятися один проти
одного. Ти можеш навіть зрадити мене й це нічого не означатиме поза полем бою.

// 6184
//Hermione shook her head. “It wouldn’t be nice, Harry.”
Герміона похитала головою.

-- Це було б негарно, Гаррі.

// 6185
//Harry sighed. “I don’t think you’re getting into the spirit of this at all.”
Гаррі зітхнув.

-- Здається, ти зовсім не розумієш духу цієї гри.

// 6186
//__It wouldn’t be nice.__ She’d actually said that. Hermione didn’t know
//whether to be insulted at what Harry thought of her, or worried about whether
//she really __did __sound like that much of a goody-two-shoes usually.
__Це було б негарно__. Вона дійсно це сказала. Герміона не знала, ображатися
на те, що Гаррі про неї думав, чи непокоїтися, може вона справді __така__
стереотипна відмінниця.

// 6187
//It was probably time to change the subject.
Напевно варто було змінити тему.

// 6188
//“Anyway, are you doing anything special for tomorrow?” said Hermione. “It’s -”
-- Хай там як, чи є в тебе якісь особливі плани на завтра? -- запитала
Герміона. -- Це ж...

// 6189
//Her voice cut off abruptly as she realized.
Раптом вона затнулася, коли зрозуміла.

// 6190
//“Yes, Hermione,” Harry said a little tightly, “what day is it?”
-- Так, Герміоно, -- дещо напружено сказав Гаррі, -- який завтра день?

***

// 6191
//__Interlude:__
__Інтерлюдія:__

// 6192
//There was a time when October 31st had been called Halloween in magical
//Britain.
Колись у чаклунській Британії тридцять перше жовтня називали Геловін.

// 6193
//Now it was Harry Potter Day.
Тепер це був День Гаррі Поттера.

// 6194
//Harry had turned down all the offers, even the one from Minister Fudge which
//might have been good for future political favors and which he __really__
//should have gritted his teeth and taken. But to Harry, October 31st would
//always be The Dark Lord Killed My Parents Day. There should have been a quiet,
//dignified memorial service somewhere, and if there was one, he hadn’t been
//invited.
Гаррі відмовився від усіх пропозицій, навіть від запрошення міністра Фаджа, що
могло бути дуже корисним для майбутніх політичних послуг, і йому __справді__
варто було зціпити зуби та прийняти його. Але для Гаррі тридцять перше жовтня
завжди буде Днем Коли Темний Лорд Убив Моїх Батьків. Десь мала б бути тиха
гідна поминальна служба, але якщо така десь проходила, то його на неї не
запросили.

// 6195
//Hogwarts got the day off to celebrate. Even the Slytherins didn’t dare wear
//black outside their own dorm. There were special events and special foods and
//the teachers looked the other way if anyone ran through the hallways. It was
//the tenth anniversary, after all.
У Гоґвортсі був вихідний для святкування. Навіть слизеринці не наважилися
носити чорне поза своїми підземеллями. Були святкові заходи, особлива їжа,
учителі дивилися в інший бік, коли хтось бігав коридорами. Зрештою, це була
десята річниця.

// 6196
//Harry spent the day in his trunk so as not to spoil it for anyone else, eating
//snack bars in place of meals, reading some of his sadder science fiction books
//(no fantasy), and writing a letter to Mum and Dad that was much longer than the
//ones he usually sent.
Гаррі провів день у своїй валізі, щоб не псувати всім свято, харчувався
батончиками замість обідів, читав сумну наукову фантастику (не фентезі), і
написав значно довшого, ніж зазвичай, листа своїм батькам.
