// 6197
//== Working in Groups, Pt 1
== Розділ 30. Робота в групах, ч.1

// 6198
//J. K. Rowling if a man tries to bother you, you can think blue, count two, and
//look for a red shoe.
// @ hedrok: Think Blue, Count Two. Cordwainer Smith
// Українською ніби не перекладалося.
Дж. К. Ролінґ, якщо якийсь чоловік тебе непокоїтиме, можеш подумати про
блакить, дорахувати до двох та шукати червоний черевичок.

***

// 6199
//The day was Sunday, November 3rd, and soon the three great powers of their
//school year, Harry Potter, Draco Malfoy, and Hermione Granger, would begin
//their struggle for supreme dominance.
Настала неділя, третє листопада, і невдовзі три могутніх сили свого шкільного
року -- Гаррі Поттер, Драко Мелфой та Герміона Ґрейнджер -- зійдуться в битві
за абсолютне домінування.

// 6200
//(Harry was slightly annoyed by the way the Boy-Who-Lived had been demoted from
//supreme dominance to one of three equal rivals just by entering the contest,
//but he expected to get it back soon.)
(Гаррі трохи дратувало, що сам вступ у змагання понизив Хлопчика-Що-Вижив з
абсолютного домінування до одного з трьох рівних суперників, але він збирався
швидко повернути все на свої місця.)

// 6201
//The battleground was a section of non-Forbidden forest, dense with trees,
//because Professor Quirrell thought that being able to see all the enemy forces
//was too boring even for your very first battle.
Полем битви була ділянка незабороненого лісу. Доволі густого, адже професор
Квірел вважав, що бачити всі ворожі сили було надто нудно навіть для першої
битви.

// 6202
//All the students who were not actually __in__ a first-year army were
//camped out nearby and watching on screens that Professor Quirrell had set up.
//Except for three Gryffindors in their fourth year, who were currently sick and
//confined to healer’s beds by Madam Pomfrey. Aside from that, everyone was
//there.
Усі учні, що __не були__ у військах першого року, розташувалися табором поруч і
дивилися на екрани, які встановив був професор Квірел. За винятком трьох
ґрифіндорців-четвертокласників, яких через хворобу не випускала зі шкільної лікарні
мадам Помфрі. Крім них усі були присутні.

// 6203
//The students were dressed, not in their ordinary school robes, but in Muggle
//camouflage uniforms that Professor Quirrell had obtained somewhere and supplied
//in sufficient quantity and variety to fit everyone. It wasn’t that students
//would have worried about stains and rips, that was what Charms were for. But as
//Professor Quirrell had explained to the surprised wizardborns, nice dignified
//clothing was not efficient for hiding in forests or dodging around trees.
Учні були одягнені не у звичайні шкільні мантії, а в маґлівські камуфльовані
уніформи, що їх професор Квірел придбав був десь у достатній кількості та
різноманітті, щоб кожен міг знайти собі зручну. Не те щоб учні хвилювалися щодо
плям чи подряпин -- для цього існували чари. Але як професор Квірел пояснив
був здивованим учням чаклунського роду, гарний гідний одяг не був ефективним для
переховування в лісі чи ухиляння від заклять серед дерев.

// 6204
//And on each uniform’s breast, a patch bearing the name and insignia of your
//army. A __small__ patch. If you wanted your soldiers to wear, say, colored
//ribbons so that they could identify each other at a distance, and risk the
//enemy getting their hands on the ribbons, that was all up to you.
Кожна уніформа була оздоблена на рівні грудей латкою з іменем та знаком війська
учня. __Невеличкою__ латкою. Якщо ви бажали, щоб ваші солдати носили, скажімо,
кольорові стрічки, щоб вони могли розпізнати одне одного з великої відстані, і
ризикувати тим, що ворогові в руки потраплять ці стрічки, то ніхто вам цього не
забороняв.

// 6205
//Harry had tried to get the name Dragon Army.
Гаррі намагався був вибороти назву "`Армія Драконів`".

// 6206
//Draco had pitched a fit and said that would confuse everyone completely.
Драко зчинив істерику та сказав, що це всіх геть заплутає.

// 6207
//Professor Quirrell had ruled that Draco could lay prior claim to the name, if
//he wished.
Професор Квірел тоді постановив, що Драко має перевагу щодо цієї назви, якщо він
її забажає.

// 6208
//So now Harry was fighting Dragon Army.
Тому тепер Гаррі боровся проти Армії Драконів.

// 6209
//This probably wasn’t a good sign.
Це напевно недобрий знак.

// 6210
//For their insignia, instead of the too-obvious dragon’s head breathing fire,
//Draco had elected to simply go with the fire. Elegant, understated, deadly:
//__This is what’s left after we’ve passed.__ Very Malfoy.
Як символ, замість надто очевидної голови дракона, що видихає полумʼя, Драко
вирішив був облишити просто вогонь. Елегантно, зрозуміло, смертельно:
__Ось що залишається після нас, коли ми йдемо.__ Дуже мелфойно.

// 6211
//Harry, after considering alternate choices such as the 501st Provisional
//Battalion and Harry’s Minions o’ Doom, had decided that his army would be known
//by the simple and dignified appellation of the Chaos Legion.
// hedrok: 501st Provisional Battalion: дослівно не знайшов. Знайшов
// https://en.wikipedia.org/wiki/501st_Military_Intelligence_Battalion_(United_States)
// чи http://starwars.wikia.com/wiki/501st_Legion
// Але друге ніби вийшло зовсім після 1991... Крім того немає Provisional...
// тому просто перекладаю.
//
// https://en.wikipedia.org/wiki/Battlelords_of_the_23rd_Century
Гаррі спочатку розглядав був варіанти на кшталт "`501-ший тимчасовий батальйон`" та
"`Фатальні посіпаки Гаррі`", а потім вирішив, що його військо прославиться
простим та гідним іменням "`Легіон Хаосу`".

// 6212
//Their insignia was a hand poised with fingers ready to snap.
Їхнім символом була рука з пальцями, що готові клацнути.

// 6213
//It was __universally__ agreed that this wasn’t a good sign.
__Загальновизнано__, що це був поганий знак.

// 6214
//Harry had earnestly advised Hermione that the young boys serving under her were
//probably nervous about her being a girl with a reputation for being nice, and
//that she should pick something scary that would reassure them of her toughness
//and make them proud to be part of her army, like the Blood Commandos or
//something.
Гаррі щиро намагався переконати Герміону, що хлопці під її командуванням напевно
почувалися незручно через те, що вона дівчина з репутацією добрюні, і що їй варто
вибрати якусь страшну назву. Це покаже їм, яка вона сильна, і змусить їх пишатися
тим, що вони частина її війська. Щось на кшталт "`Криваві Командос`".

// 6215
//Hermione had named her army the Sunshine Regiment.
Герміона назвала своє військо "`Полк '`Сонечко`'`".

// 6216
//Their insignia was a smiley face.
Їхнім символом було усміхнене обличчя.

// 6217
//And in ten minutes, they would be at war.
А за десять хвилин розпочнеться війна.

// 6218
//Harry stood in the bright forest clearing that was their assigned starting
//location, an area of open space with old and rotting tree stumps that had been
//cleared away for some unknown purpose, ground coated with a small scattering of
//blown leaves and the dried grey remnants of grass that had failed the test of
//summer’s heat, and the sun shining down brilliantly from above.
Гаррі стояв посеред яскравої галявини, що була призначеною їм за початкову
позицію, -- відкритий простір зі старими гнилими пнями. Навіщо розчищали цей
простір, було невідомо, землю вкривало пригнане вітром листя та сухі сірі рештки
трави, що не витримала іспиту сонячної спеки. Сонце сяяло з неба.

// 6219
//Around him were the twenty-three soldiers that Professor Quirrell had assigned
//to him. Nearly all of Gryffindor had signed up, of course, and more than half
//of Slytherin, and less than half of Hufflepuff, and a handful of Ravenclaw. In
//Harry’s army there were twelve Gryffindors and six Slytherins and four
//Hufflepuffs and one Ravenclaw besides himself… not that there was any way to
//tell that by looking at the uniforms. No red, no green, no yellow, no blue.
//Just Muggle camouflage patterns, and a patch on the breast with the device of a
//hand poised to snap its fingers.
Навколо нього розташувалися двадцять три солдати, що їх професор Квірел
призначив йому. Записалися майже всі ґрифіндорці, більше половини
слизеринців, менш ніж половина гафелпафців і лише жменька рейвенкловців. У
війську Гаррі дванадцять ґрифіндорців, шість слизеринців, чотири гафелпафці та
один рейвенкловець крім нього... хоча з уніформ цього зовсім не було видно.
Нічого червоного, зеленого, жовтого чи синього. Лише візерунки маґлівського
камуфляжу й латка на грудях з рукою, що готова клацнути пальцями.

// 6220
//Harry looked upon his twenty-three soldiers, all wearing the same uniforms with
//no marks of group identity save that single patch.
Гаррі огледів своїх двадцятьох трьох солдатів, що всі носили однакові уніформи без
жодних позначок, крім цієї латки.

// 6221
//And lo, Harry smiled, because he understood what this part of Professor
//Quirrell’s master plan was about; and Harry was taking full advantage of it for
//his __own__ purposes, too.
Гаррі посміхнувся, адже розумів, до чого ця частина генерального плану
професора Квірела. І Гаррі скористається цим як зможе заради __власних__ цілей.

// 6222
//There was a legendary episode in social psychology called the Robbers Cave
//experiment. It had been set up in the bewildered aftermath of World War II,
//with the intent of investigating the causes and remedies of conflicts between
//groups. The scientists had set up a summer camp for 22 boys from 22 different
//schools, selecting them to all be from stable middle-class families. The first
//phase of the experiment had been intended to investigate what it took to
//__start__ a conflict between groups. The 22 boys had been divided into two
//groups of 11 -
Був такий легендарний епізод соціальної психології -- дослід Музафера Шерифа у
парку Робберс Кейв. Його влаштували через спантеличення від Другої Світової
Війни з наміром дослідити причини конфліктів між групами та можливі методи їх
уникнути. Науковці влаштували літній табір для двадцяти двох хлопців з двадцяти
двох різних шкіл, вибираючи лише учнів з родин середнього класу. Перша фаза
досліду планувалася для зʼясування, що потрібно для того, щоб __розпочався__
конфлікт між групами. Двадцяти двох хлопців розділили на дві групи по
одинадцять...

// 6223
//- and this had been quite sufficient.
...і цього було цілком достатньо.

// 6224
//The hostility had started from the moment the two groups had become aware of
//each others’ existences in the state park, insults being hurled on the first
//meeting. They’d named themselves the Eagles and the Rattlers (they hadn’t
//needed names for themselves when they thought they were the only ones in the
//park) and had proceeded to develop contrasting group stereotypes, the Rattlers
//thinking of themselves as rough-and-tough and swearing heavily, the Eagles
//correspondingly deciding to think of themselves as upright-and-proper.
Ворожнеча розпочалася, щойно дві групи зʼясували існування одна одної в парку,
образливі слова залунали першої ж зустрічі. Вони назвали себе "`орли`" та
"`гримучники`" (їм не було потреби в назвах, доки вони гадали, що єдині в
парку) і розвивали дедалі сильніші групові стереотипи: гримучники вважали себе
крутими хлопцями й сильно лаялися, а орли вирішили вважати себе правильними й
культурними.

// 6225
//The other part of the experiment had been testing how to resolve group
//conflicts. Bringing the boys together to watch fireworks hadn’t worked at all.
//They’d just shouted at each other and stayed apart. What __had__ worked
//was warning them that there might be vandals in the park, and the two groups
//needing to work together to solve a failure of the park’s water system. A
//common task, a common enemy.
Інша частина експерименту досліджувала розвʼязання міжгрупових конфліктів.
Спільне розглядання феєрверків узагалі не подіяло. Хлопці з різних груп лише
кричали один на одного та трималися на відстані. А __спрацювало__ попередження,
що в парку можуть бути вандали, а також те, що їм довелося працювати разом,
щоб відновити систему водопостачання. Спільне завдання, спільний ворог.

// 6226
//Harry had a strong suspicion Professor Quirrell had understood this principle
//very well indeed when he had chosen to create __three__ armies per year.
Гаррі був майже впевнений, що професор Квірел чудово розумів цей принцип, і
тому вирішив створити __три__ війська в кожному році.

// 6227
//__Three__ armies.
__Три__ війська.

// 6228
//Not __four__.
Не __чотири__.

// 6229
//And definitely __not__ segregated by House… except that no Slytherins had
//been assigned to Draco besides Mr. Crabbe and Mr. Goyle.
І безперечно __не розподілені__ за належністю до гуртожитку... крім того, що жодного
слизеринця не призначили до війська Драко, за винятком містера Креба та
містера Ґойла.

// 6230
//It was things like this which reassured Harry that Professor Quirrell, despite
//his affected Dark atmosphere and his pretense of neutrality in the conflict
//between Good and Evil, was secretly backing Good, not that Harry would ever
//dare say that out loud.
Ось такі речі й заспокоювали Гаррі щодо професора Квірела: незважаючи на його
показну темну ауру та вдаваний нейтралітет у конфлікті між добром і злом, він
таємно підтримував добро. Хоча Гаррі ніколи не наважиться сказати це вголос.

// 6231
//And Harry had decided to take full advantage of Professor Quirrell’s plan to
//define a group identity __his__ way.
І Гаррі вирішив скористатися планом професора Квірела на повну та змусити групу
вважати себе такою, як __він__ хоче.

// 6232
//The Rattlers, once they’d met the Eagles, had started thinking of themselves as
//rough-and-tough, and they’d conducted themselves accordingly.
Гримучники, щойно вони зустріли орлів, почали вважати себе крутими, і поводилися
відповідно.

// 6233
//The Eagles had thought of themselves as good-and-proper.
Орли почали вважати себе хорошими й правильними.

// 6234
//And in that bright forest clearing, scattered around the old and rotting tree
//stumps, outlined in the sun shining down brilliantly from above, General Potter
//and his twenty-three soldiers were arranged in nothing remotely resembling a
//formation. Some soldiers stood, some soldiers sat, some stood on one leg just
//to be different.
І ось на яскравій лісовій галявині серед старих гнилих пнів, під сонячним
сяйвом були безладно розкидані генерал Поттер і його двадцять три солдати. Вони
анітрохи не нагадували стрій: дехто стояв, дехто сидів, а хтось стояв на одній
нозі, аби бути іншим.

// 6235
//It was the __Chaos__ Legion, after all.
Зрештою, це був Легіон __Хаосу__.

// 6236
//And if there wasn’t a __reason__ to stand in neat little lines, Harry had
//said disdainfully, there weren’t going to be neat little lines.
І якщо не було __причини__, щоб стояти охайними невеличкими шеренгами,
презирливо сказав був Гаррі, то охайних невеличких шеренг і не буде.

// 6237
//Harry had divided the army into 6 squads of 4 soldiers each, each squad
//commanded by a Squad Suggester. All troops were under strict orders to disobey
//any orders they were given if it seemed like a good idea at the time, including
//that one… unless Harry or the Squad Suggester prefixed the order with “Merlin
//says”, in which case you were supposed to actually obey.
Гаррі розділив військо на шість загонів по чотири солдати в кожному. Кожним
загоном керував радник. Усім бійцям було суворо наказано не підкорятися
будь-яким наказам, якщо це здається гарною думкою, включно з цим... Хіба що
Гаррі чи радник загону почне наказ з "`Мерлін каже`", тоді наказу треба
підкоритися.

// 6238
//The Chaos Legion’s chief attack was to split up and run in from multiple
//directions, randomly changing vectors and firing the approved sleep spell as
//rapidly as you could rebuild the magical strength. And if you saw a chance to
//distract or confuse the enemy, you took it.
Основною тактикою Легіону Хаосу було розділитися й набігати з кількох
напрямків, випадково змінюючи вектори, і стріляти дозволеним закляттям сну
якомога частіше -- одразу як достатньо магічної сили. А якщо є можливість
відволікти чи спантеличити ворога, не нехтувати нею.

// 6239
//Fast. Creative. Unpredictable. Non-homogenous. Don’t just obey orders, think
//about whether what you’re doing __right now__ makes sense.
Швидкі. Винахідливі. Непередбачувані. Негомогенні. Не просто підкоряйтеся наказам,
думайте, чи __прямо зараз__ має сенс те, що ви робите.

// 6240
//Harry wasn’t quite as sure as he’d pretended that this was the optimum of
//military efficiency… but he’d been given a golden opportunity to change how
//some students __thought about themselves,__ and that was how he intended
//to use it.
Гаррі не був таким впевненим у тому, що це оптимальна військова стратегія, як
вдавав... проте йому дали унікальну можливість змінити те, __ким себе
вважають__ деякі учні, і він збирався скористатися нею саме так.

// 6241
//Five minutes to wartime, according to Harry’s watch.
Пʼять хвилин до війни згідно з годинником Гаррі.

// 6242
//General Potter walked (not marched) over to where his air force was waiting
//tensely, broomsticks already clutched firmly in their hands.
Генерал Поттер підійшов (не маршируючи) до місця, де напружено чекали його
повітряні сили, стиснувши мітли в руках.

// 6243
//“All wings report in,” said General Potter. They’d rehearsed this during their
//one training session on Saturday.
// Зоряні Війни, епізод IV, 1:45:30,
// переклад ICTV: Усім доповісти про готовність.
// переклад 1+1: Доповідайте про готовність
// "Червоний пʼятий" однаково, Leader - лідер/командир, взяв лідер.
-- Усім доповісти про готовність, -- сказав Гаррі Поттер. Вони репетирували були
це протягом свого єдиного тренування в суботу.

// 6244
//“Red Leader standing by,” said Seamus Finnigan, who had no idea what it meant.
-- Червоний лідер готовий, -- сказав Шеймус Фініґан. Він гадки не мав, що це
означало.

// 6245
//“Red Five standing by,” said Dean Thomas, who’d waited his entire life to say
//it.
-- Червоний пʼятий готовий, -- сказав Дін Томас. Він усе життя чекав на те,
щоб це сказати.

// 6246
//“Green Leader standing by,” Theodore Nott said rather stiffly.
-- Зелений лідер готовий, -- твердо сказав Теодор Нот.

// 6247
//“Green Forty-One standing by,” Tracey Davis said.
-- Зелений сорок один готовий, -- сказала Трейсі Девіс.

// 6248
//“I want you in the air the instant we hear the bell,” said General Potter. “Do
//not engage, repeat, do not engage. Evade if under fire.” (Of course you did
//__not__ aim sleep spells at broomsticks; you fired a spell that gave a
//temporary red glow to whatever it hit. If you hit the broomstick or the rider,
//they were out of the war.) “Red Leader and Red Five, fly toward Malfoy’s army
//as fast as you can, stay as high as you can while still seeing them, return the
//instant you know for sure what they’re doing. Green Leader, do the same for
//Granger’s army. Green Forty-One, fly above us and watch for any approaching
//broomsticks or soldiers, you and only you are authorized to fire. And remember,
//I didn’t say ‘Merlin says’ for any of that, but we __do__ really need the
//information. For Chaos!”
-- Мені треба, щоб ви опинилися в повітрі тієї ж миті, як почуєте сигнал, --
сказав генерал Поттер. -- Не вступати в бій, повторюю, не вступати в бій. --
(Звісно, __не можна__ було направляти закляття сну в бік мітел; треба було
використовувати закляття, що тимчасово підсвічувало червоним те, у що влучило.
Якщо хтось влучав у мітлу чи вершника, то вони вибували з війни.) -- Червоний
лідере і червоний пʼять, мерщій летіть до війська Мелфоя, залишайтеся
щонайвище, але так, щоб ви могли їх бачити, і повертайтеся, щойно пересвідчитеся,
які в них плани. Зелений лідере, роби те ж саме для війська Ґрейнджер. Зелений
сорок один, ширяй над нами та чатуй на мітли чи солдатів. Тобі й лише тобі
дозволено відкривати вогонь. І памʼятайте, я не сказав "`Мерлін каже`" жодного
разу, але нам __справді__ потрібна ця інформація. Слава Хаосу!

// 6249
//“For Chaos!” the four echoed with varying degrees of enthusiasm.
-- Слава Хаосу! -- відгукнулися четверо з різним ступенем захоплення.

// 6250
//Harry expected Hermione to launch an immediate attack on Draco, in which case
//he’d move his troops into position and start supporting her, but only after
//she’d taken severe losses and caused some damage. He would frame it as a heroic
//rescue, if possible; it wouldn’t do to have Sunshine thinking that Chaos wasn’t
//their friend, after all.
Гаррі очікував, що Герміона розпочне негайний напад на Драко, і тоді він
розташує свої сили так, щоб почати підтримувати її, але лише після того, як
вона зазнає серйозних втрат і нанесе якусь шкоду. Він спробує вдати, ніби це
героїчний порятунок, якщо таке взагалі буде можливо. Зрештою, не треба, щоб
Сонечко вважало Хаос своїм ворогом.

// 6251
//But just in case she __didn’t__… well, that was why the Chaos Legion was
//staying put until Green Leader reported back.
Але якщо вона зробить __щось інше__... ну, саме тому Легіон Хаосу чекає на звіт
зеленого лідера.

// 6252
//Draco’s moves would be in his own self-interest. He would predictably ready his
//army to defend against Hermione; he might or might not realize that Harry had
//been lying about waiting to attack until after that battle finished. Harry had
//still put two broomsticks on Dragon Army, just in case they __were__ doing
//something, and just in case Draco or Mr. Goyle or Mr. Crabbe was good enough to
//shoot a broomstick out of the sky.
Драко діятиме у власних інтересах. Він, зрозуміло, підготує своє військо для
захисту від Герміони. Може, він зрозуміє, що Гаррі збрехав про те, що зачекає, доки
їхня битва завершиться. А може й ні. Гаррі все одно відправив дві мітли до Армії
Драконів на випадок, якщо вони __робитимуть щось__, а також просто на випадок, якщо
Драко, чи містер Ґойл, чи містер Креб достатньо вправні, щоб підстрелити мітлу в
повітрі.

// 6253
//But General Granger was the unpredictable one, and Harry couldn’t move until he
//knew how she was moving.
Але непередбачуваною була генерал Ґрейнджер, і Гаррі зробить свій хід лише коли
знатиме, який хід зробить вона.

***

// 6254
//In the heart of the forest, with shadow patterns dancing on the ground as leafy
//canopies swayed high above, General Malfoy stood where the trees were
//relatively sparser, and looked out on his troops with calm satisfaction. Six
//units of three troops each, the Aerial Unit of four (to which Gregory was
//assigned), and the Command Unit, which was himself and Vincent. They’d only
//drilled for a short time on the previous Saturday, but Draco was confident that
//he’d managed to explain the basics. Stay with your mates, watch their back and
//trust them to watch yours. Move as a single body. Obey orders and show no fear.
//Aim, fire, move, aim again, fire again.
У серці лісу, де візерунки тіней танцювали на землі у відповідь на хитання
густих крон нагорі, там, де дерев було трохи менше, стояв генерал Мелфой та
оглядав своє військо зі спокоєм та задоволенням. Шість підрозділів з трьома
солдатами в кожному, повітряний підрозділ з чотирьох (туди було призначено
Ґреґорі), а також підрозділ командування: він сам та Вінсент. Драко муштрував
своє військо лише недовго в суботу, але він був упевнений, що йому вдалося
пояснити основи: залишайся зі своїми соратниками, прикривай їхню спину і довір
їм прикривати свою. Переміщуйтеся, ніби єдиний організм. Підкоряйтеся наказам
та не виказуйте страху. Цільтеся, стріляйте, пересувайтеся, знову цільтеся,
знову стріляйте.

// 6255
//The six units were formed up in a defensive perimeter around Draco, watchfully
//gazing outward into the forest. Back-to-back they stood, wands gripped low
//until they needed to strike.
Шість підрозділів сформували захисний периметр навколо Драко, старанно
вдивляючись назовні в ліс. Вони стояли спина до спини, палички стиснуті в
низькій позиції, доки їм немає потреби атакувати.

// 6256
//They already looked remarkably like the Auror units whose training Draco had
//watched during his father’s inspections.
Вони вже були на диво схожі на підрозділи аврорів, чиє тренування якось бачив
Драко під час батькових перевірок.

// 6257
//Chaos and Sunshine weren’t going to know what hit them.
Хаос і Сонечко навіть не збагнуть, що їх перемогло.

// 6258
//“Attention,” said General Malfoy.
-- Увага, -- сказав генерал Мелфой.

// 6259
//The six units unfolded and spun toward Draco; the faces of his broomstick
//riders turned from where they stood with broomsticks already in hand.
Шість підрозділів розгорнулися та розвернулися до Драко. Наїзники тримали мітли
в руках, вони теж поглянули на Драко.

// 6260
//Draco had decided to wait on demanding salutes until after they won their first
//battle, when Gryffindors and Hufflepuffs would be more willing to salute a
//Malfoy.
Він вирішив зачекати з обовʼязковим віддаванням честі до першої перемоги --
тоді ґрифіндорцям і гафелпафцям легше буде віддавати честь Мелфою.

// 6261
//But his soldiers were already standing straight enough, especially the
//Gryffindors, that Draco wondered if he’d even needed to delay. Gregory had
//quietly listened, and reported back that Draco’s volunteering to stand by Harry
//Potter in Defense class, that time when Professor Quirrell had taught Harry how
//to lose, had marked Draco as an acceptable commander. At least if you happened
//to be assigned to his army. __Not all Slytherins are alike; there are
//Slytherins, and then there are Slytherins__ was what the Gryffindors in Draco’s
//army were quoting to their Housemates.
// Цитата про слизеринців з 019:3625
Але його солдати вже стояли достатньо струнко, особливо ґрифіндорці, і Драко
вже сумнівався, чи потрібна була ця затримка. Ґреґорі тихо прислухався був до
розмов і відзвітував, що Драко вважають прийнятним командиром через той
випадок, коли він сам запропонував пройти разом з Гаррі Поттером тренування з
програвання на занятті із захисту. Принаймні так вважали ті, хто потрапив до
його війська. "`__Не всі слизеринці однакові; є слизеринці, але є й
слизеринці__`", -- цитували ґрифіндорці з війська Драко своїм однокласникам.

// 6262
//Draco was frankly __astounded__ at how incredibly __easy__ that had
//been. Draco had protested at first about not being assigned any Slytherins, and
//Professor Quirrell had told him that if he wanted to be the first Malfoy to
//gain complete political control of the country, he needed to learn how to
//govern the other three-quarters of the population. It was things like this
//which reassured Draco that Professor Quirrell had a great deal more sympathy
//for the good guys than Professor Quirrell was letting on.
Драко був відверто __приголомшений__ тим, як неймовірно __нескладно__ все
вийшло. Спершу Драко протестував був, що йому не призначили слизеринців, але
професор Квірел сказав йому, що якщо він бажав стати першим Мелфоєм, що отримає
повний контроль над політикою країни, то йому потрібно навчитися керувати й
іншими трьома чвертями населення. Ось такі речі й заспокоювали Драко щодо
професора Квірела: той явно значно більше підтримував хороших хлопців, ніж
показував.

// 6263
//The actual battle wouldn’t be easy, especially if Granger did attack the
//Dragons first. Draco had agonized over whether to commit all his forces against
//Granger immediately in a preemptive strike, but had worried that (1) Harry had
//been misleading him completely about what Granger was likely to do, and (2)
//Harry had been misleading him about waiting until after Granger’s attack to
//join the battle.
Сама битва буде непростою, особливо якщо Ґрейнджер спочатку атакує Драконів.
Драко ніяк не міг вирішити, чи не кинути всі сили проти Ґрейнджер негайно в
попереджальному ударі, але хвилювався, чи (1) Гаррі раптом не обманює його
цілковито щодо ймовірних дій Ґрейнджер, а також (2) Гаррі не обманює його щодо
того, що зачекає, доки не завершиться атака Ґрейнджер, і лише потім
приєднається до битви.

// 6264
//Though Dragon Army had a secret weapon, three of them in fact, which might be
//enough to win even if they were attacked by both armies at once…
З іншого боку, Армія Драконів мала таємну зброю, насправді три, чого може
виявитися достатньо, навіть якщо обидва війська атакують їх разом...

// 6265
//It was almost time, and that meant it was time for the pre-battle speech that
//Draco had composed and memorized.
Вже майже настав час битви, відповідно, настав час для промови перед
битвою, що її Драко склав та запамʼятав.

// 6266
//“The battle is about to begin,” Draco said. His voice was calm and precise.
//“Remember everything that I and Mr. Crabbe and Mr. Goyle showed you. An army
//wins because it is disciplined and deadly. General Potter and the Chaos Legion
//will not be disciplined. Granger and the Sunshine Regiment will not be deadly.
//We are disciplined, we are deadly, we are Dragons. The battle is about to
//begin, and we are about to win it.”
-- Битва ось-ось розпочнеться, -- сказав Драко. Його голос був спокійним та
точним. -- Памʼятайте все, що вам показали я, містер Креб та містер Ґойл.
Будь-яке військо перемагає через свою дисциплінованість та смертоносність.
Генерал Поттер і Легіон Хаосу не матимуть дисципліни. Ґрейнджер та Полк "`Сонечко`"
не матиме смертоносності. Ми дисципліновані, ми смертоносні, ми Дракони. Битва
ось-ось розпочнеться, і ми її виграємо.

***

// 6267
//__(Ex tempore speech given by General Potter to the Chaos Legion,
//immediately before their first battle, on November 3rd, 1991, at 2:56pm:)__
__(Промова експромтом генерала Поттера перед Легіоном Хаосу прямо перед їхньою
першою битвою, 14:56 третього листопада 1991)__

// 6268
//My troops, I’m not going to lie to you, our situation today is very grim.
//Dragon Army has never lost a single battle. And Hermione Granger… has a very
//good memory. The truth is, most of you are probably going to die. And the
//survivors will envy the dead. But we have to win this. We have to win this so
//that someday, our children can enjoy the taste of chocolate again. Everything
//is at stake here. Literally everything. If we lose, the whole universe just
//blinks out like a light bulb. And now I realize that most of you don’t know
//what a light bulb is. Well, take it from me, it’s bad. But if we have to go
//down, let’s go down fighting, like heroes, so that as the darkness closes in,
//we can think to ourselves, __at least we had fun.__ Are you afraid to die?
//I know I am. I can feel those cold shivers of fear like someone is pumping ice
//cream into my shirt. But I know… that history is watching us. It was watching
//us when we changed into our uniforms. It was probably taking pictures. And
//history, my troops, is written by the victors. If we win this, we can write our
//own history. A history in which Hogwarts was founded by four renegade house
//elves. We can make everyone study that history, even though it isn’t true, and
//if they don’t answer the right way on our tests… they’ll fail the class. Isn’t
//that worth dying for? No, don’t answer that. Some things are better left
//unknown. None of us know why we’re here. None of us know why we’re fighting. We
//just woke up in these uniforms in this mysterious forest, knowing only that
//there was no way to get our names and memories back except victory. The
//students in those other armies out there… they’re just like us. They don’t want
//to die. They’re fighting to protect each other, the only friends they have
//left. They’re fighting because they know they have families who’ll miss them,
//even if they can’t remember now. They may even be fighting to save the world.
//But we have a better reason to fight than they do. We fight because we like it.
//We fight to amuse eldritch monstrosities from beyond Space and Time. We fight
//because we’re Chaos. Soon the final battle will begin, so let me say now,
//because I won’t get a chance later, that it was an honor to be your commander,
//however briefly. Thank you, thank you all. And remember, your goal isn’t just
//to cut down the enemy, it’s to make them afraid.
Солдати, я не брехатиму вам, сьогодні наші справи кепські. Армія Драконів ще не
програла жодної битви. А Герміона Ґрейнджер... має бездоганну памʼять. Далебі,
більшість з вас напевно помре. А ті, хто виживуть, заздритимуть померлим. Але
ми маємо перемогти. Ми маємо перемогти, щоб колись наші діти могли знову
насолоджуватися смаком шоколаду. На кону все. Буквально все. Якщо ми програємо,
увесь всесвіт просто згасне, мов жарівка. І тепер я розумію, що більшість з
вас не знає, що таке жарівка. Ну, повірте, це погано. Але якщо ми мусимо
полягти, то ми поляжемо в битві, як герої, щоб коли темрява зімкнеться, ми
могли подумки сказати: "`__принаймні, ми повеселилися__`". Чи боїтеся ви смерті? Я
знаю, що я боюся. Я відчуваю дрижаки від страху, ніби хтось завантажує мені під
футболку морозиво. Але я знаю... що історія спостерігає за нами. Вона дивилася
за нами доки ми перевдягалися в уніформи. Ймовірно, вона зробила фотографії.
А історію, мої солдати, пишуть переможці. Якщо ми переможемо,
то зможемо написати власну історію. Історію, в якій Гоґвортс
заснували четверо ренегатів ельфів-домовиків. Ми зможемо змусити всіх вивчати саме цю
історію, навіть якщо це неправда, і якщо вони не дадуть правильну відповідь на
наших екзаменах... то не складуть їх. Чи не варто за таке померти? Ні, не
відповідайте. Деякі речі краще залишити невідомими. Ніхто з нас не знає, чому
ми тут. Ніхто з нас не знає, чому ми боремося. Ми прокинулися в цих
уніформах у цьому таємничому лісі, знаючи лише, що немає жодного шансу знову
отримати свої імена й спогади, крім як через перемогу. Учні в інших військах...
вони такі самі, як ми. Вони не хочуть помирати. Вони борються, щоб захистити
одне одного -- єдиних друзів, що в них залишилися. Вони борються, бо знають, що
в них є родини, що сумуватимуть за ними, навіть якщо вони наразі цього не
памʼятають. Можливо вони навіть борються заради порятунку світу. Але в нас
причина для боротьби краща за їхню. Ми боремося, адже нам це подобається. Ми
боремося, щоб вразити надприродні страховища поза часом і простором. Ми
боремося, адже ми Хаос. Невдовзі розпочнеться фінальна битва, то дозвольте мені
сказати вам зараз, бо не виключено, що в мене потім не буде такої можливості,
що для мене честь бути вашим командиром, хай як недовго. Дякую вам, дякую вам
усім. І памʼятайте, наша мета -- не просто перебити ворогів. Наша мета --
змусити їх боятися.

***

// 6269
//A great booming gong echoed over the forest.
Гудіння величезного гонга розкотилося над лісом.

// 6270
//And the Sunshine Regiment began to march.
І Полк "`Сонечко`" розпочав свій марш.

***

// 6271
//The tension rose and rose, as Harry and the nineteen other soldiers who
//remained waited for the aerial warriors to report back. It shouldn’t take long,
//broomsticks were fast and the distances in the forest were not great -
Напруга зростала й зростала, доки Гаррі й ще девʼятнадцять солдатів
чекали разом на звіт повітряних воїнів. Це не має забрати багато часу -- мітли
були швидкими, а відстані в лісі невеликими...

// 6272
//Two broomsticks approached, at speed, from the direction of Draco’s camp, and
//all the soldiers tensed. They weren’t executing the maneuvers that were today’s
//code for a __friendly__ broomstick.
Наближалися дві мітли, швидко, з напрямку табору Драко, і всі солдати
затамували подих. Наїзники не виконували маневрів, що були сьогоднішнім кодом
для __дружніх__ мітел.

// 6273
//“__Scatter and fire!__” roared General Potter, and then suited action to
//words, scurrying off at top speed toward the forest cover; and then as soon as
//Harry was among the trees, he spun back, raised his wand, tried to seek out the
//broomstick in the sky -
-- __Розсіятися та вогонь!__ -- прогримів генерал Поттер.

І не забарився втілити свої слова. Він щодуху помчав до прикриття лісу, і щойно
опинився серед дерев крутнувся на місці, здійняв паличку, спробував знайти
мітлу в небі...

// 6274
//“Clear!” shouted a voice. “They’re heading back!”
-- Чисто! -- вигукнув хтось. -- Вони повертаються!

// 6275
//Harry gave a mental shrug. There’d been no way to prevent Draco from obtaining
//that information, and he’d only learn that they’d been standing still.
Гаррі подумки знизав плечима. Неможливо було завадити Драко отримати цю
інформацію, та й дізнався він лише, що військо Гаррі нікуди не рухалося.

// 6276
//And the Chaotics slowly emerged from the forest -
Тоді хаоси{stress}ти повільно вийшли з лісу...

// 6277
//“Broomstick approaching from Granger’s direction!” yelled another voice. “I
//think it’s Green Leader, he did the dip and roll!”
-- Наближається мітла з напрямку Ґрейнджер! -- заволав хтось інший. -- Гадаю,
це зелений лідер, бо він пірнув та зробив оберт!

// 6278
//Moments later Theodore Nott dived out of the sky and pulled up in the midst of
//the soldiers.
Невдовзі Теодор Нот різко спустився з неба й вийшов зі штопору над солдатами.

// 6279
//“Granger has divided her forces in two!” yelled Nott as he hovered on his
//broomstick. There was sweat staining his uniform, and all the reserve was gone
//from his voice. “She’s attacking both armies! Two brooms covering each force,
//they pursued me halfway here!”
-- Ґрейнджер розділила свої сили навпіл! -- заволав Нот, зависнувши на мітлі.
Його уніформа просякла потом, і останні сили пішли на цей крик. -- Вона атакує
обидва війська! По дві мітли кружляють над кожним підрозділом, вони
переслідували мене пів шляху сюди!

// 6280
//__Divided her army, what on Earth -__
__Розділила своє військо, якого біса...__

// 6281
//A large force concentrating fire on a small force could deplete that force
//rapidly without taking much damage in return. If twenty soldiers faced ten
//soldiers, twenty sleep spells would be aimed at the ten soldiers with only ten
//sleep spells going the other way, so unless every one of those first sleep
//spells hit its target, the smaller force would lose more people than they could
//manage to take down with them. __Defeated in detail__ was the military
//term for what happened when you divided your forces like that. What could
//Hermione __possibly__ be thinking…
Коли велика сила концентрує вогонь на меншій силі, то менша сила вичерпується
швидко, і не встигає завдати шкоди у відповідь. Якщо двадцять солдатів
стикаються з десятком солдатів, то двадцять заклять сну буде направлено на
десяток солдатів, і лише десять заклять сну полетить в інший бік, отже хіба що
кожне з цих перших заклять влучить у ціль, менша сила втратить більше людей,
ніж знешкодить. Існував відповідний військовий термін "`__знищені нароздріб__`"
для випадків, коли ви так розділяли свої сили. __Про що__ Герміона взагалі
думала...

// 6282
//Then Harry realized.
І тоді Гаррі збагнув.

// 6283
//__She’s being fair.__
__Вона грала чесно.__

// 6284
//It was going to be a long year in Defense class.
Ох, яким же довгим буде цей рік захисту.

// 6285
//“All right,” Harry said loudly, so the army could hear. “We’ll wait until the
//Red Wing reports in, and then we’ll go cloud up some Sunshine.”
-- Гаразд, -- гучно сказав Гаррі, щоб усе військо почуло. -- Дочекаймося звіту
червоного крила, і накриємо хмарою трохи Сонечка.

***

// 6286
//Draco listened to the flyers’ reports with his face calm, all his shock
//concealed inside. What could Granger __possibly__ be thinking?
Драко вислухав звіти льотчиків з непорушним лицем, приховавши весь подив
усередині. __Про що__ Ґрейнджер взагалі думала?

// 6287
//Then Draco realized.
І тоді Драко збагнув.

// 6288
//__It’s a feint.__
__Це блеф.__

// 6289
//One of Sunshine’s two forces would change direction, and both would converge
//on… who?
Одна з двох сил Сонечка змінить напрямок, і вони разом атакують... кого?

***

// 6290
//Neville Longbottom marched through the forest toward the approaching Sunny
//force, occasionally glancing up at the sky for broomsticks. Beside him marched
//his squad comrades, Melvin Coote and Lavender Brown of Gryffindor, and Allen
//Flint of Slytherin. Allen Flint was their Squad Suggester, though Harry had
//first said to Neville, in private, that the position was his if he wanted it.
Невіл Лонґботом маршував лісом до сил Сонечка, що наближалися, і подеколи оглядав
небо на присутність мітел. Поряд з ним крокували товариші його загону: Мелвін
Кут, Лаванда Браун з Ґрифіндору і Ален Флінт зі Слизерину. Ален Флінт був
радником їхнього загону, хоча Гаррі казав був Невілові, що посада його, якщо
він забажає.

// 6291
//Harry had said quite a lot of things to Neville in private, starting with “You
//know, Neville, if you want to become as awesome as the imaginary Neville who
//lives in your head but isn’t allowed to do anything because you’re scared, then
//you really should sign up for Professor Quirrell’s armies.”
Гаррі казав був Невілові чимало речей особисто, починаючи зі "`Знаєш, Невіле,
якщо ти хочеш стати саме таким приголомшливим, як уявний Невіл, що живе у тебе
в голові, але не може нічого зробити через твій страх, то тобі справді варто
записатися до військ професора Квірела`".

// 6292
//Neville was now __sure__ the Boy-Who-Lived could read minds. There was
//just no other way Harry Potter could’ve known. Neville had never talked about
//that with __anyone__, or given any sign; and __other__ people weren’t
//like that, not that Neville had ever noticed.
Тепер Невіл __був упевнений__, що Хлопчик-Що-Вижив міг читати думки. Він більше
ніяк не міг дізнатися. Невіл ніколи __нікому__ про це не розповідав, і не
виказував цього. І __жодна__ інша людина не була такою, принаймні Невіл такого
не помічав.

// 6293
//And Harry’s promise had come true, this __did__ feel different from
//sparring in Defense class. Neville had hoped that sparring would fix everything
//that was wrong with him, and, well, it hadn’t. Even if he could fire a few
//spells at another student in class with Professor Quirrell watching to make
//sure nothing went wrong, even if he could dodge and fire back when it was
//__allowed__ and everyone else was __expecting__ it and they would
//stare at him funny if he __didn’t__ do it, none of that was the same as
//being able to stand up for himself.
І запевнення Гаррі справдилися: це __зовсім__ відрізнялося від спарингів у
кабінеті захисту. Невіл сподівався був, що спаринги виправлять у ньому все, що
з ним не так, але, ну, не вийшло. Хоч він і міг застосувати декілька заклять на
інших учнях у класі в присутності професора Квірела, що пильнував, щоб усе було
гаразд, хоч він і міг ухилятися та стріляти у відповідь, коли це було
__дозволено__, коли всі __очікували__ цього, і нагородили б його презирливими
поглядами, якби він цього __не зробив__, усе це не допомагало навчитися стояти
за себе.

// 6294
//But being part of an __army…__
Але бути частиною __війська__...

// 6295
//Something strange was stirring inside Neville, as he marched through the forest
//alongside his comrades, upon their uniforms an insignia of fingers poised to
//snap.
Щось дивне відбувалося всередині Невіла, доки він маршував лісом поряд з
товаришами, в уніформі з символом пальців, готових клацнути.

// 6296
//He was allowed to walk if he wanted to, but he just felt like marching.
Йому можна було й просто йти, якби він захотів, але йому було до вподоби маршувати.

// 6297
//Beside him, Melvin and Lavender and Allen all seemed to feel like marching too.
Поряд з ним Мелвіну, Лаванді та Алену, видається, теж було до вподоби
маршувати.

// 6298
//And Neville softly began to sing the Song of Chaos.
І Невіл тихо почав співати Пісню Хаосу.

// 6299
//The tune was what a Muggle would have identified as John Williams’s Imperial
//March, also known as “Darth Vader’s Theme”; and the words Harry had added were
//easy to remember.
Мелодію будь-який маґл впізнав би як імперський марш Джона Вільямса, також
відомий як "`Тема Дарта Вейдера`". А слова, що їх додав Гаррі, було легко
запамʼятати:

// 6300
// @ Ельвіра: це сприймається як ноти, а не як приречення, але я не знаю, що зробити, щоб було краще
//__Doom doom doom__
__До ля ля__ +
// 6301
//__Doom doom doom doom doom doom__
__До ля ля до ля ля__ +
// 6302
//__Doom doom doom__
__До ля ля__ +
// 6303
//__Doom doom doom doom doom doom__
__До ля ля до ля ля__ +
// 6304
//__DOOM doom DOOM__
__ДО ля ДО__ +
// 6305
//__Doom doom doom-doom-doom doom doom__
__До до ля-ля-ля до до__ +
// 6306
//__Doom doom-doom-doom doom doom__
__До ля-ля-ля до до__ +
// 6307
//__Doom doom doom, doom doom doom.__
__До ля ля, до ля ля.__

// 6308
//By the second line the others had joined in, and soon you could hear the same
//soft chant coming from nearby parts of the forest.
На другому рядку інші приєдналися, і невдовзі цей наспів почувся з інших частин
лісу поряд.

// 6309
//And Neville marched alongside his fellow Chaos Legionnaires,
І Невіл маршував поряд зі своїми соратниками з Легіону Хаосу, +
// 6310
//strange feelings stirring in his heart,
дивні відчуття вирували в його серці, +
// 6311
//imagination becoming reality,
уява ставала дійсністю, +
// 6312
//as from his lips poured a fearful song of doom.
доки з його губ злітала страхітлива пісня долі.

***

// 6313
//Harry stared at the bodies scattered across the forest. Something inside him
//felt a bit queasy, and he had to remind himself hard that they were only
//sleeping. There were girls among the fallen, and that made it a lot worse
//somehow, and he would have to be careful never to mention that in front of
//Hermione or the Aurors would find his remains stuffed into a __small__
//teapot.
Гаррі не міг відвести погляду від розкиданих по лісу тіл. Його аж трохи нудило,
він мав нагадати собі, що вони лише сплять. Серед полеглих були дівчата, і
чомусь від цього було значно гірше. За жодних обставин не можна про це згадувати
в присутності Герміони, інакше аврори знайдуть його рештки в __малесенькому__
чайничку.

// 6314
//Half of Sunshine army hadn’t put up much of a fight against all of Chaos. The
//nine ground soldiers had run in screaming inarticulately with Simple Shields
//raised, circular screens to protect their faces and chests. But you couldn’t
//fire and hold the shield at the same time, and Harry’s soldiers had simply
//aimed for the legs. All but one of the Sunnies had fallen over as soon as the
//cries of “__Somnium!__” filled the air. That last one had dropped her
//shield and managed to take out one of Harry’s soldiers before being hit by the
//second wave of sleep spells (the Sleep Hex was safe for multiple hits). The two
//Sunny broomsticks had been much harder to take down and had accounted for three
//Chaotics before being auraed by massed ground fire.
Половина війська Сонечко не змогла дати гідний бій усьому Хаосу. Девʼятеро
наземних солдатів вибігли були в їхньому напрямку з беззмістовними криками.
Їхні обличчя та груди були захищені колами простих щитів. Але не можна
тримати щит та стріляти одночасно, і солдати Гаррі просто цілилися в ноги. Усі,
крім однієї сонечка, полягли, щойно крики "`__Сомніум!__`" заполонили простір.
Остання з солдат скасувала свої щити, і їй навіть вдалося забрати одного з
солдатів Гаррі перед тим, як на неї налетіла хвиля заклять (множинні влучення
"`Прокльону сну`" були безпечними). З двома сонячними мітлами впоратися було
значно складніше, заради цього довелося втратити аж трьох хаоситів, доки
масивний вогонь із землі не залишив червоне сяяння на мітлах.

// 6315
//Hermione wasn’t among the fallen. Draco must have gotten her and that was
//making Harry feel __angry__ on some completely incomprehensible level, he
//wasn’t sure if he was feeling protective toward Hermione, or cheated that he
//hadn’t been the one to do it, or maybe __both.__
Герміони не було серед полеглих. Відповідно, її переміг Драко, через що Гаррі
відчував __злість__ на якомусь незбагненному рівні. Він не знав, почуття було
викликано бажанням захистити Герміону, чи відчуттям зради через те, що це був
не він, чи, можливо, __і тим, і тим__.

// 6316
//“All right,” Harry said, raising his voice. “Let’s everyone be clear on one
//thing, that wasn’t a real fight. That was General Granger making a mistake in
//her first battle. Today’s actual fight is with Dragon Army and it’s not going
//to be anything like this. It’s going to be a lot more fun. Let’s move out.”
-- Гаразд, -- сказав Гаррі, підвищивши голос. -- Важливо не забувати, що це був
не справжній бій. Це генерал Ґрейнджер зробила помилку у своїй першій битві.
Сьогодні справжній бій в нас буде з Армією Драконів, і він буде анітрохи не
схожим на те, що щойно відбулося. Буде значно веселіше. Рушаймо.

***

// 6317
//A broomstick fell out of the sky, approaching terrifyingly fast, and spun on
//its end and decelerated so hard you could almost hear the air screaming in
//protest, and came to a halt directly beside Draco.
Мітла впала з неба й наближалася страшенно швидко, потім розвернулася на
кінчику та загальмувала так сильно, що майже можна було почути крик обуреного
повітря, і застигла прямо поряд із Драко.

// 6318
//It wasn’t dangerous showing-off. Gregory Goyle simply __was__ that good
//and he didn’t waste time.
Це було не небезпечне позерство. Ґреґорі Ґойл просто __був__ таким вправним і
не марнував часу.

// 6319
//“Potter’s coming,” Gregory said with no trace of his usual fake drawl. “They’ve
//still got all four of their brooms, you want me to take them out?”
-- Поттер наближається, -- сказав Ґреґорі без жодного натяку на свою звичайну
підробну манірну вимову, -- у них досі всі чотири мітли, мені їх зняти?

// 6320
//“No,” Draco said sharply. “Fighting over their army gives them too much of an
//advantage, they’ll fire on you from the ground and even you might not be able
//to dodge it all. Wait until the forces engage.”
-- Ні, -- різко сказав Драко. -- Боротьба над їхнім військом дає їм надто
велику перевагу, вони стрілятимуть по тобі з землі, і навіть ти можеш не ухилитися
від такої кількості заклять. Зачекай, доки розпочнеться бій.

// 6321
//Draco had lost four Dragons in exchange for twelve Sunnies. Apparently General
//Granger actually __had__ been that incredibly stupid, though she hadn’t
//been among the attackers, so Draco hadn’t gotten a chance to taunt her or ask
//her what in Merlin’s name she had been thinking.
Драко втратив чотирьох драконів за дванадцятьох сонечок. Виявляється, генерал
Ґрейнджер дійсно __була__ такою неймовірно дурною, хоча її не було серед
нападників, тому в Драко не було можливості поглузувати з неї та запитати, про
що, заради Мерліна, вона думала.

// 6322
//The true battle, they all knew, would be with Harry Potter.
Справжня битва, як вони всі й гадали, буде з Гаррі Поттером.

// 6323
//“Prepare yourselves!” roared Draco at his troops. “Stay together with your
//mates, act as a unit, fire as soon as the enemy is in range!”
-- Готуйся! -- заревів Драко своїм солдатам. -- Не відходьте від напарників,
дійте як єдине ціле, стріляйте, щойно ворог наблизиться достатньо.

// 6324
//Discipline against Chaos.
Дисципліна проти Хаосу.

// 6325
//It shouldn’t be much of a fight.
Зрозуміло, що переможе.

***

// 6326
//The adrenaline was pumping and pumping into Neville’s blood until he felt like
//he could hardly breathe.
Кількість адреналіну збільшувалася й збільшувалася в крові Невіла, доки йому не
стало важко дихати.

// 6327
//“We’re closing in,” said General Potter in a voice barely loud enough to carry
//to the whole army. “Time to spread out.”
-- Наближаємося, -- сказав генерал Поттер ледь чутним для дальніх солдат
голосом. -- Час розосереджуватися.

// 6328
//Neville’s comrades moved away from him. They would still support each other,
//but if you clustered together, the enemy would have a much easier time hitting
//you; fire aimed at one of your comrades might miss and get you instead. You
//would be a lot harder to hit if you spread out and moved as fast as you could.
Товариші Невіла віддалилися від нього. Вони підтримуватимуть один одного, проте
якщо ходити поряд, то ворогові набагато легше влучити: навіть якщо він хотів
поцілити в твого товариша й промахнувся, закляття можеш отримати ти. Набагато
складніше у когось влучити, якщо війська розпорошені й рухаються якомога
швидше.

// 6329
//The first thing General Potter had done, during their training session, was get
//them to fire on each other when both sides were running fast, or both stood
//still and took time to aim, or one was moving and one was standing still - the
//reverse charm to the Sleep Hex was simple, though you weren’t allowed to use it
//during real battles. General Potter had carefully recorded everything that
//happened, done some figuring and ciphering, and then announced that it made
//more sense for them to focus, not on slowing down to aim carefully, but on
//moving fast so they wouldn’t get hit.
Найперше, що зробив був генерал Поттер на їхньому тренуванні, -- це сказав їм
спробувати стріляти один в одного, коли обидва біжать один до одного, коли вони
щоразу старанно прицілюються, і коли один рухається, а інший стоїть на місці.
Зворотні чари для прокльону сну були простими, хоча їх не можна було
використовувати під час справжніх битв. Генерал Поттер охайно записав був усе,
що сталося, щось обміркував та обчислив, і оголосив, що розумніше не
сповільнюватися й ретельно прицілюватися, а рухатися швидко, щоб у них не
влучали.

// 6330
//It still bothered Neville a little not to be marching side-by-side with his
//comrades, but the scary battlecries they’d learned were already thundering in
//his head and that made up for a lot.
Невіла досі трохи непокоїло, що він вже не маршує в ногу з товаришами, але
моторошні бойові крики, які вони були вивчили, вже гриміли в його голові, а
це дуже допомагало.

// 6331
//This time, Neville silently vowed to himself, his voice was absolutely
//positively not going to squeak.
Цього разу, тихо присягнув собі Невіл, його голос жодним чином зовсім не
перейде на писк.

// 6332
//“Shields up,” said General Potter, “power to forward deflectors.”
-- Підняти щити, -- сказав генерал Поттер, -- потужність на передні відбивачі.

// 6333
//“__Contego,__” murmured the army, and the circular screens sprang into
//existence before their heads and chests.
-- __Контеґо__, -- пронеслося військом, і перед головами та грудьми зʼявилися
кола екранів.

// 6334
//A sharp taste filled Neville’s mouth. General Potter wouldn’t have ordered them
//to cast shields unless they were almost in range. Neville could see the
//uniformed shapes of Dragons moving through the dense screens of trees, and the
//Dragons would be seeing them as well -
Невіл відчув різкий присмак у роті. Генерал Поттер не наказав би створювати
щити, якби вони не були майже в полі досяжності. Невіл міг бачити силуети
драконів в уніформі, що рухалися серед густої стіни дерев, і дракони от-от
побачать їх...

// 6335
//“__Attack!__” came a cry from the distance, the voice of Draco Malfoy, and
//General Potter bellowed, ”__Charge -__”
"`__Атакуй!__`" -- почувся звіддалі крик Драко Мелфоя, і Генерал Поттер
заревів: "`__Уперед...__`"

// 6336
//All the adrenaline in Neville’s blood was unleashed, and his legs took over,
//sending him flying faster than he’d ever run before, straight toward the enemy,
//knowing without needing to look that all his comrades were doing the same.
Адреналіну в крові Невіла дали волю, і ноги понесли його, ніколи в житті він ще
не бігав з такою швидкістю. Він летів прямо на ворога, і йому не треба було
озиратися, щоб знати, що товариші роблять так само.

// 6337
//“__Blood for the blood god!__” screamed Neville. ”__Skulls for the
//skull throne! Ia! Shub-Niggurath! The enemy’s gate is sideways!__”
// hedrok: @ Blood for the blood god! Skulls for the skull throne!
// Як я зрозумів, з гри Warhammer. Якщо в когось є переклад - прошу.
//
// Ia! Shub-Niggurat! з "Жахіття Данвіча" Говарда Лавкрафта. Видавництво
// Жупанського, том 2.
//
// The enemy's gate is sideways! Теоретично з "Гри Ендера". Там "The enemy's gate
// is down", у перекладі Валерія Верховського "Ворожі ворота розташовуються внизу"
// Для гасла надто незручно, знову перекладаю інакше.
-- __Кров для бога крові!__ -- кричав Невіл. -- __Черепи для трону черепів!__
Ійа! Шуб-Ніґґурат! Ворожі ворота збоку!

// 6338
//There was a soundless impact as a sleep spell wasted itself against Neville’s
//shield. If there’d been other spells fired, they hadn’t hit.
Закляття сну марно вдарилося об його щит. Якщо й були інші спроби, то вони не
влучили.

// 6339
//Neville saw the brief look of fear on Wayne Hopkins’s face, as he stood besides
//two Gryffindors Neville didn’t recognize, and then -
Невіл встиг побачити переляк на лиці Вейна Гопкінса, той стояв поряд з двома
ґрифіндорцями, що їх Невіл не впізнав, а тоді...

// 6340
//- Neville dropped the Simple Shield and fired at Wayne -
...Невіл скасував простий щит і вистрілив у Вейна...

// 6341
//- missed -
...промахнувся...

// 6342
//- his racing legs went __straight__ past the enemy grouping and toward
//another three Dragons, their wands coming up on him, their mouths opening -
...його швидкісні ноги пронесли його __прямо__ крізь вороже угрупування до
інших трьох драконів, їхні палички націлилися на нього, їхні роти розкрилися...

// 6343
//- not even thinking about it, Neville dived down to the forest floor just as
//three voices cried “__Somnium!__”
...Невіл бездумно пірнув на землю лісу саме в ту мить, коли пролунали три
голоси "`__Сомніум!__`"

// 6344
//It hurt, hard stones and hard twigs digging into Neville as he rolled, it
//wasn’t as bad as falling off his broomstick but he’d still hit the ground
//pretty hard, and then Neville, with sudden insight, lay still and closed his
//eyes.
Було боляче: тверде каміння й тверді гілки впивалися в Невіла, доки той
котився. Було не так погано, як падати з мітли, але удар об землю все одно був
сильний, і тоді Невіл з раптовою проникливістю вирішив не рухатися й заплющив
очі.

// 6345
//“Stop that!” screamed a voice. “Don’t shoot us, we’re Dragons!”
-- Припиніть! -- почувся голос. -- Не стріляйте в нас, ми дракони!

// 6346
//With a flash of glorious satisfaction, Neville realized that he’d managed to
//get between two groups of Dragons just as one group had fired on him. Harry had
//talked about this as a tactic for making the enemy afraid to fire, but
//apparently it worked a bit better than that.
Невіл з насолодою зрозумів, що йому вдалося стати між двома групами драконів,
саме коли одна з груп вистрелила в нього. Гаррі розповідав був про це, як про
тактику змусити ворога боятися стріляти, але, видається, це спрацювало навіть
краще.

// 6347
//And not only that, the Dragons believed they’d __gotten__ him, since
//they’d seen Neville fall just as they fired.
Крім того, дракони ще й вважали, що __влучили__ в нього, адже вони бачили, що
Невіл впав саме тоді, коли вони вистрелили.

// 6348
//Neville counted to twenty inside his head, then opened his eyes a crack.
Невіл подумки долічив до двадцяти і ледь-ледь розплющив очі.

// 6349
//The three Dragons were very near him, heads spinning rapidly as cries of
//“__Somnium!__” and __“Skulls for the skull throne!__” filled the air
//around them. All three had Simple Shields up now.
Три дракони були зовсім поряд, вони вертіли головами, а навкруги крики
"`__Сомніум!__`" та "`__Черепи для трону черепів__!`" заполонили повітря.
Усі три наразі мали прості щити.

// 6350
//Neville’s wand was still in his hand, and it didn’t take much effort to point
//it at one boy’s boots and whisper “__Somnium.__”
Паличка Невіла досі була в його руці, і нескладно було направити її на черевик
одного з хлопців та прошепотіти "`__Сомніум__`".

// 6351
//Neville quickly closed his eyes and relaxed his hand as he heard the boy fall
//to the ground.
Невіл швидко заплющив очі та розслабив руку, коли почув, що той хлопець впав на
землю.

// 6352
//“__Where’d it come from?__” screamed Justin Finch-Fletchley’s voice, and
//Neville heard rustles on the leafy forest floor, as of two Dragons spinning
//around looking for an enemy.
-- __Звідки воно взялося?__ -- закричав Джастін Фінч-Флечлі, і Невіл почув
шарудіння листям -- два дракони оберталися в спробі знайти ворога.

// 6353
//“__Reform ranks!__” bellowed Malfoy’s voice. ”__To me, everyone,
//don’t let them scatter you!__”
-- __Змінити формацію!__ -- почувся рев Мелфоя. -- __Усі до мене, не дозвольте
їм вас розосередити!__

// 6354
//Neville’s ears heard the two Dragons actually jump over his prone body as they
//ran off.
Невіл навіть почув, що два дракони взяли й перестрибнули через його розпластане
тіло, виконуючи наказ.

// 6355
//Neville opened his eyes, pushed himself to his feet a bit painfully, and then
//pointed his wand and said the new charm that General Potter had taught them
//all. They couldn’t do real illusion spells to confuse the enemy, but even at
//their age they could -
Невіл розплющив очі, не без болю підвівся на ноги, націлив паличку й вимовив
нові чари, що їм навчив був усіх генерал Поттер. Вони ще не вміли використовувати
справжніх ілюзійних заклять, щоб заплутувати ворогів, але навіть у своєму віці
вони могли...

// 6356
//“__Ventriliquo,__” whispered Neville, pointing the wand to one side of
//Justin and the other boy, and then yelled, ”__For Cthulhu and glory!__”
-- __Черевомовліо__, -- прошепотів Невіл, направивши паличку вбік від Джастіна
та іншого хлопця, і заволав: -- __Заради Ктулху і слави!__

// 6357
//Justin and the other boy stopped abruptly, turning their shields toward where
//Neville had moved his battlecry, and that was when multiple cries of
//“__Somnium!__” filled the air and the other boy dropped before Neville was
//finished aiming.
Джастін з другим хлопцем різко зупинилися й повернули свої щити в тому
напрямку, куди Невіл посунув свій бойовий крик, а тоді декілька криків
"`__Сомніум__`" наповнили повітря, і другий хлопець впав ще до того, як Невіл
прицілився.

// 6358
//“__The last one’s mine!__” yelled Neville, and then he started sprinting
//straight toward Justin, who’d been mean to him until the older Hufflepuffs
//straightened him out. Neville was surrounded by his comrades and __that__
//meant -
-- __Останній мій!__ -- заволав Невіл, і почав бігти прямо на Джастіна, що
погано до нього ставився, доки старші гафелпафці не виправили його. Навколо
Невіла були його товариші, а __це__ означало...

// 6359
//“__Special attack, Chaotic Leap!__” howled Neville as he ran, and felt his
//body lighten, then lighten twice again, as his comrades got their wands turned
//toward him and quietly cast the Hover Charm, and Neville raised his left hand
//and snapped his fingers and then used his legs to push off the ground as hard
//as he could and __soared__ through the air. Sheer shock painted Justin’s
//face as Neville went __over__ the other boy’s shield and pointed his wand
//down at the form passing beneath him and cried ”__Somnium!__”
-- __Спеціальна атака, стрибок Хаосу!__ -- завив Невіл не зупиняючи бігу.

Він відчув, як його тіло легшає, потім полегшало ще вдвічі: його товариші
направили на нього палички й тихо застосували чари "`Політ`". Тоді Невіл підвів
лівицю й клацнув пальцями, а тоді чимдуж відштовхнувся ногами й __злетів__ у
повітря. Щире потрясіння застигло на обличчі Джастіна, доки Невіл перелетів
__над__ щитом хлопця, направив паличку вниз на нього й крикнув "`__Сомніум!__`"

// 6360
//Because he’d felt like it, that was why.
Бо йому так захотілося, ось чому.

// 6361
//Neville didn’t quite get his feet turned around properly and rather plowed into
//the ground as he landed, but two out of three of the other Chaos Legionnaires
//had managed to hold their wands on him throughout and he didn’t hit very hard.
Невіл направив ноги не зовсім правильно, і тому трохи проорав землю, коли
приземлявся, але двом з трьох легіонерів Хаосу вдалося втримати палички
направленими на нього весь час, тому він не сильно забився.

// 6362
//And Neville got to his feet, panting. He knew he should be moving, people were
//yelling “Somnium!” all over the place -
І Невіл підвівся на ноги. Він знав, що варто рухатися, повсюди хтось кричав
"`Сомніум!`"...

// 6363
//“__I am Neville, the last scion of Longbottom!__” screamed Neville to the
//sky above, holding his wand pointed straight up as though to challenge the
//blazing blue heaven itself, knowing that nothing after this day would ever be
//the same again. ”__Neville of Chaos! Face me if you da-__”
-- __Я Невіл, останній нащадок Лонґботомів!__ -- закричав Невіл небесам, він
тримав паличку вертикально, ніби викликав на бій саме синє палаюче небо. Він
знав, що віднині все буде інакше. -- Невіл Хаосу! Підходьте, якщо не бо...

// 6364
//(When Neville woke up afterward, he was told that Dragon Army had taken this as
//their cue to counterattack.)
(Пізніше, коли Невіл прокинувся, йому сказали, що Драконова Армія використала
його крик як підказку для контратаки.)

***

// 6365
//The girl beside Harry slumped to the ground, taking the shot meant for him, and
//he could hear Mr. Goyle’s distant gloating laugh as his broomstick blasted past
//them, cutting the air so hard it should have shattered in his wake.
Дівчина поряд з Гаррі важко опустилася на землю. Вона прийняла на себе постріл,
що призначався йому, і здалеку чувся зловтішний сміх містера Ґойла, чия мітла
промайнула над ними, роздираючи повітря так, що воно мало б розпадатися на
шматки за його спиною.

// 6366
//“__Luminos!__” cried one of the boys next to Harry, who hadn’t been able
//to rebuild the magical strength fast enough to do it earlier, and Mr. Goyle
//dodged it without a pause.
-- __Лумінос!__ -- крикнув один з хлопців поряд з Гаррі, той, що не зміг
достатньо швидко відновити магічну силу, щоб зробити це раніше, і містер Ґойл
ухилився, навіть не сповільнившись.

// 6367
//Chaos had only six soldiers left, now, and Dragon Army had two, and the only
//problem was that one of those soldiers was invincible, and the other one was
//using up three soldiers just to cover him inside his shield.
Наразі з Хаосу залишилося лише шість солдатів, а з Драконової Армії -- двоє.
Єдиною проблемою було те, що один з них був непереможним, а інший використав
усі сили трьох солдатів лише для того, щоб замкнутися у своєму щиті.

// 6368
//They’d lost more soldiers to Mr. Goyle than all the other Dragons put together,
//he was weaving and dodging through the air so fast that no one could hit him,
//and he could __shoot people while he did that.__
Через містера Ґойла вони втратили більше солдатів, ніж через решту драконів
разом узятих. Він ухилявся й крутився в повітрі так швидко, що ніхто не міг у
нього влучити, а він міг __стріляти в людей, доки робив це__.

// 6369
//Harry had thought of all sorts of ways to stop Mr. Goyle but none of them were
//__safe__, even using the Hover Charm to slow him down (it was a continuous
//beam and much easier to aim) wouldn’t be safe because he might fall off the
//broomstick, throwing things in his way wouldn’t be safe, and that was getting
//harder and harder to remember as Harry’s blood froze over.
Гаррі вигадав безліч різноманітних способів зупинити містера Ґойла, проте жоден
з них не був __безпечним__, навіть використати чари польоту, щоб сповільнити
його (це був безперервний промінь, яким прицілюватися було значно легше), було
небезпечно, адже він може впасти з мітли; кидатися чимось, щоб перешкодити
йому, було небезпечно, і було дедалі важче не забувати про це, коли температура
крові Гаррі зменшувалася.

// 6370
//__It’s a game. You’re not trying to __kill__ him. Don’t throw away
//all your future plans for a game…__
__Це гра. Ти не намагаєшся його __вбити__. Не жертвуй усіма своїми майбутніми
планами заради гри...__

// 6371
//Harry could __see__ the pattern, he could __see__ how Mr. Goyle was
//weaving, he could __see__ how and when they all needed to fire in order to
//create a web of shots that Mr. Goyle wouldn’t be able to dodge, but he just
//hadn’t been able to __explain__ it fast enough to his soldiers, they
//couldn’t coordinate their shots well enough, and now they didn’t have enough
//people left to do it -
Гаррі __бачив__ схему, він __бачив__, як містер Ґойл крутиться, він міг
__бачити__, як їм усім треба було вистрелити, щоб створити візерунок пострілів,
від яких містер Ґойл не зможе ухилитися, але він не міг __пояснити__ своїм
солдатам достатньо швидко, що треба робити, як скоординувати свої постріли
достатньо добре, і тепер у них ще й не вистачало людей, щоб це зробити...

// 6372
//__I refuse to lose, not like this, not my whole army to one soldier!__
__Я відмовляюся програвати -- не так, не ціле військо одному солдатові!__

// 6373
//Mr. Goyle’s broomstick turned faster than anything should have been able to
//turn and started to angle in toward Harry and his surviving troops, he could
//sense the boy beside him tensing, getting ready to throw himself in front of
//his general.
Мітла містера Ґойла змінила напрямок швидше, ніж мало б бути можливим для
будь-чого, і почала повертати до Гаррі та решти його сил, Гаррі відчував, що
хлопець поряд з ним напружився, готовий кинути себе на захист свого генерала.

// 6374
//__SCREW THIS.__
__ДО ДІДЬКА.__

// 6375
//Harry’s wand came up, focusing on Mr. Goyle, Harry’s mind visualized the
//pattern, and Harry’s lips opened and his voice screamed -
Гаррі підвів паличку, зосередившись на містері Ґойлі. Він чітко уявив потрібний
візерунок, Гаррі розтулив губи й закричав...

// 6376
//“__Luminos____luminos____luminos____luminos____luminos____luminos____luminos____luminos____luminos____luminos____luminos____luminos____-”__
-- __Лумінос____лумінос____лумінос____лумінос____лумінос____лумінос____лумінос____лумінос____лумінос____лумінос____лумінос____лумінос____...__

// 6377
//____

***

// 6378
//When Harry’s eyes opened again, he found himself resting in a comfortable
//position with his hands folded over his chest, holding his wand like a fallen
//hero.
Коли Гаррі знову розплющив очі, то виявив, що він зручно лежить, його руки
складені на грудях й тримали паличку, ніби він полеглий герой.

// 6379
//Slowly, Harry sat up. His __magic__ was aching, a strange sensation but
//not an entirely unpleasant one, much like the burn and lethargy that followed
//hard physical exercise.
// hedrok @ lethargy burn
Гаррі повільно підвівся. У нього боліла __магія__ -- дивне відчуття, не
повністю неприємне, дуже схоже на відчуття летаргії та кріпатури після фізичних
вправ.

// 6380
//“The general’s awake!” cried a voice, and Harry blinked and focused in that
//direction.
"`Генерал прокинувся!`" -- почув він крик. Гаррі кліпнув очима та сфокусувався
в цьому напрямку.

// 6381
//Four of his soldiers held their wands on a shimmering prismatic hemisphere, and
//Harry realized that the battle wasn’t over. Right… he hadn’t been hit by a
//Sleep Hex, just exhausted himself, so when he woke up, he was still in the
//game.
Четверо з його солдатів тримали палички направленими на мерехтливу призматичну
півкулю, і Гаррі збагнув, що битву ще не завершено. Правильно... у нього не
влучили прокльоном сну, він лише вичерпав свої сили, тому коли він прокинувся,
він досі бере участь у грі.

// 6382
//Harry suspected he was going to get a lecture from someone-or-other about not
//exhausting his magic to the point of unconsciousness over a children’s game.
//But he hadn’t hurt Mr. Goyle when he’d lost his temper, and that was the
//important thing.
Гаррі був майже впевнений, що хтось обовʼязково прочитає йому лекцію про те, що
не можна вичерпувати свою магію аж до непритомності заради дитячої гри. Але
він не завдав шкоди містерові Ґойлу, коли втратив самовладання, а саме це було
важливо.

// 6383
//Then Harry’s mind clicked on another implication, and he looked down at the
//steel ring on his left hand’s pinky finger, and almost swore out loud when he
//saw that the tiny diamond was missing and there was a marshmallow lying on the
//ground near where he’d fallen.
Тоді розум Гаррі збагнув інший наслідок своїх дій, і Гаррі поглянув на сталевий
перстень на мізинці лівиці, та ледь не вилаявся вголос, коли побачив, що
крихітний діамант відсутній, а на землі поряд з місцем його падіння лежить
зефір.

// 6384
//He’d sustained that Transfiguration for seventeen days, and would now need to
//start over.
Він підтримував був цю трансфігурацію сімнадцять діб, а тепер йому доведеться
починати спочатку.

// 6385
//Could’ve been worse. He could’ve done this fourteen days later, __after
//__Professor McGonagall had approved him to Transfigure his father’s rock. That
//was one very good lesson to learn the easy way.
Але все могло бути гірше. Він міг зробити це чотирнадцятьма днями пізніше,
__після__ того, як професорка Макґонеґел схвалила б трансфігурацію каменя його
батька. Це дуже корисний урок, що його він засвоїв за невелику ціну.

// 6386
//__Note to self: Always remove ring from finger before completely
//exhausting magic.__
__Примітка собі: завжди знімати перстень із пальця перед тим, як повністю
вичерпувати магію.__

// 6387
//Harry pushed himself up, making rather hard going of it. Using up your magic
//didn’t exhaust your muscles, but dodging around trees certainly did.
Гаррі відштовхнувся від землі, що одразу призвело до болю в усьому тілі.
Використання магії не навантажувало мʼязи, а от ухиляння серед дерев -- ще й як.

// 6388
//He staggered over to the iridescent hemisphere that contained Draco Malfoy, who
//was holding his wand aloft to sustain the shield, and smiling coldly at Harry.
Він дошкандибав до мінливої півкулі, що містила Драко Мелфоя. Той вертикально
тримав паличку, щоб підтримувати щит, і холодно всміхався.

// 6389
//“Where’s the fifth soldier?” said Harry.
-- Де пʼятий солдат? -- запитав Гаррі.

// 6390
//“Um…” said a boy whose name Harry couldn’t remember at the moment. “I fired a
//Sleep Hex at the shield and it bounced off and hit Lavender, I mean the angle
//shouldn’t have been right but it did…”
-- Ем... -- сказав хлопець, котрого наразі Гаррі не міг пригадати. -- Я
вистрелив прокльоном сну в щит, і він зрикошетив та влучив у Лаванду. Тобто кут
був неправильним, але так сталося...

// 6391
//Draco was smirking inside the shield.
Драко самовдоволено посміхався за щитом.

// 6392
//“So let me guess,” Harry said, looking Draco directly in the eyes, “those neat
//little trios are the formation used by professional magical militaries? Made up
//of trained soldiers who can easily hit moving targets if their own hands are
//steady, and who can combine their defensive powers so long as they stay
//together? Unlike __your__ soldiers?”
-- Дай-но здогадаюся, -- сказав Гаррі, подивившись Драко прямо в очі, -- оті
охайненькі маленькі трійки солдатів -- це формації, які використовують професійні
чаклунські військові? Що складаються з тренованих солдатів, які легко можуть
влучати в рухливі цілі, якщо їм самим не треба рухатися, і які вміють
комбінувати свої захисні вміння, доки вони поряд? На відміну від __твоїх__
солдатів?

// 6393
//The smirk had vanished from Draco’s face, which was now hard and grim.
Посмішка зникла з лиця Драко, яке тепер було суворим та похмурим.

// 6394
//“You know,” Harry said lightly, knowing that none of the others would
//understand the real message passing between them, “it just goes to show that
//you should always question everything you see your role models doing, and ask
//why it’s being done, and whether it makes sense in context for you to do it
//too. Don’t forget to apply that advice to real life, by the way. And thanks for
//the slow-moving clustered targets.”
-- Знаєш, -- безтурботно сказав Гаррі, знаючи, що ніхто, крім Драко, не
зрозуміє справжнього змісту його слів, -- це чудово демонструє, що варто завжди
ставити під сумнів моделі поведінки, які ти наслідуєш, і цікавитися, чому
зроблено саме так, і чи має це сенс у тому контексті, в якому ти збираєшся це
повторювати. Завжди застосовуй цю пораду в справжньому житті, до речі. І дякую
за повільні, скупчені цілі.

// 6395
//Because Draco had already gotten that lecture, and, Harry suspected, discounted
//it out of suspicion that Harry was trying to shift his loyalties further away
//from pureblood tradition. Which of course Harry __was.__ But this example
//would make an excellent excuse, next Saturday, to claim that questioning
//authority was a merely practical technique for real life. And Harry would also
//mention the experiments he’d run, first with individuals and then with groups,
//to check that his ideas about the importance of speed had actually been
//__correct,__ by way of hammering home the point of Draco needing to keep
//an eye out at all times for chances to apply the methods in everyday practice.
Бо Драко вже слухав був про це лекцію, і, підозрював Гаррі, відкинув її через
підозру, що Гаррі намагався ще більше послабити вірність Драко традиціям чистої
крові. Що, звісно, __Гаррі й робив__. Але цей приклад був бездоганним приводом
стверджувати наступної суботи, що піддавати сумніву думку авторитету -- лише
корисний для справжнього життя прийом. Про проведені ним досліди -- спочатку з
окремими людьми, а потім з групами -- для перевірки власних припущень про
важливість швидкості, що виявилися __правильним__, Гаррі також згадає, щоб
втовкмачити Драко в голову, що завжди треба шукати можливості застосувати
методи до щоденного життя.

// 6396
//“You haven’t won __yet,__ General Potter!” snarled Draco. “Maybe we’ll run
//out of time, and Professor Quirrell will call it a draw.”
-- Ти __ще__ не виграв, генерале Поттер! -- огризнувся Драко. -- Мабуть у нас
вийде час, і професор Квірел оголосить нічию.

// 6397
//A fair and worrisome point. The war only ended when Professor Quirrell, in his
//personal judgment, decided one army had won by practical real-world standards.
//There was no __formal__ victory condition, Professor Quirrell had
//explained, because then Harry would figure out how to game the rules. Harry had
//to admit this was a fair cop.
Слушне й тривожне зауваження. Війна закінчувалася лише коли професор Квірел, на
свій розсуд, вирішував, що одне з військ перемогло за стандартами справжнього
життя. Не було жодних __формальних__ умов перемоги, професор Квірел пояснив
був, що інакше Гаррі вигадає, як зловживати правилами гри. Гаррі не міг не
визнати, що це мало сенс.

// 6398
//And Harry couldn’t blame Professor Quirrell for not calling an end, because it
//was plausible that the last soldier of Dragon Army could take out all five
//survivors of the Chaos Legion.
І Гаррі не міг жалітися на професора Квірела за те, що той не оголошував
завершення бою, адже не було виключено, що останньому солдатові Драконової
Армії вдасться перемогти усіх пʼятьох уцілілих з Легіону Хаосу.

// 6399
//“All right,” Harry said. “Does anyone know anything about General Malfoy’s
//shield spell?”
-- Гаразд, -- сказав Гаррі. -- Чи знає хтось щось про закляття щита генерала
Мелфоя?

// 6400
//It developed that Draco’s shield was a version of the standard __Protego__
//which had several disadvantages, the most important of which was that the
//shield couldn’t move with the caster.
Виявилося, що щит Драко був різновидом стандартного "`__Протеґо__`", що мав
декілька недоліків, найважливішим з яких було те, що щит не міг рухатися
разом з чаклуном.

// 6401
//The upside - or from Harry’s perspective, downside - was that it was easier to
//learn, easier to cast, and much easier to sustain for long times.
Плюсом -- чи, з поточної точки зору Гаррі, мінусом, -- було те, що цю версію
легше вивчити, легше створити й легше підтримувати довгий час.

// 6402
//They would need to hammer the shield with attack spells in order to bring it
//down.
Їм доведеться закидати щит шквалом нападальних заклять, щоб знищити його.

// 6403
//And Draco could apparently exert some control over the angle of reflection at
//which the spells would bounce off.
А Драко, видається, міг якоюсь мірою контролювати кут віддзеркалення, під яким
відбивалися закляття.

// 6404
//The thought occurred to Harry that they could use Wingardium Leviosa to pile up
//heavy rocks on the shield until Draco couldn’t sustain it against the pressure…
//but then the rocks might fall in afterward and hit Draco, and injuring the
//enemy general for real was not among today’s goals.
Гаррі спало на думку, що за допомогою "`Вінґардіум Левіоза`" можна закидати щит
згори важким камінням, доки Драко не зможе більше підтримувати щит проти тиску...
але тоді каміння впаде й завалить Драко, а вбивати ворожого генерала насправжки
не входило в його сьогоднішні плани.

// 6405
//“So,” said Harry. “Are there such things as specialized shield-piercing
//spells?”
-- Отже, -- сказав Гаррі. -- Чи існують спеціалізовані закляття для пробивання
щитів?

// 6406
//There were.
Існували.

// 6407
//Harry asked if any of his soldiers knew them.
Гаррі запитав, чи знав їх хтось з його солдатів.

// 6408
//No one did.
Ніхто не знав.

// 6409
//Draco was smirking again, inside his shield.
Драко знову глузливо посміхався за своїм щитом.

// 6410
//Harry asked if there was any sort of attack spell that __wouldn’t__
//bounce.
Гаррі запитав, чи існували якісь нападальні закляття, що __не відбиваються__.

// 6411
//Lightning bolts, it seemed, were usually absorbed by shields instead of
//bouncing off them.
Видавалося, що блискавки зазвичай поглиналися щитами, а не відбивалися від них.

// 6412
//…No one knew how to cast any sort of lightning-related spell.
...Ніхто не знав жодного закляття, що викликало бодай щось схоже на блискавку.

// 6413
//Draco sniggered.
Драко захихикав.

// 6414
//Harry sighed.
Гаррі зітхнув.

// 6415
//He quite deliberately laid his wand on the ground.
Він дуже урочисто поклав паличку на землю.

// 6416
//And Harry announced, with some weariness in his voice, that he would just go
//ahead and take down the shield himself, using some method that would remain
//mysterious; and everyone else was to fire on Draco as soon as his shield went
//down.
І тоді Гаррі проголосив, дещо втомлено, що він просто візьме й прибере щит
самостійно, за допомогою методу, який залишиться таємницею. А всі решта мають
стріляти в Драко, щойно щит зникне.

// 6417
//The Chaos Legionnaires looked nervous.
Легіонери Хаосу здавалися стривоженими.

// 6418
//Draco looked calm, which was to say, controlled.
Драко був спокійним, тобто добре себе контролював.

// 6419
//A thin, folded blanket came out of Harry’s pouch.
З капшучка Гаррі зʼявився тонкий складений коцик.

// 6420
//Harry sat down next to the shimmering shield, and pulled the blanket over his
//head so no one could see what he did - except Draco, of course.
Гаррі сів поряд з мерехтливим щитом, накрив себе коциком, щоб ніхто не міг
бачити, що він робить, -- крім Драко, звісно.

// 6421
//From Harry’s pouch came a car battery and a set of jumper cables.
Гаррі дістав з капшучка автомобільний акумулятор та сполучні дроти.

// 6422
//…it wasn’t like he’d been about to leave the Muggle world to start a new era of
//magical research, and not take along any way of generating electricity.
...він же не міг покинути маґлівський світ і розпочати нову еру магічних
досліджень, не прихопивши з собою щось для генерації електроенергії.

// 6423
//Shortly after, the Chaos Legionnaires heard the sound of fingers snapping,
//followed by a crackling noise from beneath the blanket. The shield started
//glowing more brightly, and Harry’s voice said, “Don’t be distracted please,
//eyes on General Malfoy.”
Невдовзі легіонери Хаосу почули клацання пальців, після чого з-під коцику
чулося потріскування. Щит почав сяяти яскравіше.

-- Не відволікайтеся, будь ласка, не відводьте очей від генерала Мелфоя, --
сказав Гаррі.

// 6424
//The strain was showing on Draco’s face, along with the fury and annoyance and
//frustration.
Драко вже не міг приховати напруження, а також люті, роздратування та почуття
безвиході.

// 6425
//Harry smiled up at him, and mouthed, __Tell you later.__
Гаррі йому всміхнувся й лише губами сказав: "`__Розповім потім__`".

// 6426
//And that was when a spiral of green energy shot out of the forest and smashed
//into Draco’s shield, which shrieked like pieces of sharp glass being rubbed
//together, and Draco staggered.
А тоді спіраль зеленої енергії вистрелила з лісу та вдарила в щит, що видав
пронизливий вереск, ніби шматки гострого скла терли один об одного, і Драко
похитнувся.

// 6427
//In sudden, frantic panic, Harry took the jumper cables off the battery and fed
//them into the pouch, then he fed the battery itself into the pouch, and then he
//tore off the blanket and grabbed his wand and stood up.
Гаррі охопила паніка, він зняв дроти з акумулятора, згодував їх капшучку, потім
згодував сам акумулятор, скинув коцик, схопив паличку та підвівся.

// 6428
//All of his soldiers were still there and glancing around frantically.
Всі його солдати досі несамовито роззиралися навкруги.

// 6429
//“__Contego,__” Harry said, and his soldiers followed suit, but Harry
//didn’t even know which direction the shield ought to be pointing in. “Did
//anyone see where that came from?” Shaken heads. “And General Malfoy, would you
//mind telling me if __you__ got General Granger?”
-- __Контеґо__, -- сказав Гаррі, і його солдати зробили так само, але Гаррі
навіть не знав, у якому напрямку варто поставити щит. -- Чи бачив хтось, звідки
воно взялося? -- хитання головами. -- Генерале Мелфой, чи не проти ви сказати
мені, чи __ви__ знешкодили генерала Ґрейнджер?

// 6430
//“Why yes,” Draco said acidly, “I mind.”
-- Ще й як, -- уїдливо сказав Драко, -- проти.

// 6431
//__Oh, hell.__
__Хай йому чорт.__

// 6432
//Harry’s mind began calculating, Draco inside the shield, Draco worn out now to
//some degree, Harry worn out too, Hermione in the woods who-knew-where, Harry
//and four other Chaotics left…
Гаррі почав обмірковувати ситуацію. Драко за щитом, він втомився, Гаррі теж
втомився, Герміона хтозна-де в лісі, залишився Гаррі й чотири хаосити...

// 6433
//“You know, General Granger,” Harry said out loud, “you really should’ve waited
//to attack until after I’d fought General Malfoy. You might’ve been able to get
//__all__ the survivors.”
-- Знаєш, генерале Ґрейнджер, -- гучно сказав Гаррі, -- тобі справді варто було
зачекати з атакою, доки я б завершив бій з генералом Мелфоєм. Тоді ти цілком
імовірно перемогла б __усіх__ вцілілих.

// 6434
//From somewhere came a girl’s high-pitched laughter.
Звідкілясь почувся високий дівчачий сміх.

// 6435
//Harry froze.
Гаррі застигнув на місці.

// 6436
//__That wasn’t Hermione.__
__Це була не Герміона.__

// 6437
//And that was when the dreadful, eerie, cheerful chant began to rise, coming
//from all around them.
А тоді почувся страхітливий, моторошний, бадьорий спів, що ставав дедалі
гучнішим, і лунав з усіх боків навколо.

// 6438
//“__Don’t be frightened, don’t be sad,__
"`__Не треба лякатися, не треба сумувати,__ +
// 6439
//__We’ll only hurt you if you’re bad…__”
__Тих, у кому зла немає, не будемо чіпати...__`"

// 6440
//“__Granger cheated!__” burst out Draco inside the shield. “She woke up her
//soldiers! Why doesn’t Professor Quirrell -”
-- __Ґрейнджер шахрує!__ -- вибухнув Драко за щитом. -- Вона розбудила своїх
солдатів! Чому професор Квірел...

// 6441
//“Let me guess,” Harry said, the sickness already churning in his stomach. He
//really hated losing. “It was a very easy battle, right? They dropped like
//flies?”
-- Дозволь здогадатися, -- сказав Гаррі. Йому вже стало зле. Він справді
ненавидів програвати. -- Це була справді легка битва, так? Вони падали мов
мухи?

// 6442
//“Yes,” Draco said. “We got them all on the first shot -”
-- Так, -- сказав Драко. -- Ми перемогли їх усіх з першого пострілу...

// 6443
//The look of horrified realization spread from Draco to the Chaos Legionnaires.
Жахливе усвідомлення перейшло від Драко до легіонерів Хаосу.

// 6444
//“No,” Harry said, “we didn’t.”
-- Ні, -- сказав Гаррі, -- не перемогли.

// 6445
//Camouflaged forms were appearing from among the trees.
Камуфльовані форми почали зʼявлятися з лісу.

// 6446
//“Allies?” Harry said.
-- Союзники? -- запитав Гаррі.

// 6447
//“Allies,” Draco said.
-- Союзники, -- відповів Драко.

// 6448
//“Good,” said General Granger’s voice, and a spiral of green energy blazed out
//of the woods and shattered Draco’s shield to splinters.
-- Добре, -- пролунав голос генерала Ґрейнджер, і спіраль зеленої енергії
спалахнула з лісу та розбила щит Драко на друзки.

***

// 6449
//General Granger surveyed the battlefield with a definite feeling of
//satisfaction. She was down to nine Sunshine Soldiers, but that was probably
//enough to handle the last survivor of the enemy forces, especially when Parvati
//and Anthony and Ernie were already holding their wands on General Potter, whom
//she’d ordered taken alive (well, conscious).
Генерал Ґрейнджер оглядала поле битви з безсумнівним задоволенням. У неї
залишилося лише девʼятеро солдатів Сонечка, але цього мало вистачити, щоб
впоратися з останнім вцілілим ворожих сил, особливо враховуючи, що Парваті,
Ентоні й Ерні вже тримали палички направленими на генерала Поттера, якого вона
наказала взяти живим (ну, притомним).

// 6450
//It was Bad, she knew, but she’d really really __really__ wanted to gloat.
Вона знала, це було погано, але їй справді-справді-__справді__ хотілося
позловтішатися.

// 6451
//“There’s a trick, isn’t there?” said Harry, the strain showing in his voice.
//“There __has__ to be some trick. You can’t just turn into a perfect
//general. Not on top of everything else. You’re not that Slytherin! You don’t
//write creepy poetry! __No one’s that good at everything!__”
-- Це якийсь фокус, так? -- запитав Гаррі напруженим голосом. -- Це __має__
бути якийсь фокус. Ти не можеш перетворитися на бездоганного генерала. Не на
додачу до всього іншого. У тобі недостатньо слизеринського! Ти не пишеш
моторошних віршів! __Ніхто не може бути настільки успішним у всьому!__

// 6452
//General Granger glanced around at her Sunshine Soldiers, and then looked back
//at Harry. Everyone was probably watching this on the screens outside.
Генерал Ґрейнджер поглянула на своїх солдатів Сонечка, а потім знову на Гаррі.
Напевно, всі дивилися з екранів зовні.

// 6453
//And General Granger said, “I can do anything if I study hard enough.”
І генерал Ґрейнджер сказала:

-- Я можу досягти будь-чого, якщо вчитимусь достатньо старанно.

// 6454
//“Oh now that’s just bu-”
-- Ой, це таке лай...

// 6455
//“__Somnium.__”
-- __Сомніум.__

// 6456
//Harry slumped to the ground in mid-sentence.
Гаррі важко впав на землю, не завершивши речення.

// 6457
//“SUNSHINE WINS,” intoned the huge voice of Professor Quirrell, seeming to come
//from everywhere and nowhere.
-- СОНЕЧКО ПЕРЕМОГЛО, -- прорік надзвичайно гучний голос професора Квірела, що
ніби звучав повсюди й ніде.

// 6458
//“Niceness has triumphed!” cried General Granger.
-- Доброта й чемність взяли гору! -- закричала генерал Ґрейнджер.

// 6459
//“__Hooray!__” shouted the Sunshine Soldiers. Even the Gryffindor boys said
//it, and they said it with pride.
-- __Ура!__ -- вигукнули солдати Сонечка. Навіть хлопці-ґрифіндорці сказали це,
і сказали це з гордістю.

// 6460
//“And what’s the moral of today’s battle?” said General Granger.
-- І яка мораль сьогоднішньої битви? -- запитала генерал Ґрейнджер.

// 6461
//“__We can do anything if we study hard enough!__”
-- __Ми можемо досягти будь-чого, якщо вчитимемося достатньо старанно!__

// 6462
//And the survivors of the Sunshine Regiment marched off toward the victory
//field, singing their marching song as they went:
І вцілілі Полку "`Сонечко`" пішли маршем до поля переможців, наспівуючи пісню:

// 6463
//__Don’t be frightened, don’t be sad,__
__Не треба лякатися, не треба сумувати,__ +
// 6464
//__We’ll only hurt you if you’re bad,__
__Тих, у кому зла немає, не будемо чіпати,__ +
// 6465
//__And send you to a home that’s true,__
__Щоправда, додому підете рядами,__ +
// 6466
//__With new friends to watch over you,__
__Де нові друзі, наглядатимуть за вами,__ +
// 6467
//__Be sure to tell them you were sent__
__І що вас послали, не забудьте сказати,__ +
// 6468
//__By Granger’s Sunshine Regiment!__
__Герміони Ґрейнджер, Полку "`Сонечко`" солдати!__
