// 7441
//== Pretending to be Wise, Pt 1
== Розділ 39. Вдавання мудрості, ч.1

// 7442
//Whistle. Tick. Bzzzt. Ding. Glorp. Pop. Splat. Chime. Toot. Puff. Tinkle.
//Bubble. Beep. Thud. Crackle. Whoosh. Hiss. Pffft. Whirr.
Свист. Цок. Бззз. Дзінь. Вурп. Лясь. Хлюп. Дзелень. У-у. Паф. Дзень.
Бульк. Біп. Гуп. Хрясь. Шух. Шшш. Пфф. Жух.

// 7443
//Professor Flitwick had silently passed Harry a folded parchment during Charms
//class that Monday, and the note had said that Harry was to visit the Headmaster
//at his convenience and in such fashion that no one else would notice,
//especially not Draco Malfoy or Professor Quirrell. His one-time password for
//the gargoyle would be “squeamish ossifrage”. This had been accompanied by a
//remarkably artistic ink drawing of Professor Flitwick staring at him sternly,
//the eyes of which occasionally blinked; and at the bottom of the note,
//underlined three times, was the phrase DON’T GET INTO TROUBLE.
// hedrok: @squeamish ossifrage
// https://en.wikipedia.org/wiki/The_Magic_Words_are_Squeamish_Ossifrage
На уроці чарів того понеділка професор Флитвік мовчки передав був Гаррі
складений пергамент. У записці було сказано відвідати директора в зручний час так, щоб
ніхто не помітив, зокрема Драко Мелфой та професор Квірел. Також йому надали
одноразовий пароль від гаргуйля: "`вередливий ягнятник`". А ще поряд було на
диво артистичне зображення професора Флитвіка, що суворо на нього дивився й
подеколи кліпав очима. Внизу записки був тричі підкреслений напис: "`ТРИМАЙСЯ
ПОДАЛІ ВІД НЕПРИЄМНОСТЕЙ`".

// 7444
//And so Harry had finished up Transfiguration class, and studied with Hermione,
//and eaten dinner, and spoken with his lieutenants, and finally, when the clock
//struck nine, turned himself invisible and dropped back to 6PM and wearily
//trudged off toward the gargoyle, the turning spiral stairs, the wooden door,
//the room full of little fiddly things, and the silver-bearded figure of the
//Headmaster.
// hedrok: fiddly things 017:2906
Тому Гаррі дочекався був кінця уроку трансфігурації, повчився з Герміоною,
повечеряв, порозмовляв зі своїми лейтенантами і нарешті, коли годинник показав
девʼяту, став невидимим, повернувся до шостої вечора та стомлено поплентався до
гаргуйля, рухомих спіральних сходів, деревʼяних дверей, сповненої маленьких
дивних штуковин кімнати та срібнобородого директора.

// 7445
//This time, Dumbledore looked quite serious, the customary smile absent; and he
//was dressed in pajamas of a darker and more sober purple than usual.
Цього разу Дамблдор був доволі серйозним, не було звичної усмішки. Та й
піжами на ньому були значно темнішого й більш тверезого пурпурового кольору,
ніж зазвичай.

// 7446
//“Thank you for coming, Harry,” said the Headmaster. The old wizard rose from
//his throne, began to slowly pace through the room and the strange devices.
//“First, do you have with you the notes of yesterday’s encounter with Lucius
//Malfoy?”
-- Дякую, що прийшов, Гаррі, -- сказав директор. Старий чарівник підвівся зі
свого трону й почав повільно крокувати кімнатою поміж дивних пристроїв. --
Насамперед, чи взяв ти з собою записи твоєї вчорашньої розмови з Луціусом
Мелфоєм?

// 7447
//“Notes?” blurted Harry.
-- Записи? -- вирвалося в Гаррі.

// 7448
//“__Surely__ you wrote it down…” said the old wizard, and his voice trailed
//off.
-- __Ну звісно__ ти все записав... -- фраза старого чарівника повисла в
повітрі.

// 7449
//Harry felt rather embarrassed. Yes, if you’d just fumbled through a mysterious
//conversation full of significant hints you didn’t understand, the
//__bloody obvious__ thing to do would be to write it all down immediately
//afterward, before the memory faded, so you could try to figure it out later.
Гаррі було ніяково. Так, якщо ти щойно ледве виплутався з таємничої розмови з
купою багатозначних натяків, що ти їх не розумієш, __збіса очевидно__, що треба
одразу все записати, доки спогади свіжі, щоб спробувати пізніше все збагнути.

// 7450
//“All right,” said the Headmaster, “from memory then.”
-- Гаразд, -- сказав директор, -- розповідай, що памʼятаєш.

// 7451
//Harry sheepishly recited as best he could, and got almost halfway through
//before he realized that it wasn’t smart to just go around telling the
//possibly-crazy Headmaster everything, at least not without __thinking__
//about it first, but then Lucius was __definitely__ a bad guy and
//Dumbledore’s opponent so it probably __was__ a good idea to tell him, and
//Harry had already started talking and it was too late to try and calculate
//things out now…
Гаррі присоромлено почав переказувати якомога точніше, і лише приблизно на
половині він раптом усвідомив, що нерозумно просто брати й розповідати можливо
божевільному директорові все, принаймні не __обміркувавши__ це спочатку, проте
Луціус __безперечно__ був поганим хлопцем та противником Дамблдора, тому напевно
__варто__ було йому розповісти, крім того, Гаррі вже почав говорити й тепер було
запізно намагатися все прорахувати...

// 7452
//Harry finished his recollections honestly.
Гаррі чесно завершив переказ.

// 7453
//Dumbledore’s face had grown more remote as Harry went on, and at the end there
//was a look of ancientness about him, a sternness in the air.
Протягом розповіді обличчя Дамблдора ставало дедалі задумливішим, а наприкінці
його лице здавалося древнім, відчувалася якась суворість.

// 7454
//“Well,” said Dumbledore. “I suggest you take the best of care that the heir of
//Malfoy does __not__ come to harm, then. And I will do the same.” The
//Headmaster was frowning, his fingers drumming soundlessly through the inky
//black surface of a plate inscribed with the word __Leliel.__ “And I think
//it would be most extremely wise for you to avoid __all__ interaction with
//Lord Malfoy henceforth.”
// hedrok: @ Leliel можливий натяк на Євангеліон (https://wiki.evageeks.org/Leliel)
// Варто завантажити й послухати https://toloka.to/t16349
-- Ну, -- сказав Дамблдор. -- Тоді пропоную тобі докласти всіх зусиль, щоб
спадкоємцеві Мелфоїв __не було__ завдано шкоди. Я вчиню так само, -- директор
хмурився, його пальці безгучно барабанили по чорнильно-чорній поверхні тареля з
написом "`Леліел`". -- Також, гадаю, буде надзвичайно мудро з твого боку відтепер
уникати __будь-яких__ контактів з лордом Мелфоєм.

// 7455
//“__Did__ you intercept owls from him to me?” said Harry.
-- Ви __справді__ перехоплювали його сов? -- запитав Гаррі.

// 7456
//The Headmaster gazed at Harry for a long moment, then reluctantly nodded.
Директор довго розглядав Гаррі, а потім неохоче кивнув.

// 7457
//For some reason Harry wasn’t feeling as outraged as he should have been. Maybe
//it was just that Harry was finding it very easy to sympathize with the
//Headmaster’s point of view right now. Even Harry could understand why
//Dumbledore wouldn’t want him to interact with Lucius Malfoy; it didn’t seem
//like an __evil__ deed.
Чомусь Гаррі не відчував доречної люті. Напевно, Гаррі просто було дуже легко
зараз подивитися на ситуацію з точки зору директора. Навіть Гаррі міг
зрозуміти, чому Дамблдор хотів завадити його спілкуванню з Луціусом Мелфоєм. Це
не здавалося __злим__ вчинком.

// 7458
//Not like the Headmaster blackmailing Zabini… for which they had only Zabini’s
//word, and Zabini was wildly untrustworthy, in fact it was hard to see why
//Zabini __wouldn’t__ just tell the story that got him the most sympathy
//from Professor Quirrell…
На відміну від директорового шантажу Забіні... про що в Гаррі були лише слова Забіні,
а Забіні був вкрай сумнівним джерелом. Насправді, важко уявити, чому б
Забіні __не вигадати__ історію, що викликала б якнайбільше співчуття з боку
професора Квірела...

// 7459
//“How about if, instead of protesting, I say that I understand your point of
//view,” said Harry, “and you go on intercepting my owls, but you tell me who
//from?”
-- Моя пропозиція: я не протестуватиму, скажу, що розумію вашу позицію, --
сказав Гаррі, -- а ви продовжите перехоплювати мої сови, але повідомлятимете
мені, від кого вони?

// 7460
//“I have intercepted a great many owls to you, I am afraid,” Dumbledore said
//soberly. “You are a celebrity, Harry, and you would receive dozens of letters a
//day, some from far outside this country, did I not turn them back.”
-- Боюся, я перехопив чимало твоїх сов, -- спокійно сказав Дамблдор. -- Ти
знаменитість, Гаррі, і отримував би десятки листів на день, деякі -- з далеких
країн, якби я не повертав їх.

// 7461
//“__That__,” Harry said, now starting to feel a bit of indignation, “seems
//like going a little too far -”
-- __Це__, -- сказав Гаррі, тепер відчуваючи легке обурення, -- вже трохи
занадто...

// 7462
//“Many of those letters,” the old wizard said quietly, “will be asking you for
//things you cannot give. I have not read them, of course, only turned them back
//to their senders undelivered. But I know, for I receive them too. And you are
//too young, Harry, to have your heart broken six times before breakfast each
//morning.”
// hedrok: Напевно "six impossible things before breakfast" з "Аліси в
// задзеркаллі". Переклав, щоб було схоже на цю фразу в перекладі Вікторії
// Наріжної
-- У багатьох листах, -- тихо сказав старий чарівник, -- тебе проситимуть
про те, що ти не здатен здійснити. Я, звісно, не читав їх, а лише повертав
назад. Але я знаю, бо теж отримую такі. А ти замолодий, Гаррі, щоб тобі
встигали ще до сніданку розбивати серце шість разів, щоранку.

// 7463
//Harry looked down at his shoes. He __should__ insist on reading the
//letters and judging for himself, but… there was a small voice of common sense
//inside him, and it was screaming very loudly right now.
Гаррі втупився у своє взуття. Він __мав би__ наполягати, щоб йому дозволили
читати листи та вирішувати самому, проте... зазвичай тихий, голос здорового
ґлузду зараз дуже гучно кричав на нього.

// 7464
//“Thank you,” Harry muttered.
-- Дякую, -- пробурмотів Гаррі.

// 7465
//“The other reason I asked you here,” said the old wizard, “was that I wished to
//consult your unique genius.”
-- Також я покликав тебе сюди, -- сказав старий чарівник, -- бо хочу проконсультуватися
з твоїм унікальним генієм.

// 7466
//“Transfiguration?” said Harry, surprised and flattered.
-- Трансфігурація? -- здивовано й втішено запитав Гаррі.

// 7467
//“No, not __that__ unique genius,” said Dumbledore. “Tell me, Harry, what
//evil could you accomplish if a Dementor were allowed onto the grounds of
//Hogwarts?”
-- Ні, __іншим__ унікальним генієм, -- сказав Дамблдор. -- Скажи мені, Гаррі,
яке зло ти міг би вчинити, якби дементору дозволили потрапити на землі
Гоґвортсу?

***

// 7468
//It developed that Professor Quirrell had asked, or rather demanded, that his
//students test their skills against an actual Dementor after they learned the
//words and gestures to the Patronus Charm.
Виявилося, що професор Квірел просив був, чи швидше вимагав, щоб учням дали
змогу випробувати свої навички проти справжнього дементора, коли вони вивчать
слова й жести чарів патронуса.

// 7469
//“Professor Quirrell is unable to cast the Patronus Charm himself,” said
//Dumbledore, as he paced slowly through the devices. “Which is never a good
//sign. But then, he __volunteered__ that fact to me in the course of
//demanding that outside instructors be brought in to teach the Patronus Charm to
//every student who wished to learn; he offered to pay the expense himself, if I
//would not. This impressed me greatly. But now he insists on bringing in a
//Dementor -”
-- Професор Квірел не здатен викликати патронуса, -- сказав Дамблдор,
повільно крокуючи між пристроями. -- Що завжди поганий знак. Проте він __сам__
розповів про це й вимагав задіяти зовнішніх інструкторів, що навчатимуть
кожного учня, що забажає, чарам патронуса. Він запропонував заплатити їм з
власної кишені, якщо я відмовлюся. Це справило на мене глибоке враження. Але
тепер він наполягає, щоб ми привели дементора...

// 7470
//“Headmaster,” Harry said quietly, “Professor Quirrell believes __very__
//strongly in live-fire tests under realistic combat conditions. Wanting to bring
//in an actual Dementor is __completely__ in character for him.”
-- Директоре, -- тихо сказав Гаррі, -- професор Квірел __свято__ вірить у
навчання в реалістичних бойових умовах. Бажання привести справжнього дементора
__цілковито__ відповідає його персонажеві.

// 7471
//Now the Headmaster was giving Harry a strange look.
Тепер директор дивно дивився на Гаррі.

// 7472
//“__In character?__” said the old wizard.
-- __Його персонажеві?__ -- запитав старий чарівник.

// 7473
//“I mean,” said Harry, “it’s entirely consistent with the way Professor Quirrell
//usually acts…” Harry trailed off. Why __had__ he put it that way?
-- Тобто, -- сказав Гаррі, -- це повністю відповідає тому, як професор Квірел
зазвичай поводиться... -- тихо завершив Гаррі. __Чому__ він так це сформулював?

// 7474
//The Headmaster nodded. “So you have the same sense I do; that it is an excuse.
//A very __reasonable__ excuse, to be sure; more so than you may realize.
//Often, wizards seemingly unable to cast a Patronus Charm will succeed in the
//presence of an actual Dementor, going from not a single flicker of light to a
//full corporeal Patronus. Why this should be, no one knows; but it is so.”
Директор кивнув.

// канон: corporeal -> матеріальний
-- Тобто в тебе такі ж здогади, як і в мене. Що це лише привід. Без сумнівів, дуже
__обґрунтований__ привід. Ти навіть не знаєш, наскільки. Часто чарівникам, що ніби
нездатні застосовувати чари патронуса, раптом все вдається у присутності
справжнього дементора: ніколи не могли отримати проблиск світла, аж раптом
у них виходить матеріальний патронус. Чому так -- ніхто не знає, але це так.

// 7475
//Harry frowned. “Then I really don’t see why you’re suspicious -”
Гаррі насупився.

-- Тоді я справді не розумію, чому ви насторожені...

// 7476
//The Headmaster spread his hands as though in helplessness. “Harry, the
//__Defense Professor__ has asked me to pass the darkest of all creatures
//through the gates of Hogwarts. I __must__ be suspicious.” The Headmaster
//sighed. “And yet the Dementor will be guarded, warded, in a mighty cage, I will
//be there myself to watch it at all times - I cannot think of what ill
//__could__ be done. But perhaps I am merely unable to see it. And so I am
//asking you.”
Директор безпорадно розвів руки.

-- Гаррі, __професор із захисту__ попросив мене провести найтемнішу з усіх
істот через браму Гоґвортсу. Я __маю__ бути настороженим. -- Директор зітхнув.
-- Але дементора пильнуватимуть, огорнуть захисними чарами, посадять у міцну
клітку, і я сам спостерігатиму за ним весь час -- я не можу вигадати, що
__може__ піти не так. Але, можливо, я лише не можу уявити собі цього. Тому я
питаю тебе.

// 7477
//Harry stared at the Headmaster with his mouth open. He was so shocked he
//couldn’t even feel flattered.
Гаррі витріщився на директора, роззявивши рота. Він був настільки шокований, що
навіть не відчував задоволення від лестощів.

// 7478
//“__Me?__” said Harry.
-- __Мене?__ -- запитав Гаррі.

// 7479
//“Yes,” said Dumbledore, smiling slightly. “I try my best to anticipate my foes,
//to encompass their wicked minds and predict their evil thoughts. But __I__
//would never have imagined sharpening a Hufflepuff’s bones into weapons.”
-- Так, -- відповів Дамблдор з легкою усмішкою. -- Я докладаю всіх зусиль, щоб
передбачити дії ворогів, щоб зрозуміти їхній лихий розум та передбачити їхні
злі думки. Але __я__ ніколи б не вигадав загострити кістки гафелпафців, щоб
отримати зброю.

// 7480
//Was Harry __ever__ going to live that down?
Невже Гаррі __ніколи__ цього не забудуть?

// 7481
//“Headmaster,” Harry said wearily, “I know it doesn’t sound good, but in all
//seriousness: I’m not evil, I’m just very creative -”
// hedrok: 16:2501
-- Директоре, -- стомлено сказав Гаррі, -- я знаю, що це звучить не дуже, проте
з усією серйозністю: я не злий, я просто дуже винахідливий...

// 7482
//“I did not say that you were evil,” Dumbledore said seriously. “There are those
//who say that to comprehend evil is to become evil; but they are merely
//pretending to be wise. Rather it is evil which does not know love, and dares
//not imagine love, and cannot ever understand love without ceasing to be evil.
//And I suspect that you can imagine your way into the minds of Dark Wizards
//better than I ever could, while still knowing love yourself. So, Harry.” The
//Headmaster’s eyes were intent. “If you stood in Professor Quirrell’s shoes,
//what misdeeds could you accomplish after you tricked me into allowing a
//Dementor onto the grounds of Hogwarts?”
-- Я не стверджував, що ти злий, -- серйозно сказав Дамблдор. -- Дехто вважає,
що зрозуміти зло -- те саме, що стати злом. Але вони лише вдають мудрість.
Навпаки: зло -- це те, що не знає любові і не наважується уявити любов; зло не
може зрозуміти любов, не припинивши бути злом. Я підозрюю, що мені ніколи не
досягти твого рівня розуміння розуму темних чаклунів, хоча ти сам розумієш
любов. Отже, Гаррі, -- Дамблдор пильно дивився на нього. -- Якби ти був на
місці професора Квірела, яке злодійство ти міг би скоїти, якби обманом змусив
мене дозволити допустити дементора на землі Гоґвортсу?

// 7483
//“Hold __on__,” said Harry, and in something of a daze trudged over to the
//chair in front of the Headmaster’s desk, and sat down. It was a large and
//comfortable chair this time, not a wooden stool, and Harry could feel himself
//enveloped as he sank into it.
-- __Зачекайте__, -- сказав Гаррі і ніби в тумані поплентався до крісла навпроти
стола директора. Цього разу це був не деревʼяний ослінчик, а велике зручне крісло,
і Гаррі ніби загорнули в ковдру, коли він сів.

// 7484
//Dumbledore was asking him to outwit Professor Quirrell.
Дамблдор просив його обхитрувати професора Квірела.

// 7485
//Point one: Harry was rather fonder of Professor Quirrell than of Dumbledore.
Пункт перший: професор Квірел подобався Гаррі значно більше, ніж Дамблдор.

// 7486
//Point two: The hypothesis was that the Defense Professor was planning to do
//something evil, and in that subjunctive case, Harry __ought__ to be
//helping the Headmaster prevent it.
Пункт другий: гіпотеза полягала в тому, що професор із захисту запланував щось
зле, а в цьому окремому випадку Гаррі __мусив__ допомогти директорові запобігти
цьому.

// 7487
//Point three…
Пункт третій...

// 7488
//“Headmaster,” Harry said, “if Professor Quirrell __is__ up to something,
//I’m not sure I __can__ outwit him. He’s got a lot more experience than I
//do.”
-- Директоре, -- сказав Гаррі, -- якщо професор Квірел __замислив__ щось,
я не впевнений, що __зможу__ обхитрувати його. У нього значно більше досвіду,
ніж у мене.

// 7489
//The old wizard shook his head, somehow managing to appear very solemn despite
//his smile. “You underestimate yourself.”
Старий чарівник похитав головою; якимось чином він робив це дуже урочисто,
незважаючи на усмішку.

-- Ти недооцінюєш себе.

// 7490
//That was the first time anyone had ever said __that__ to Harry.
Ще ніхто ніколи не казав Гаррі __такого__.

// 7491
//“I remember,” the old wizard continued, “a young man in this very office, cold
//and controlled as he faced down the Head of House Slytherin, blackmailing his
//own Headmaster to protect his classmates. And I believe that young man is more
//cunning than Professor Quirrell, more cunning than Lucius Malfoy, that he will
//grow to be the equal of Voldemort himself. It is he who I wish to consult.”
-- Я памʼятаю, -- продовжив старий чарівник, -- одного юнака, що у цьому самому
кабінеті, спокійно та стримано, протистояв вихователю гуртожитку Слизерин
і шантажував свого директора, лише заради захисту однокласників.
І я вірю, що той юнак кмітливіший за професора Квірела, кмітливіший за Луціуса
Мелфоя, і колись він доросте до того, щоб стати рівнею самому Волдемортові. Ось
із ким я хотів би порадитися.

// 7492
//Harry suppressed the chill that went through him at the name, frowned
//thoughtfully at the Headmaster.
Гаррі придушив мурахи, що пробігли його спиною при згадці цього імені, та
задумливо й похмуро поглянув на директора.

// 7493
//__How much does he know…?__
__Як багато він знає?..__

// 7494
//The Headmaster had seen Harry in the grip of his mysterious dark side, as deep
//as Harry had ever sunk into it. Harry still remembered what it had been like to
//watch, invisibly Time-Turned, as his past self faced down the older Slytherins;
//the boy with the scar on his forehead who didn’t act like the others.
//__Of course__ the Headmaster would have noticed something odd about the
//boy in his office…
Директор бачив був Гаррі, коли ним володіла його темна сторона, коли він
занурився у свою темну сторону глибше, ніж будь-коли. Гаррі досі памʼятав, як
він, невидимий та після повернення в часі, спостерігав за минулим собою, що
протистояв старшим слизеринцям; спостерігав за хлопцем зі шрамом на чолі, що
поводився не так, як інші. __Ну звісно__ директор помітив був, що щось дивне
коїлося з хлопцем у його кабінеті.

// 7495
//And Dumbledore had concluded that his pet hero had cunning to match his
//destined foe, the Dark Lord.
І Дамблдор зробив був висновок, що його хатній герой достатньо кмітливий, щоб
рівнятися з призначеним йому долею ворогом -- Темним Лордом.

// 7496
//Which wasn’t asking for very much, considering that the Dark Lord had put a
//clearly visible Dark Mark on all of his servants’ left arms, and that he’d
//slaughtered the entire monastery that taught the martial art he’d wanted to
//learn.
Що було доволі низькою планкою, враховуючи, що Темний Лорд наділив був кожного
зі своїх слуг легко видимою темною міткою, а також перерізав весь монастир, що
навчав був бойовим мистецтвам, які він хотів опанувати.

// 7497
//Enough cunning to match __Professor Quirrell__ would be a __whole__
//different order of problem.
Достатньо кмітливим, щоб бути рівнею __професорові Квірелу__, -- це задача
__геть__ іншого порядку.

// 7498
//But it was also clear that the Headmaster wouldn’t be satisfied until Harry
//went all cold and darkish, and came up with some sort of answer that sounded
//impressively cunning… which had better not __actually__ get in the way of
//Professor Quirrell’s teaching Defense…
Але також очевидно, що директор не вгамується, доки Гаррі не стане весь
холодний та похмурий, та не видасть якоїсь відповіді, що звучатиме достатньо
хитро... яка краще б __не завадила__ професорові Квірелу викладати захист...

// 7499
//And of course Harry __would__ go over to his dark side and think it
//through from that direction, just to be honest, and just in case.
І звісно Гаррі __зануриться__ у темну сторону, щоб обміркувати все з цього
боку, щоб бути чесним, та й про всяк випадок.

// 7500
//“Tell me,” Harry said, “everything about how the Dementor is to be brought in,
//and how it is to be guarded.”
-- Розкажіть усе -- як дементора приведуть, як його охоронятимуть.

// 7501
//Dumbledore’s eyebrows rose for a moment, and then the old wizard began to
//speak.
На мить брови Дамблдора здійнялися, а потім він почав розповідати.

// 7502
//The Dementor would be transported to the grounds of Hogwarts by an Auror trio,
//all three personally known to the Headmaster, and all three able to cast a
//corporeal Patronus Charm. They would be met at the edge of the grounds by
//Dumbledore, who would pass the Dementor through the Hogwarts wards -
Дементора транспортуватиме до Гоґвортсу трійка аврорів, кожного з них
Дамблдор особисто знає, і всі троє здатні застосовувати матеріальні чари
патронуса. Біля межі земель Гоґвортсу їх зустріне Дамблдор та пропустить
через захисні чари...

// 7503
//Harry asked if the pass was permanent or temporary - whether someone could just
//bring in the same Dementor again the next day.
Гаррі запитав, чи вхід тимчасовий, чи постійний, -- тобто чи зможе хтось просто
привести того ж дементора наступного дня.

// 7504
//The pass was temporary (replied the Headmaster with an approving nod), and the
//explanation went on: The Dementor would be in a cage of solid titanium bars,
//not Transfigured but true-forged; in time a Dementor’s presence would corrode
//that metal to dust, but not in a single day.
Вхід тимчасовий (відповів Дамблдор зі схвальним кивком). І розʼяснення
продовжилися: дементор буде в клітці з титану -- не трансфігурованого, а
викуваного насправжки. З часом дементор перетворить цей метал на порох, та не
за один день.

// 7505
//Students awaiting their turn would stay well back of the Dementor, behind two
//corporeal Patronuses maintained by two of the three Aurors at any given time.
//Dumbledore would wait by the Dementor’s cage with his Patronus. A single
//student would approach the Dementor; and Dumbledore would dispel his Patronus;
//and the student would attempt to cast their own Patronus Charm; and if they
//failed, Dumbledore would restore his Patronus before the student could suffer
//any permanent damage. Past dueling champion Professor Flitwick would also be
//present while there were students near, just to add safety margin.
Учні чекатимуть своєї черги подалі від дементора, за двома матеріальними
патронусами, що їх повсякчасно підтримуватимуть двоє з трьох аврорів. Дамблдор
чекатиме біля клітки з дементором зі своїм патронусом. Кожен учень окремо
наближатиметься до дементора, Дамблдор розвіюватиме свій патронус, учень
робитиме спробу виконати власні чари патронуса, і якщо учневі це не вдасться,
то Дамблдор поверне свій патронус доки учень не зазнав незворотної шкоди.
Колишній чемпіон дуелей професор Флитвік також буде присутнім, доки учні будуть
поряд, -- просто для додаткової безпеки.

// 7506
//“Why just __you__ waiting by the Dementor?” said Harry. “I mean, shouldn’t
//it be you plus an Auror -”
-- Чому лише __ви__ будете поряд із дементором? -- запитав Гаррі. -- Тобто, чи
не варто поставити поряд ще й одного аврора...

// 7507
//The Headmaster shook his head. “They could not withstand the repeated exposure
//to the Dementor, each time I dispel my Patronus.”
Директор похитав головою.

-- Вони не витримають такого частого впливу дементора -- я багато разів
розвіюватиму свій патронус.

// 7508
//And if Dumbledore’s Patronus did fail for some reason, while one of the
//students was still near the Dementor, the third Auror would cast another
//corporeal Patronus and send it to shield the student…
Якщо з патронусом Дамблдора щось станеться, доки хтось з учнів поряд із дементором, третій
аврор створить матеріальний патронус та відправить його захистити учня...

// 7509
//Harry poked and prodded, but he couldn’t see a flaw in the security.
Гаррі так і сяк намагався щось вигадати, проте не бачив вад у безпеці.

// 7510
//So Harry took a deep breath, sank further into the chair, closed his eyes, and
//remembered:
Тому він глибоко вдихнув, занурився глибше в крісло, заплющив очі та пригадав:

// 7511
//__“And that will be… five points? No, let us make it an even ten points
//from Ravenclaw for backchat.”__
// hedrok: часткова копія 018:3053
__І це буде... пʼять очок? Ні, хай буде навіть десять очок з Рейвенклову за
нахабство.__

// 7512
//The cold came more slowly now, more reluctantly, Harry hadn’t been calling much
//on his dark side lately…
Тепер холод прибував повільніше, менш охоче -- Гаррі останнім часом не
звертався до своєї темної сторони...

// 7513
//Harry had to run through that entire session in Potions in his mind, before his
//blood chilled into something approaching deadly crystalline clarity.
Гаррі довелося пригадати все перше заняття з зіллів, доки його кров не охолола
до чогось на кшталт смертельно кришталевої ясності.

// 7514
//And then he thought of the Dementor.
І тоді він подумав про дементора.

// 7515
//And it was obvious.
І все було очевидним.

// 7516
//“The Dementor is a distraction,” Harry said. The coldness clear in his voice,
//since that was what Dumbledore wanted and expected. “A large, salient threat,
//but in the end straightforward, and easy to defend against. So while all your
//attention is focused on the Dementor, the real plot will be happening
//elsewhere.”
-- Дементор -- лише для відволікання уваги, -- сказав Гаррі. Він не приховував
холоду в голосі, адже саме цього Дамблдор очікував та бажав. -- Велика, помітна
загроза, але зрештою прямолінійна, від неї легко захиститися. Отже доки вся
ваша увага буде прикута до дементора, справжній задум розгортатиметься деінде.

// 7517
//Dumbledore stared at Harry for a moment, and then gave a slow nod. “Yes…” said
//the Headmaster. “And I do believe I know what it might be a distraction
//__from__, if Professor Quirrell means ill… thank you, Harry.”
Дамблдор трохи повитріщався на Гаррі, а тоді повільно кивнув.

-- Так, -- сказав директор. -- І мені здається, що я знаю, __від чого__
відволікатимуть мою увагу, якщо професор Квірел бажає зла... Дякую, Гаррі.

// 7518
//The Headmaster was still staring at Harry, a strange look in those ancient
//eyes.
Директор досі витріщався на Гаррі, щось дивне було в цих древніх очах.

// 7519
//“__What?__” said Harry with a tinge of annoyance, the cold still lingering
//in his blood.
-- __Що?__ -- дещо роздратовано запитав Гаррі, адже холод досі циркулював його
венами.

// 7520
//“I have another question for that young man,” said the Headmaster. “It is
//something I have long wondered to myself, yet been unable to comprehend.
//__Why?__” There was a tinge of pain in his voice. “Why would anyone
//deliberately make himself a monster? Why do evil for the sake of evil? Why
//Voldemort?”
-- У мене є інше питання до цього юнака, -- сказав директор. -- Я дуже давно
про це міркую, але досі не можу цього збагнути. __Навіщо?__ -- в його голосі
ледь було чутно біль. -- Навіщо комусь зумисно перетворюватися на чудовисько?
Навіщо чинити зло заради зла? Чому Волдеморт?

***

// 7521
//__Whirr, bzzzt, tick; ding, puff, splat…__
__Жух, бззз, цок; дзінь, паф, хлюп...__

// 7522
//Harry stared at the Headmaster in surprise.
Гаррі здивовано втупився в директора.

// 7523
//“How would __I__ know?” said Harry. “Am I supposed to magically understand
//the Dark Lord because I’m the hero, or something?”
-- Звідки __мені__ знати? -- запитав Гаррі. -- Я що, маю магічно розуміти
Темного Лорда, бо я герой, чи що?

// 7524
//“__Yes!__” said Dumbledore. “My own great foe was Grindelwald, and
//__him__ I understood very well indeed. Grindelwald was my dark mirror, the
//man I could so easily have been, had I given in to the temptation to believe
//that I was a good person, and therefore always in the right. __For the
//greater good__, that was his slogan; and he truly believed it himself, even as
//he tore at all Europe like a wounded animal. And him, I defeated in the end.
//But then after him came Voldemort, to destroy everything I had protected in
//Britain.” The hurt was plain now in Dumbledore’s voice, exposed upon his face.
//“He committed acts worse by far than Grindelwald’s worst, horror for the sake
//of horror. I sacrificed everything only to hold him back, and I still don’t
//understand __why!__ __Why__, Harry? Why did he do it? He was never my
//destined foe, but yours, so if you have any guesses at all, Harry, please tell
//me! __Why?__”
// hedrok: for greater good - канон (сьома книжка, гасло з листа Дамблдора)
-- __Так!__ -- вигукнув Дамблдор. -- Моїм власним головним ворогом був Ґріндельвальд,
і __його__ я справді добре розумів. Ґріндельвальд був моїм темним дзеркалом -- людиною,
якою я так легко міг би стати, якби тільки піддався спокусі вірити, що я хороша людина,
а отже завжди маю рацію. __Для загального блага__ -- це було його гасло. І він
щиро в це вірив, навіть коли роздирав усю Європу, мов поранений звір. І його я зрештою
переміг. Але слідом зʼявився Волдеморт, щоб знищити все, що я захищав був у Британії,
-- тепер біль було ясно чути в його голосі, і ясно видно на обличчі. -- Він скоював
злочини гірші за найгірші Ґріндельвальдські, жахіття заради жахіття. Я пожертвував
усім лише щоб стримувати його, і я досі не розумію -- __навіщо__! __Навіщо__, Гаррі?
Навіщо він це робив? Він не мій призначений ворог, а твій. Тому якщо в тебе є бодай
якісь здогади, будь ласка, поділися ними! __Чому?__

// 7525
//Harry stared down at his hands. The truth was that Harry hadn’t read up on the
//Dark Lord yet, and right now he hadn’t the tiniest clue. And somehow that
//didn’t seem like an answer the Headmaster wanted to hear. “Too many Dark
//rituals, maybe? In the beginning he thought he’d do just one, but it sacrificed
//part of his good side, and that made him less reluctant to perform other Dark
//rituals, so he did more and more rituals in a positive feedback cycle until he
//ended up as a tremendously powerful monster -”
Гаррі втупився у власні руки. По правді, Гаррі ще не досліджував Темного Лорда,
тому наразі він зеленого поняття не мав. Але чомусь йому здавалося, що директор
хотів почути не це.

-- Можливо, забагато темних ритуалів? Спочатку він гадав, що скористається лише
одним, проте для цього довелося пожертвувати частиною добра в собі, через що
інші темні ритуали йому здавалися більш прийнятними, тому він використовував дедалі
більше темних ритуалів з позитивним зворотним звʼязком, доки не став неймовірно
могутнім чудовиськом...

// 7526
//“No!” Now the Headmaster’s voice was agonized. “I can’t believe that, Harry!
//There has to be something more to it than just that!”
-- Ні! -- тепер голос директора переповнювало страждання. -- Я не вірю в це,
Гаррі! Має бути щось іще!

// 7527
//__Why should there be?__ thought Harry, but he didn’t say it, because it
//was clear that the Headmaster thought the universe was a story and had a plot,
//and that huge tragedies weren’t allowed to happen except for equally huge,
//significant reasons. “I’m sorry, Headmaster. The Dark Lord doesn’t seem like
//much of a dark mirror to me, not at all. There isn’t anything I find even the
//__tiniest__ bit tempting about nailing the skins of Yermy Wibble’s family
//to a newsroom wall.”
__З чого б це?__ подумав Гаррі, але не сказав уголос, бо було ясно, що директор
вважав, що всесвіт -- це казочка з сюжетом, а великі трагедії траплялися лише через
відповідно великі значущі причини.

-- Перепрошую, директоре. Темний Лорд зовсім не нагадує мені моє темне дзеркало.
Я не вважаю __анікрапельки__ спокусливим прибивання шкір родини Єрмі Вібла до
стіни у відділі новин.

// 7528
//“Have you __no__ wisdom to share?” said Dumbledore. There was pleading in
//the old wizard’s voice, almost begging.
-- Невже в тебе __зовсім__ немає для мене мудрості? -- запитав Дамблдор. У його
голосі відчувалася просьба, ледь не благання.

// 7529
//__Evil happens,__ thought Harry, __it doesn’t mean anything or teach
//us anything, except to not be evil? The Dark Lord was probably just a selfish
//bastard who didn’t care who he hurt, or an idiot who made stupidly avoidable
//mistakes that snowballed. There is no destiny behind the ills of this world; if
//Hitler had been allowed into architecture school like he wanted, the whole
//history of Europe would have been different; if we lived in the sort of
//universe where horrible things were only allowed to happen for good reasons,
//they just wouldn’t happen in the first place.__
__Зло трапляється,__ подумав Гаррі, __воно нічого не означає й не вчить нас
нічому, крім як не бути злими? Темний Лорд, напевно, просто був егоїстичним
вилупком, і йому було начхати, кому він робить боляче, -- ідіотом, що його
зрештою спіткали наслідки дурних помилок, яких він легко міг би уникнути. За
нещастями цього світу не криється доля. Якби Гітлерові дозволили були вступити
в школу архітектури, як той і хотів, то вся історія Європи змінилася б. Якби
ми жили в якомусь усесвіті, де жахливі речі трапляються лише з поважних
причин, то вони би взагалі не траплялися.__

// 7530
//And none of that, obviously, was what the Headmaster wanted to hear.
Але директор нічого з цього, очевидно, не хотів чути.

// 7531
//The old wizard was still looking at Harry from over a fiddly thing like a
//frozen puff of smoke, a painful desperation in those ancient, waiting eyes.
Старий чарівник стояв за маленькою дивною штуковиною, що скидалася на замерзлий
дим, і досі дивився на Гаррі сповненим розпачу й очікування поглядом.

// 7532
//Well, sounding wise wasn’t difficult. It was a lot easier than being
//intelligent, actually, since you didn’t have to say anything surprising or come
//up with any new insights. You just let your brain’s pattern-matching software
//complete the cliche, using whatever Deep Wisdom you’d stored previously.
Ну, казати щось мудре було нескладно. Насправді, це було значно простіше, ніж
бути розумним, адже не треба було казати чогось неочікуваного чи робити відкриття.
Треба було просто запустити програмне забезпечення мозку з пошуку шаблонів та
видати кліше за допомогою будь-якої глибинної мудрості, що ти її вже чув.

// 7533
//“Headmaster,” Harry said solemnly, “I would rather not define myself by my
//enemies.”
-- Директоре, -- урочисто сказав Гаррі, -- я б не хотів визначати те, хто я є,
за своїми ворогами.

// 7534
//Somehow, even in the midst of all the whirring and ticking, there was a kind of
//silence.
Якимось чином навіть посеред усього цього цокання й дзижчання запанувало щось
на кшталт тиші.

// 7535
//That had come out a bit more Deeply Wise than Harry had intended.
Вийшло якось більш глибинно мудро, ніж Гаррі збирався.

// 7536
//“You may be very wise, Harry…” the Headmaster said slowly. “I do wish… that I
//could have been defined by my friends.” The pain in his voice had grown deeper.
-- Можливо, ти дуже мудрий, Гаррі... -- повільно сказав директор. -- Хотілося б
мені... визначати те, хто я є, за своїми друзями, -- біль у його голосі став
навіть сильнішим.

// 7537
//Harry’s mind searched hastily for something else Deeply Wise to say that would
//soften the unintended force of the blow -
Розум Гаррі поквапом шукав щось іще глибинно мудре, щоб помʼякшити силу
неумисного удару...

// 7538
//“Or perhaps,” Harry said more softly, “it is the foe that makes the Gryffindor,
//as it is the friend that makes the Hufflepuff, and the ambition that makes the
//Slytherin. I do know that it is always, in every generation, the puzzle that
//makes the scientist.”
-- Чи, можливо, -- більш лагідно сказав Гаррі, -- недруг створює ґрифіндорця,
як друг створює гафелпафця, а прагнення створює слизеринця. А також завжди,
кожного покоління саме загадка створює науковця.

// 7539
//“It is a dreadful fate to which you condemn my House, Harry,” said the
//Headmaster. The pain was still in his voice. “For now that you remark on it, I
//do think that I was very much made by my enemies.”
-- Страшну долю ти пророкуєш моєму гуртожитку, Гаррі, -- сказав директор. Біль
не полишав його голос. -- Але тепер, коли ти про це сказав, гадаю, мене й
справді переважно створили мої вороги.

// 7540
//Harry stared at his own hands, where they lay in his lap. Maybe he should just
//shut up while he was ahead.
Гаррі втупився у свої руки на колінах. Можливо, варто було просто замовкнути,
доки все виходить.

// 7541
//“But you __have__ answered my question,” said Dumbledore more softly, as
//though to himself. “I should have realized that would be a Slytherin’s key. For
//his ambition, all for the sake of his ambition; and __that__ I know,
//though not __why__…” For a time Dumbledore stared off into nothingness;
//then he straightened, and his eyes seemed to focus on Harry again.
-- Але ти __відповів__ на моє питання, -- мʼякіше сказав Дамблдор, ніби сам до
себе. -- Я мав зрозуміти, що відповідь крилася в Слизерині. Заради його
прагнення, усе для його прагнення. А __яким__ воно було, я знаю, хоча не
__чому__... -- деякий час Дамблдор витріщався в простір, потім випростався й
знову сфокусувався на Гаррі.

// 7542
//“And you, Harry,” said the Headmaster, “you name yourself a
//__scientist?__” His voice was laced with surprise and mild disapproval.
-- А ти, Гаррі, -- сказав директор, -- ти називаєш себе __науковцем__? -- в
його голосі чулося здивування з нотками несхвалення.

// 7543
//“You don’t like science?” said Harry a little wearily. He’d hoped Dumbledore
//would be fonder of Muggle things.
-- Вам не до вподоби наука? -- трохи втомлено запитав Гаррі. Він сподівався був,
що Дамблдор виявить більше прихильності до маґлівських речей.

// 7544
//“I suppose it is useful to those without wands,” said Dumbledore, frowning.
//“But it seems a strange thing by which to define yourself. Is science as
//important as love? As kindness? As friendship? Is it science that makes you
//fond of Minerva McGonagall? Is it science that makes you care for Hermione
//Granger? Will it be science to which you turn, when you try to kindle warmth in
//Draco Malfoy’s heart?”
-- Гадаю, вона корисна для тих, у кого немає паличок, -- спохмурнівши сказав
Дамблдор. -- Але вона здається мені дивним вибором для того, щоб визначити
себе. Невже наука важливіша за любов? За доброту? За дружбу? Чи через науку ти
захоплюєшся Мінервою Макґонеґел? Чи наука змушує тебе піклуватися про Герміону
Ґрейнджер? Чи до науки ти звернешся, коли намагатимешся запалити вогник тепла в
серці Драко Мелфоя?

// 7545
//__You know, the sad thing is, you probably think you just uttered some
//kind of incredibly wise knockdown argument.__
__Знаєте, найсумніше, що вам напевно здається, що ви щойно видали якийсь
неймовірно мудрий фінальний аргумент.__

// 7546
//Now, how to phrase the rejoinder in such fashion that it also sounded
//incredibly wise…
Так, тепер треба сформулювати заперечення, щоб воно теж звучало неймовірно
мудро...

// 7547
//“You are not Ravenclaw,” Harry said with calm dignity, “and so it might not
//have occurred to you that to respect the truth, and seek it all the days of
//your life, could also be an act of grace.”
-- Ви не з Рейвенклову, -- зі спокоєм та гідністю сказав Гаррі, -- і, можливо,
тому ніколи не замислювалися, що повага до правди та її пошук протягом кожного
дня свого життя також можуть бути виявом доброчесності.

// 7548
//The Headmaster’s eyebrows rose up. And then he sighed. “How did you become so
//wise, so young…?” The old wizard sounded sad, as he said it. “Perhaps it will
//prove valuable to you.”
Директор здійняв брови. А потім зітхнув.

-- Як ти став таким мудрим так рано? -- голос старого чарівника був сумним. --
Можливо, це стане тобі в нагоді.

// 7549
//__Only for impressing ancient wizards who are overly impressed with
//themselves,__ thought Harry. He was actually a bit disappointed by Dumbledore’s
//credulity; it wasn’t that Harry had __lied__, but Dumbledore seemed far
//too impressed with Harry’s ability to phrase things so that they sounded
//profound, instead of putting them into plain English like Richard Feynman had
//done with __his__ wisdom…
__Лише коли треба справити враження на древніх чарівників, що надто високої
думки про себе__, подумав Гаррі. Насправді, він був трохи розчарований
довірливістю Дамблдора. Не те щоб Гаррі __збрехав__, але на Дамблдора надто вже
сильне враження справила здатність Гаррі формулювати думки так, що вони звучали
глибокими, замість того, щоб використовувати просту мову, як вчинив Річард
Фейнман зі __своєю__ мудрістю...

// 7550
//“Love is more important than wisdom,” said Harry, just to test the limits of
//Dumbledore’s tolerance for blindingly obvious cliches completed by sheer
//pattern matching without any sort of detailed analysis.
-- Любов важливіша за мудрість, -- сказав Гаррі. Просто щоб спробувати знайти
межі безсоромно очевидних кліше, складених методом пошуку за шаблоном без
жодного аналізу, які готовий витримати Дамблдор.

// 7551
//The Headmaster nodded gravely, and said, “Indeed.”
Директор поважно кивнув та сказав:

-- Дійсно.

// 7552
//Harry stood up out of the chair, and stretched his arms. __Well, I’d
//better go off and love something, then, that’s bound to help me defeat the Dark
//Lord. And next time you ask me for advice, I’ll just give you a hug -__
Гаррі підвівся з крісла й витягнув руки. __Ну, тоді я краще піду любити щось,
це має допомогти мені перемогти Темного Лорда. Наступного разу, коли ви
попросите моєї поради, я просто обійму вас...__

// 7553
//“This day you have helped me much, Harry,” said the Headmaster. “And so there
//is one last thing I would ask that young man.”
-- Сьогодні ти мені дуже допоміг, Гаррі, -- сказав директор. -- Залишилося лише
одне питання, яке я б хотів поставити цьому юнакові.

// 7554
//__Great.__
__Чудово.__

// 7555
//“Tell me, Harry,” said the Headmaster (and now his voice sounded simply
//puzzled, though there was still a hint of pain in his eyes), “why do Dark
//Wizards fear death so greatly?”
-- Скажи мені, Гаррі, -- сказав Дамблдор (і цього разу в його голосі чулася
лише спантеличеність, хоча в очах досі був натяк на біль), -- чому темні
чарівники так сильно бояться смерті?

// 7556
//“Er,” said Harry, “sorry, I’ve got to back the Dark Wizards on that one.”
-- Ем, вибачайте, проте тут я підтримую темних чарівників.

***

// 7557
//Whoosh, hiss, chime; glorp, pop, bubble -
Шух, шшш, дзелень; вурп, лясь, хлюп...

// 7558
//“__What?__” said Dumbledore.
-- __Що?__ -- вигукнув Дамблдор.

// 7559
//“Death is bad,” said Harry, discarding wisdom for the sake of clear
//communication. “Very bad. Extremely bad. Being scared of death is like being
//scared of a great big monster with poisonous fangs. It actually makes a great
//deal of sense, and does not, in fact, indicate that you have a psychological
//problem.”
-- Смерть -- це погано, -- сказав Гаррі, відкинувши мудрість заради точності
спілкування. -- Дуже погано. Надзвичайно погано. Боятися смерті -- ніби боятися
величезного монстра з отруйними іклами. Це насправді вкрай розумно, а не
свідчить про психологічний розлад.

// 7560
//The Headmaster was staring at him as though he’d just turned into a cat.
Директор витріщався на нього, ніби він щойно перетворився на кицьку.

// 7561
//“Okay,” said Harry, “let me put it this way. Do you __want__ to die?
//Because if so, there’s this Muggle thing called a suicide prevention hotline -”
-- Гаразд, -- продовжив Гаррі, -- скажу це так. Ви __хочете__ померти? Бо якщо так,
то існує така маґлівська штука як "`Гаряча лінія порятунку`"...

// 7562
//“When it is time,” the old wizard said quietly. “Not before. I would never seek
//to hasten the day, nor seek to refuse it when it comes.”
-- Коли прийде час, -- тихо сказав старий чарівник. -- Не раніше. Я не
намагатимусь ані наблизити цей день, ані відмовитися від цього, коли настане
час.

// 7563
//Harry was frowning sternly. “That doesn’t sound like you have a very strong
//will to live, Headmaster!”
Гаррі суворо насупився.

-- Видається, у вас не надто сильна жага жити, директоре!

// 7564
//“Harry…” The old wizard’s voice was starting to sound a little helpless; and he
//had paced to a spot where his silver beard, unnoticed, had drifted into a
//crystalline glass goldfish bowl, and was slowly taking on a greenish tinge that
//crept up the hairs. “I think I may have not made myself clear. Dark Wizards are
//not eager to live. They __fear death.__ They do not reach up toward the
//sun’s light, but flee the coming of night into infinitely darker caverns of
//their own making, without moon or stars. It is not life they desire, but
//__immortality;__ and they are so driven to grasp at it that they will
//sacrifice their very souls! Do you want to live __forever__, Harry?”
-- Гаррі... -- у голосі старого чарівника почала відчуватися безпорадність. Він
підійшов був до місця, де його біла борода опустилася в акваріум з
прозорого скла та повільно почала набувати зеленого кольору знизу вгору, а
директор і не помітив. -- Гадаю, я недостатньо ясно висловився. Темні
чарівники не палко бажають жити. Вони __бояться смерті__. Вони не намагаються
дотягнутися до світла сонця, а тікають від ночі до нескінченно темніших печер,
що їх вони самі й створюють, без місяця та зірок. Вони жадають не життя, а
__безсмертя__. І їх воно так манить, що вони готові принести в жертву навіть
власні душі! Ти хочеш жити __вічно__, Гаррі?

// 7565
//“Yes, and so do you,” said Harry. “I want to live one more day. Tomorrow I will
//still want to live one more day. Therefore I want to live forever, proof by
//induction on the positive integers. If you don’t want to die, it means you want
//to live forever. If you don’t want to live forever, it means you want to die.
//You’ve got to do one or the other… I’m not getting through here, am I.”
-- Так, і ви теж. Я хочу прожити ще один день. Завтра я теж захочу прожити ще
один день. Відповідно, я хочу жити вічно, доведено індукцією на цілих додатних
числах. Якщо ви не хочете помирати, то це означає, що ви хочете жити вічно.
Якщо ви не хочете жити вічно, це означає, що ви хочете померти. Одне або
інше... Не переконав, так?

// 7566
//The two cultures stared at each other across a vast gap of incommensurability.
Дві культури витріщилися одна на одну понад величезну прірву відсутності спільної
мови.

// 7567
//“I have lived a hundred and ten years,” the old wizard said quietly (taking his
//beard out of the bowl, and jiggling it to shake out the color). “I have seen
//and done a great many things, too many of which I wish I had never seen or
//done. And yet I do not regret being alive, for watching my students grow is a
//joy that has not begun to wear on me. But I would not wish to live so long that
//it does! What would you __do__ with eternity, Harry?”
-- Я прожив сто десять років, -- тихо сказав старий чарівник (діставши свою
бороду з акваріума та струшуючи забарвлення). -- Я бачив та зробив чимало
речей, надто багато з яких я бажав би не бачити й не робити. І втім я не
жалкую, що я живий, бо спостерігати, як мої учні дорослішають, -- це задоволення,
що ще не почало мені набридати. Але я не бажаю дожити до того, щоб почало! Що
ти б __робив__ із вічністю, Гаррі?

// 7568
//Harry took a deep breath. “Meet all the interesting people in the world, read
//all the good books and then write something even better, celebrate my first
//grandchild’s tenth birthday party on the Moon, celebrate my first
//great-great-great grandchild’s hundredth birthday party around the Rings of
//Saturn, learn the deepest and final rules of Nature, understand the nature of
//consciousness, find out why anything exists in the first place, visit other
//stars, discover aliens, create aliens, rendezvous with everyone for a party on
//the other side of the Milky Way once we’ve explored the whole thing, meet up
//with everyone else who was born on Old Earth to watch the Sun finally go out,
//and I used to worry about finding a way to escape this universe before it ran
//out of negentropy but I’m a lot more hopeful now that I’ve discovered the
//so-called laws of physics are just optional guidelines.”
Гаррі глибоко вдихнув.

// @ negentropy TODO
-- Зустрітися з усіма цікавими людьми у світі, прочитати всі хороші книжки та
написати щось навіть краще, відсвяткувати десятий день народження свого першого
онука на Місяці, відсвяткувати сотий день народження свого прапраправнука на
кільцях Сатурну, дізнатися найглибші й остаточні закони природи, зрозуміти
природу свідомості, дізнатися, чому взагалі щось існує, відвідати інші зірки,
відкрити прибульців, створити прибульців, зустріч з усіма на вечірці з іншого
боку Чумацького Шляху, коли ми дослідимо його цілком, зустріч з усіма, хто
народився на Старій Землі, щоб подивитися, як нарешті згасне Сонце, а ще я
хвилювався щодо втечі із всесвіту перед тим, як у всесвіті скінчиться негативна
ентропія, проте тепер я значно оптимістичніший, адже дізнався, що так звані
закони фізики -- це лише необовʼязкові настанови.

// 7569
//“I did not understand much of that,” said Dumbledore. “But I must ask if these
//are things that you truly desire so desperately, or if you only imagine them so
//as to imagine not being tired, as you run and run from death.”
-- Багато з цього я не зрозумів, -- сказав Дамблдор. -- Але маю спитати: ти
справді так сильно бажаєш цих речей, чи лише переконуєш себе в цьому, щоб
переконати себе, що не стомишся, тікаючи й тікаючи від смерті.

// 7570
//“Life is not a finite list of things that you check off before you’re allowed
//to die,” Harry said firmly. “It’s life, you just go on living it. If I’m not
//doing those things it’ll be because I’ve found something better.”
-- Життя -- це не визначений список речей, що їх треба зробити перед тим, як
буде дозволено померти, -- впевнено сказав Гаррі. -- Це життя, треба просто
жити далі. Якщо я не робитиму цих речей, то лише через те, що знайду щось
цікавіше.

// 7571
//Dumbledore sighed. His fingers drummed on a clock; as they touched it, the
//numerals changed to an indecipherable script, and the hands briefly appeared in
//different positions. “In the unlikely event that I am permitted to tarry until
//a hundred and fifty,” said the old wizard, “I do not think I would mind. But
//two hundred years would be entirely too much of a good thing.”
Дамблдор зітхнув. Він стукотів пальцями по годиннику. З кожним доторком
цифри змінювалися на незрозумілі написи, а стрілки ненадовго змінювали позиції.

-- У малоймовірному випадку, якщо мені буде дозволено затриматися до ста
пʼятдесяти, -- сказав старий чарівник, -- навряд чи я буду проти. Але двісті --
це вже забагато, щоб було добре.

// 7572
//“Yes, well,” Harry said, his voice a little dry as he thought of his Mum and
//Dad and __their__ allotted span if Harry didn’t do something about it, “I
//suspect, Headmaster, that if you came from a culture where people were
//accustomed to living four hundred years, that dying at two hundred would seem
//just as tragically premature as dying at, say, __eighty__.” Harry’s voice
//went hard, on that last word.
-- Ну так, -- сказав Гаррі дещо сухо, адже подумав про своїх батьків та
відведений __їм__ вік, якщо Гаррі чогось із цим не зробить, -- підозрюю,
директоре, що якби ви виросли в культурі, де люди звикли жити чотириста років,
то померти в двісті здавалося б вам так само трагічно зарано, як, скажімо, у
__вісімдесят__, -- Гаррі сильно виділив останнє слово.

// 7573
//“Perhaps,” the old wizard said peacefully. “I would not wish to die before my
//friends, nor live on after they had all gone. The hardest time is when those
//you loved the most have gone on before you, and yet others still live, for
//whose sake you must stay…” Dumbledore’s eyes were fixed on Harry, and growing
//sad. “Do not mourn me too greatly, Harry, when my time comes; I will be with
//those I have long missed, on our next great adventure.”
// hedrok: ще одна цікава пригода - канон
-- Можливо, -- примирливо сказав старий чарівник. -- Я б не хотів померти раніше
за своїх друзів чи жити після них усіх. Найважчий час -- це коли всі, кого ти любив
найбільше, пішли раніше за тебе, але інші живуть, і заради них ти маєш залишатися...
-- Дамблдор сфокусував очі на Гаррі, він став дещо сумним. -- Не оплакуй мене гірко,
Гаррі, коли прийде мій час. Я буду з тими, за ким вже довго сумую, на нас чекає
ще одна цікава пригода.

// 7574
//“Oh!” Harry said in sudden realization. “You believe in an __afterlife__.
//I got the impression wizards didn’t have religion?”
-- О! -- вигукнув Гаррі, раптом збагнувши. -- То ви вірите у __загробне
життя__. А мені здалося, що в чарівників немає релігії?

***

// 7575
//Toot. Beep. Thud.
У-у. Біп. Гуп.

// 7576
//“__How can you not believe it?__” said the Headmaster, looking completely
//flabbergasted. ”__Harry, you’re a wizard! You’ve seen ghosts!__”
-- __Як ти можеш не вірити?__ -- ошелешено запитав директор. -- __Гаррі,
ти ж чарівник! Ти бачив привидів!__

// 7577
//“Ghosts,” Harry said, his voice flat. “You mean those things like portraits,
//stored memories and behaviors with no awareness or life, accidentally impressed
//into the surrounding material by the burst of magic that accompanies the
//violent death of a wizard -”
-- Привиди, -- сухо сказав Гаррі. -- Ви про ті штуки, що, як портрети,
зберігають спогади й поведінку, проте не свідомість чи життя, які випадково
вбудовуються в найближчий матеріал вибухом магії під час насильницької смерті
чарівника...

// 7578
//“I’ve heard that theory,” said the Headmaster, his voice growing sharp,
//“repeated by wizards who mistake cynicism for wisdom, who think that to look
//down upon others is to elevate themselves. It is one of the silliest ideas I
//have heard in a hundred and ten years! __Yes,__ ghosts do not learn or
//grow, because this is __not where they belong!__ Souls are meant to move
//on, there is no life remaining for them __here!__ And if not ghosts, then
//what of the Veil? What of the Resurrection Stone?”
-- Я чув цю теорію, -- різко сказав директор. -- Її повторюють чарівники, що
плутають цинізм із мудрістю, що гадають, ніби зневажати інших -- те саме, що
підносити себе. Це одна з найдурніших ідей, що я чув за сто десять років!
__Так__, привиди не навчаються та не ростуть, адже __їм тут не місце__! Душі
мають йти далі, для них не залишилося життя __тут__! Навіть якщо забути про
привидів, як щодо завіси? Як щодо воскресального каменя?

// 7579
//“All right,” Harry said, trying to keep his voice calm, “I’ll hear out your
//evidence, because __that’s what a scientist does.__ But first, Headmaster,
//let me tell you a little story.” Harry’s voice was trembling. “You know, when I
//got here, when I got off the train from King’s Cross, I don’t mean yesterday
//but back in September, when I got off the train then, Headmaster, I’d never
//seen a ghost. I wasn’t __expecting__ ghosts. So when I saw them,
//Headmaster, I did something really dumb. I __jumped to conclusions.__ I, I
//thought there __was__ an afterlife, I thought no one had ever really died,
//I thought that everyone the human species had ever lost was really fine after
//all, I thought that wizards could talk to people who’d passed on, that it just
//took the right spell to summon them, that wizards could __do__ that, I
//thought I could meet my parents who died for me, and tell them that I’d heard
//about their sacrifice and that I’d begun to call them my mother and father -”
-- Гаразд, -- сказав Гаррі, стараючись не втратити спокій. -- Знаєте, коли я
потрапив сюди, коли я зійшов з потяга з Кінґс-Крос -- я не маю на увазі вчора, я
про вересень -- коли тоді я зійшов з потяга, директоре, я ще ніколи не бачив
привидів. Я __не був готовий__ до привидів. Тому коли я їх побачив, директоре,
я скоїв дещо справді дурне. Я __зробив поспішні висновки__. Я вирішив, що
загробне життя __існує__, вирішив, що ніхто насправді не помер, що з кожним з
людського роду, кого ми втратили були, насправді все ж таки все гаразд,
вирішив, що чарівники вміють розмовляти з людьми, що пішли з життя, що потрібне
просто правильне закляття, щоб викликати їх, що чарівники __здатні__ на це. Я
вирішив, що можу зустріти своїх батьків, що померли заради мене, і сказати їм,
що я дізнався про їхню жертву й почав називати їх мамою й татом...

// 7580
//“Harry,” whispered Dumbledore. Water glittered in the old wizard’s eyes. He
//took a step closer across the office -
-- Гаррі, -- прошепотів Дамблдор. До його очей підступили сльози. Він зробив
крок уперед...

// 7581
//“And __then,__” spat Harry, the fury coming fully into his voice, the cold
//rage at the universe for being like that and at himself for being so stupid, “I
//asked Hermione and she said that they were just __afterimages,__ burned
//into the stone of the castle by the death of a wizard, like the silhouettes
//left on the walls of Hiroshima. And I should have known! I should have known
//without even having to ask! I shouldn’t have believed it even for all of thirty
//seconds! Because if people had souls there wouldn’t be any such thing as brain
//damage, if your soul could go on speaking after your whole brain was gone, how
//could damage to the left cerebral hemisphere take away your ability to talk?
//And Professor McGonagall, when she told me about how my parents had died, she
//didn’t act like they’d just gone away on a long trip to another country, like
//they’d emigrated to Australia back in the days of sailing ships, which is the
//way people would act if they __actually knew__ that death was just going
//somewhere else, if they had hard evidence for an afterlife, instead of making
//stuff up to console themselves, it would change __everything,__ it
//wouldn’t __matter__ that everyone had lost someone in the war, it would be
//a little sad but not __horrible!__ And I’d already seen that people in the
//wizarding world didn’t act like that! So I should have known better! And that
//was when I knew that my parents were really dead and gone forever and ever,
//that there wasn’t anything left of them, that I’d never get a chance to meet
//them and, and, and the other children thought I was crying because I was
//__scared of ghosts -__”
-- А __тоді__, -- кинув Гарі, тепер лють нестримно сповнювала його голос,
холодна лють від того, що всесвіт так влаштовано, і через те, що він сам
припустився такої дурості, -- я запитав Герміону, і вона сказала, що вони лише
__післязображення__, що їх викарбувала в камінні замку смерть чарівника, ніби
силуети, що можна побачити на стінах Хірошіми. А я мав би здогадатися! Я мав би
здогадатися й навіть не питати! Я не мав вірити в це навіть тридцять секунд!
Бо якби в людей були душі, то не було б пошкоджень мозку, якби душа могла б
розмовляти навіть коли мозку зовсім не залишилося, то яким чином пошкодження
лівої півкулі мозку призводить до нездатності розмовляти? І професорка
Макґонеґел, коли розповіла мені про те, як померли були мої батьки, вона не
поводилася, ніби вони просто поїхали на довгий час в іншу країну, ніби вони
емігрували до Австралії в дні парусних кораблів, -- а люди поводилися б саме
так, якби __справді знали__, що смерть -- це просто піти кудись, якби в них
були серйозні свідчення про загробне життя, а не просто вигадки, щоб втішати
себе. __Усе__ було б інакшим: було б __неважливо__, що всі когось втратили були
на війні, це було б трохи сумно, проте не __жахливо__! А я вже бачив, що люди в
чаклунському світі поводяться не так! Тому мав би не припускатися такої
помилки! І тоді я зрозумів, що мої батьки справді померли, і втрачені назавжди
й навіки, що від них нічого не залишилося, що в мене ніколи не буде можливості
зустрітися з ними, а... а інші діти вирішили, що я плачу, бо __боюся
привидів__...

// 7582
//The old wizard’s face was horrified, he opened his mouth to speak -
Лице старого чарівника було сповнене жаху, він відкрив рота, щоб заговорити...

// 7583
//“So tell me, Headmaster! Tell me about the evidence! But __don’t you
//dare__ exaggerate a single tiny bit of it, because if you give me false hope
//again, and I find out later that you lied or stretched things just a little, I
//won’t ever forgive you for it! __What’s the Veil?__”
-- То розповідайте мені, директоре! Розкажіть усе про докази! Але __не смійте__
перебільшувати нічого ані на грам, бо якщо ви знову дасте мені хибну надію, а я
потім дізнаюся, що ви збрехали чи прикрасили щось навіть трошки, то я ніколи
вам цього не пробачу! __Що за завіса?__

// 7584
//Harry reached up and wiped at his cheeks, while the glass things of the office
//stopped vibrating from his last shriek.
Гаррі підняв руки та витер щоки, а скляні штучки в офісі припинили вібрувати
через цей викрик.

// 7585
//“The Veil,” said the old wizard with only a slight tremble in his voice, “is a
//great stone archway, kept in the Department of Mysteries; a gateway to the land
//of the dead.”
-- Завіса, -- сказав старий чарівник, його голос злегка тремтів, -- це велика
камʼяна арка, її зберігають у відділі таємниць. Це брама до країни мертвих.

// 7586
//“And how does anyone know that?” said Harry. “Don’t tell me what you believe,
//tell me what you’ve __seen!__”
-- І звідки про це відомо? -- запитав Гаррі. -- Не розповідайте мені, у що ви
вірите, розповідайте мені, що ви __бачили__!

// 7587
//The physical manifestation of the barrier between worlds was a great stone
//archway, old and tall and coming to a sharp point, with a tattered black veil
//like the surface of a pool of water, stretched between the stones; rippling,
//always, from the constant and one-way passage of the souls. If you stood by the
//Veil you could hear the voices of the dead calling, always calling in whispers
//barely on the wrong side of comprehension, growing louder and more numerous if
//you stayed and tried to hear, as they tried to communicate; and if you listened
//too long, you would go to meet them, and in the moment you touched the Veil you
//would be sucked through, and never be heard from again.
Фізичним проявом барʼєра між світами була велика камʼяна арка, стара та висока,
з гострим вершечком. Прохід між каменями закривала чорна пошарпана завіса, що
скидалася на поверхню ставка. Вона завжди колихалася через нескінченний прохід
душ в один бік. Якщо стояти поряд із завісою, то можна почути, як кличуть голоси
померлих, завжди пошепки, ще от-от і зрозумієш слова, і голоси ставали
дедалі гучніші й чисельніші, якщо намагатися розчути, бо вони старалися щось
сказати. Але якщо слухати надто довго, то підеш зустрітися з ними, і щойно ти
торкнешся завіси, вона засмокче тебе, і більше про тебе ніколи нічого не буде
відомо.

//“That doesn’t even sound like an __interesting__ fraud,” Harry said, his
//voice calmer now that there was nothing there to make him hope, or make him
//angry for having hopes dashed. “Someone built a stone archway, made a little
//black rippling surface between it that Vanished anything it touched, and
//enchanted it to whisper to people and hypnotize them.”
-- Це навіть не __цікава__ підробка, -- сказав Гаррі. Тепер його голос був
спокійнішим, адже ніщо не давало надію й не було чому розізлити його, коли
надії розвіються. -- Хтось побудував камʼяну арку, створив чорну поверхню
посередині, що колихається та усуває все, що її торкнеться, і наклав чари, щоб
вона шепотіла та гіпнотизувала людей.

// 7589
//“Harry…” the Headmaster said, starting to look rather worried. “I can tell you
//the truth, but if you refuse to hear it…”
-- Гаррі... -- доволі стурбовано сказав директор, -- я можу сказати тобі
правду, проте якщо ти відмовляєшся її чути...

// 7590
//__Also not interesting. __ “What’s the Resurrection Stone?”
__Також нецікаво.__

-- Що таке воскресальний камінь?

// 7591
//“I would not tell you,” the Headmaster said slowly, “save that I fear what this
//disbelief may do to you… so listen, then, Harry, please listen…”
-- Я б не казав тобі, -- повільно промовив директор, -- якби не страх через те,
до чого може призвести ця твоя невіра... тож слухай, Гаррі, будь ласка,
почуй...

// 7592
//The Resurrection Stone was one of the three legendary Deathly Hallows, kin to
//Harry’s cloak. The Resurrection Stone could call souls back from the dead -
//bring them back into the world of the living, though not as they were. Cadmus
//Peverell used the stone to call back his lost beloved from the dead, but her
//heart stayed with the dead, and not in the world of the living. And in time it
//drove him mad, and he killed himself to be truly with her once more…
Воскресальний камінь був однією з трьох легендарних смертельних реліквій, як і
плащ Гаррі. Воскресальний камінь міг викликати душі померлих... повертати їх
до світу живих, хоча не такими, як вони були. Кадмус Певерел використав камінь,
щоб повернути свою втрачену кохану з мертвих, проте її серце залишалося з
мертвими, а не у світі живих. І з часом він збожеволів через це та вбив себе,
щоб дійсно знову бути з нею...

// 7593
//In all politeness, Harry raised his hand.
Гаррі з усією повагою підняв руку.

// 7594
//“Yes?” the Headmaster said reluctantly.
-- Так? -- неохоче запитав директор.

// 7595
//“The obvious test to see if the Resurrection Stone is __really__ calling
//back the dead, or just projecting an image from the user’s mind, is to ask a
//question whose answer __you__ don’t know, but the dead person
//__would__, and that can be definitely verified in this world. For example,
//call back -”
-- Очевидний дослід, щоб перевірити, чи воскресальний камінь __справді__
викликає мертвих, чи лише створює проекцію з розуму користувача, -- це поставити
питання, відповідь на яке __вам__ невідома, а мертвій особі __відома__, і щоб
цю відповідь можна було перевірити в цьому світі. Наприклад, викликати...

// 7596
//Then Harry paused, because __this__ time he’d managed to think it through
//one step ahead of his tongue, fast enough to __not__ say the first name
//and test that had sprung to mind.
Тоді Гаррі затнувся, бо __цього__ разу його мозкові вдалося випередити язика на
один крок, і він __не назвав__ перше імʼя та перший тест, що спав йому на
думку.

// 7597
//“…your dead wife, and ask her where she left her lost earring, or something
//like that,” Harry finished. “Did anyone do any tests like that?”
-- ...мертву дружину та запитати в неї, де вона залишила загублену сережку чи
щось таке, -- завершив Гаррі. -- Хтось проводив такі досліди?

// 7598
//“The Resurrection Stone has been lost for centuries, Harry,” the Headmaster
//said quietly.
-- Воскресальний камінь втрачено вже століття тому, Гаррі, -- тихо сказав
директор.

// 7599
//Harry shrugged. “Well, I’m a scientist, and I’m always willing to be convinced.
//If you __really__ believe the Resurrection Stone calls back the dead -
//then you must believe a test like that will succeed, right? So do you know
//anything about where to find the Resurrection Stone? I got __one__ Deathly
//Hallow already under highly mysterious circumstances, and, well, we both know
//how the rhythm of the world works on that sort of thing.”
Гаррі знизав плечима.

-- Ну, я вчений, і завжди готовий бути переконаним. Якщо ви __справді__ вірите,
що воскресальний камінь викликає мертвих... то маєте вірити, що такий дослід
пройде успішно, так? Чи відомо вам щось про те, де знайти воскресальний камінь?
__Одна__ смертельна реліквія до мене потрапила за вкрай таємничих обставин, і,
ну, ми обидва знаємо, що трапляється далі згідно з ритмом світу.

// 7600
//Dumbledore stared at Harry.
Дамблдор витріщився на Гаррі.

// 7601
//Harry gazed equably back at the Headmaster.
У відповідь Гаррі не відводив свого погляду від директора.

// 7602
//The old wizard passed a hand across his forehead and muttered, “This is
//madness.”
Старий чарівник накрив чоло рукою та пробурмотів: "`Це божевілля.`"

// 7603
//(Somehow, Harry managed to stop himself from laughing.)
(Гаррі якимось чином вдалося зупинити свій сміх.)

// 7604
//And Dumbledore told Harry to draw forth the Cloak of Invisibility from his
//pouch; at the Headmaster’s direction, Harry stared at the inside and back of
//the hood until he saw it, faintly drawn against the silvery mesh in faded
//scarlet like dried blood, the symbol of the Deathly Hallows: a triangle, with a
//circle drawn inside, and a line dividing them both.
Тоді Дамблдор сказав Гаррі дістати з капшучка Плащ невидимості та подивитися
під каптур на його внутрішню сторону. Гаррі роздивлявся сріблясту тканину, доки
не побачив слабко намальований багряним, що скидався на засохлу кров, символ
смертельних реліквій: трикутник з колом всередині та лінію, що їх обох
розділяла.

// 7605
//“Thank you,” Harry said politely. “I shall be sure to keep an eye out for a
//stone so marked. Do you have any other evidence?”
-- Дякую, -- ввічливо сказав Гаррі. -- Я обовʼязково зверну увагу, якщо якийсь
камінь буде так позначено. Чи є у вас іще якісь свідчення?

// 7606
//Dumbledore appeared to be fighting a struggle within himself. “Harry,” the old
//wizard said, his voice rising, “this is a dangerous road you are walking, I am
//not sure I do the right thing by saying this, but I __must__ wrench you
//from this way! Harry, __how could Voldemort have survived the death of
//his body if he did not have a soul?__”
Видавалося, Дамблдор ніяк не міг на щось наважитися.

-- Гаррі, -- підвищеним тоном сказав старий чарівник, -- ти йдеш небезпечною
дорогою. Не знаю, чи варто це тобі казати, проте я __маю__ зіштовхнути тебе з
цього шляху! Гаррі, __як зміг би Волдеморт пережити смерть свого тіла, якби не
мав душі__?

// 7607
//And __that__ was when Harry realized that there was exactly one person
//who’d __originally__ told Professor McGonagall that the Dark Lord was
//still alive in the first place; and it was the crazy Headmaster of their
//madhouse of a school, who thought the world ran on cliches.
__Саме тоді__ Гаррі збагнув, що існувала лише одна людина, що розповіла
професорці Макґонеґел, що Темний Лорд досі живий. І цією людиною був схиблений
директор їхньої божевільні під назвою школа, і він вважав, що світом правлять
кліше.

// 7608
//“Good question,” Harry said, after some internal debate about how to proceed.
//“Maybe he found some way of duplicating the power of the Resurrection Stone,
//only he loaded it in advance with a __complete__ copy of his brain state.
//Or something like that.” Harry was suddenly far from sure that he was trying to
//come up with an explanation for something that had __actually happened__.
//“Actually, can you just go ahead and tell me everything you know about how the
//Dark Lord survived and what it might take to kill him?” __ If he even
//still exists as more than Quibbler headlines.__
-- Гарне питання, -- сказав Гаррі після нетривалих внутрішніх дебатів щодо
того, що робити далі. -- Можливо він винайшов якийсь спосіб відтворити силу
воскресального каменя, проте заздалегідь відвантажив у нього __повну__ копію
стану свого мозку. Чи щось таке, -- раптом Гаррі почав дуже сумніватися, чи він
шукав пояснення чомусь, що __справді сталося__. -- Взагалі-то, чи не могли б ви
одразу розказати мені все, що вам відомо про те, як вижив Темний Лорд, та що
треба зробити, щоб убити його?

__Якщо він взагалі існує поза заголовками "`Базікала`".__

// 7609
//“You are not fooling me, Harry,” said the old wizard; his face looked ancient
//now, and lined by more than years. “I know why you are truly asking that
//question. No, I do not read your mind, I do not have to, your hesitation gives
//you away! You seek the secret of the Dark Lord’s immortality in order to use it
//for yourself!”
-- Тобі не обдурити мене, Гаррі, -- сказав старий чарівник. Тепер його обличчя
видавалося справді древнім, з більшою кількістю зморшок, ніж мали б дати самі
роки. -- Я знаю істинну причину цього питання. Ні, я не читаю твої думки --
немає потреби. Твоє вагання видає тебе! Ти шукаєш таємниці безсмертя Темного
Лорда, щоб застосувати її для себе!

// 7610
//“Wrong! I want the secret of the Dark Lord’s immortality in order to use it for
//__everyone!__”
-- Помиляєтеся! Я хочу дізнатися таємницю безсмертя Темного Лорда, щоб
використати її для __всіх__!

***

// 7611
//Tick, crackle, fzzzt…
Цок, хрясь, фззз...

// 7612
//Albus Percival Wulfric Brian Dumbledore just stood there and stared at Harry
//with his mouth gaping open dumbly.
Албус Персіваль Вулфрик Браян Дамблдор стояв у своєму кабінеті та витріщався на
Гаррі з відвислою щелепою.

// 7613
//(Harry awarded himself a tally mark for Monday, since he’d managed to blow
//someone’s mind completely before the day was over.)
(Гаррі подумки поставив галочку навпроти понеділка, бо йому вдалося цілковито
винести комусь мозок, а день ще не завершився.)

// 7614
//“And in case it wasn’t clear,” said Harry, “by __everyone__ I mean all
//Muggles too, not just all wizards.”
-- І якщо це незрозуміло, -- сказав Гаррі, -- то під __усіма__ я маю на увазі і
маґлів теж, а не лише всіх чарівників.

// 7615
//“No,” said the old wizard, shaking his head. His voice rose. “No, no, no!
//__This is insanity!__”
-- Ні, -- сказав старий чарівник, хитаючи головою. Він підвищив голос. -- Ні
ні, ні! __Це божевілля!__

// 7616
//“Bwa ha ha!” said Harry.
-- Ва ха ха! -- сказав Гаррі.

// 7617
//The old wizard’s face was tight with anger and worry. “Voldemort stole the book
//from which he gleaned his secret; it was not there when I went to look for it.
//But this much I know, and this much I will tell you: his immortality was born
//of a ritual terrible and Dark, blacker than pitchest black! And it was Myrtle,
//poor sweet Myrtle, who died for it; his immortality took sacrifice, it took
//__murder -__”
Лице старого чарівника ледь стримувало злість та тривогу.

-- Волдеморт украв книжку, з якої він вивідав свій секрет. Її не було на місці,
коли я спробував її знайти. Але дещо я знаю, і принаймні це я скажу тобі: його
безсмертя створено за допомогою жахливого та темного ритуалу, чорнішого за
найчорніший! Мірта, бідолашна мила Мірта померла заради цього; його безсмертя
вимагало жертви, воно вимагало __вбивства__...

// 7618
//“Well __obviously__ I’m not going to popularize a method of immortality
//that requires killing people! That would defeat the __entire point!__”
-- Ну, __очевидно__, я не збираюся розповсюджувати метод безсмертя, що вимагає
вбивати людей! Це ж зіпсує __всю ідею__!

// 7619
//There was a startled pause.
Запанувала здивована тиша.

// 7620
//Slowly the old wizard’s face relaxed out of its anger, though the worry was
//still there. “You would use no ritual requiring human sacrifice.”
Злість повільно покинула обличчя старого чарівника, хоча тривога не зменшилася.

-- Ти не використовуватимеш ритуалів, що вимагають людських жертв.

// 7621
//“I don’t know what you take me for, __Headmaster,__” Harry said coldly,
//his own anger rising, “but let’s not forget that __I’m__ the one who wants
//people to __live!__ The one who wants to __save__ everyone!
//__You’re__ the one who thinks death is awesome and everyone ought to die!”
-- Не знаю, за кого ви мене приймаєте, __директоре__, -- холодно сказав Гаррі,
тепер уже в ньому здіймався гнів, -- але не забуваймо: це __я__ хочу, щоб люди
__жили__! Я хочу всіх __урятувати__! Це __ви__ вважаєте, що смерть чудова і всім
варто померти!

// 7622
//“I am at a loss, Harry,” said the old wizard. His feet once more began trudging
//across his strange office. “I know not what to say.” He picked up a crystal
//ball that seemed to hold a hand in flames, looked into it with a sad
//expression. “Only that I am greatly misunderstood by you… I don’t __want__
//everyone to die, Harry!”
-- Я розгублений, Гаррі, -- сказав старий чарівник. Він знову крокував своїм
дивним кабінетом. -- Я не знаю, що сказати, -- він підібрав кришталеву кулю, що
ніби містила руку, охоплену полумʼям, та подивився в неї із сумом. -- Лише
скажу, що ти мене вкрай неправильно зрозумів... Я __не хочу__, щоб усі померли,
Гаррі!

// 7623
//“You just don’t want anyone to be immortal,” Harry said with considerable
//irony. It seemed that elementary logical tautologies like __All x: Die(x)
//= Not Exist x: Not Die(x)__ were beyond the reasoning abilities of the world’s
//most powerful wizard.
-- Ви лише не хочете, щоб хтось був безсмертним, -- сказав Гаррі з помітною
іронією. Видавалося, елементарні логічні тавтології на кшталт __Усі x:
Померти(x) = Не існує x: Не померти(x)__ були поза міркувальними здібностями
наймогутнішого чарівника у світі.

// 7624
//The old wizard nodded. “I am less afraid than I was, but still greatly worried
//for you, Harry,” he said quietly. His hand, a little wizened by time, but still
//strong, placed the crystal ball firmly back into its stand. “For the fear of
//death is a bitter thing, an illness of the soul by which people are twisted and
//warped. Voldemort is not the only Dark Wizard to go down that bleak road,
//though I fear he has taken it further than any before him.”
Старий чарівник кивнув.

-- Тепер я боюся менше, проте досі дуже непокоюся за тебе, Гаррі, -- тихо
сказав він, його зморшкувата, проте досі сильна рука поставила кришталеву кулю
на місце. -- Бо страх смерті -- це гірка річ, хвороба душі, що викривляє й
псує людей. Волдеморт -- не єдиний темний чарівник, що пішов цим сумним шляхом,
хоча, боюся, він зайшов далі, ніж будь-хто інший.

// 7625
//“And you think __you’re__ not afraid of death?” Harry said, not even
//trying to mask the incredulity in his voice.
-- І ви вважаєте, що __ви__ не боїтеся смерті? -- запитав Гаррі, навіть
не приховуючи недовіру.

// 7626
//The old wizard’s face was peaceful. “I am not perfect, Harry, but I think I
//have accepted my death as part of myself.”
Обличчя старого чарівника було спокійним.

-- Я не бездоганний, Гаррі, але, гадаю, я прийняв свою смерть як частину себе.

// 7627
//“Uh huh,” Harry said. “See, there’s this little thing called __cognitive
//dissonance,__ or in plainer English, __sour grapes.__ If people were hit on
//the heads with truncheons once a month, and no one could do anything about it,
//pretty soon there’d be all sorts of philosophers, __pretending to be
//wise__ as you put it, who found all sorts of __amazing benefits__ to being
//hit on the head with a truncheon once a month. Like, it makes you tougher, or
//it makes you happier on the days when you’re __not__ getting hit with a
//truncheon. But if you went up to someone who __wasn’t__ getting hit, and
//you asked them if they wanted to __start__, in exchange for those
//__amazing benefits,__ they’d say no. And if you __didn’t__ have to
//die, if you came from somewhere that no one had ever even __heard__ of
//death, and I suggested to you that it would be an __amazing wonderful
//great idea__ for people to get wrinkled and old and eventually cease to exist,
//why, you’d have me hauled right off to a lunatic asylum! So why would anyone
//possibly think any thought so silly as that death is a __good__ thing?
//Because you’re afraid of it, because you don’t __really__ want to die, and
//that thought hurts so much inside you that you have to rationalize it away, do
//something to numb the pain, so you won’t have to think about it -”
-- Егем. Розумієте, є така маленька штука під назвою __когнітивний дисонанс__,
чи по-простому "`виноград ще зелений`". Якщо людей бити по голові палицею раз
на місяць, і ніхто з цим нічого не може вдіяти, то невдовзі зʼявляються
найрізноманітніші філософи, що __вдаватимуть мудрість__, як ви кажете: вони
знайдуть усілякі __неймовірні переваги__ того, що їх бʼють по голові раз на
місяць. Наприклад, це робить вас витривалішим, чи робить вас щасливішим у ті
дні, коли ви __не__ отримуєте палицею по голові. Але якщо знайти когось, кого
__не бʼють__, і запитати в нього, чи бажає він __приєднатися__ заради всіх цих
__неймовірних переваг__, вони відмовляться. І якби вам __не треба__ було
помирати, якби ви виросли десь, де ніхто ніколи навіть не __чув__ про смерть, і
я розповів би вам, яка це __неймовірно чудова неперевершена ідея__, щоб люди
старішали та припиняли своє існування, то, а як інакше, ви б відправили мене до
притулку для людей з проблемами з головою! То чого ж комусь може спасти на
думку щось настільки дурне як "`смерть -- це __добре__`"? Бо ви боїтеся смерті,
бо __насправді__ ви не хочете помирати, і ця думка така болісна, що ви
вигадуєте раціоналізації, щоб притлумити біль, щоб не треба було про це
думати...

// 7628
//“No, Harry,” the old wizard said. His face was gentle, his hand trailed through
//a lighted pool of water that made small musical chimes as his fingers stirred
//it. “Though I can understand how you must think so.”
-- Ні, Гаррі, -- сказав старий чарівник. Його обличчя було добрим, його рука
занурилася в ставок, що тихо музикально дзеленчав від порухів пальців. -- Хоча я
розумію, чому ти так вважаєш.

// 7629
//“Do you want to understand the Dark Wizard?” Harry said, his voice now hard and
//grim. “Then look within the part of yourself that flees not from death but from
//the __fear__ of death, that finds that fear so unbearable that it will
//embrace Death as a friend and cozen up to it, try to become one with the night
//so that it can think itself master of the abyss. You have taken the most
//terrible of all evils and called it good! With only a slight twist that same
//part of yourself would murder innocents, and call it friendship. If you can
//call death better than life then you can twist your moral compass to point
//__anywhere -__”
-- Хочете зрозуміти темних чарівників? -- запитав Гаррі, тепер його голос був
твердим та суворим. -- Тоді знайдіть у собі ту частину, що тікає не від смерті,
а від __страху__ смерті, що вважає страх таким нестерпним, що готова дружньо
обійняти смерть та заснути поряд з нею, намагається зʼєднатися з ніччю, щоб
вважати себе господаркою прірви. Ви вибрали найжахливіше зло та назвали його
добром! Достатньо лише трохи змінити цю частину, щоб почати вбивати невинних та
називати це дружбою. Якщо ви готові вважати, що смерть ліпше за життя, то ваш
моральний компас можна перекрутити __у будь-якому напрямку__...

// 7630
//“I think,” said Dumbledore, shaking water droplets from his hand to the sound
//of tiny tinkling bells, “that you understand Dark Wizards __very__ well,
//without yet being one yourself.” It was said in perfect seriousness, and
//without accusation. “But your comprehension of __me__, I fear, is sorely
//lacking.” The old wizard was smiling now, and there was a gentle laughter in
//his voice.
-- Гадаю, -- сказав Дамблдор, струшуючи краплі води з руки, що призводило
до звуку крихітних дзвоників, -- що ти розумієш темних чарівників __дуже__
добре попри те, що ти не один з них, -- це було сказано цілковито серйозно і
без тіні звинувачення. -- Але твоє уявлення про __мене__, боюся, глибоко
хибне.

Тепер старий чарівник усміхався. І в його голосі чувся сміх.

// 7631
//Harry was trying not to go any colder than he already was; from somewhere there
//was pouring into his mind a blazing fury of resentment, at Dumbledore’s
//condescension, and all the laughter that wise old fools had ever used in place
//of argument. “Funny thing, you know, I thought Draco Malfoy was going to be
//this impossible to talk to, and instead, in his childish innocence, he was a
//hundred times stronger than you.”
Гаррі намагався не занурюватися в холод ще глибше. Звідкілясь у його розумі
зʼявилася гарячкова лють та відраза до зверхності Дамблдора, до усього цього
сміху, що старі мудрі ду{stress}рні використовували замість аргументів.

-- Кумедно, знаєте, а я гадав, що це з Драко Мелфоєм буде настільки складно
розмовляти, але він, натомість, у дитячій невинності виявився в сотню разів
сильнішим за вас.

// 7632
//A look of puzzlement crossed the old wizard’s face. “What do you mean?”
На лиці старого чарівника промайнуло здивування.

-- Що ти маєш на увазі?

// 7633
//“I mean,” Harry said, his voice biting, “that Draco actually __took his
//own beliefs seriously__ and __processed__ my words instead of
//__throwing them out the window__ by smiling with gentle superiority.
//You’re so old and wise, you can’t even __notice__ anything I’m saying! Not
//understand, __notice!__”
-- Я маю на увазі, -- злобно кинув Гаррі, -- що Драко справді __серйозно
розглянув свої погляди__ і __сприйняв__ мої слова, а не просто __пустив їх повз
вуха__, посміхаючись з легкою зверхністю. Ви такий старий та мудрий, ви навіть
не __помічаєте__ моїх слів! Я вже не кажу про розуміння, навіть __не
помічаєте__!

// 7634
//“I __have__ listened to you, Harry,” said Dumbledore, looking more solemn
//now, “but to listen is not always to agree. Disagreements aside, what is it
//that you think I do not comprehend?”
-- Я __вислухав__ тебе, Гаррі, -- сказав Дамблдор, тепер більш поважно, -- але
слухати не завжди означає погоджуватися. Забудьмо про наші розбіжності в поглядах;
що саме, ти вважаєш, я не розумію?

// 7635
//__That if you __really__ believed in an afterlife, you’d go down to
//St. Mungo’s and kill Neville’s parents, Alice and Frank Longbottom, so they
//could go on to their __next great adventure__, instead of letting them
//linger here in their damaged state -__
__Що якби ви __справді__ вірили у загробне життя, то ви б пішли до лікарні
Святого Мунґа та вбили б батьків Невіла -- Алісу та Френка Лонґботомів, щоб
вони перейшли до своєї __ще однієї цікавої пригоди__, а не дозволили б їм
затримуватися тут у пошкодженому стані...__

// 7636
//Harry barely, __barely__ kept himself from saying it out loud.
Гаррі ледве-__ледве__ вдалося втриматися й не сказати цього вголос.

// 7637
//“All right,” Harry said coldly. “I’ll answer your original question, then. You
//asked why Dark Wizards are afraid of death. Pretend, Headmaster, that you
//__really__ believed in souls. Pretend that anyone could verify the
//existence of souls at any time, pretend that nobody cried at funerals because
//they __knew__ their loved ones were still alive. Now can you imagine
//__destroying__ a soul? Ripping it to shreds so that nothing remains to go
//on its next great adventure? Can you imagine what a terrible thing that would
//be, the worst crime that had ever been committed in the history of the
//universe, which you would do anything to prevent from happening even once?
//Because __that’s __what Death really is - the annihilation of a soul!”
-- Гаразд, -- холодно сказав Гаррі. -- Тоді я відповім на ваше перше питання.
Ви цікавилися, чому темні чарівники бояться смерті. Вдайте, директоре, ніби ви
__справді__ вірите в душі. Вдайте, що будь-хто може пересвідчитися в існуванні
душ будь-коли, вдайте, що ніхто не плаче на похоронах, бо вони __знають__, що
ті, кого вони люблять, досі живі. Тепер, чи можете ви уявити __знищення__ душі?
Роздирання її на шматки, щоб нічого не залишилося для ще однієї цікавої
пригоди? Уявляєте, як це буде жахливо, найжахливіший злочин за всю історію
всесвіту? Що ви б зробили, щоб запобігти цьому? Бо __ось__ що таке смерть
насправді -- анігіляція душі!

// 7638
//The old wizard was staring at him, a sad look in his eyes. “I suppose I
//__do__ understand now,” he said quietly.
Старий чарівник розглядав його сумними очима.

-- Гадаю, я __справді__ тепер розумію, -- тихо сказав він.

// 7639
//“Oh?” said Harry. “Understand what?”
-- Га? Розумієте що?

// 7640
//“Voldemort,” said the old wizard. “I understand him now at last. Because to
//believe that the world is truly like that, you must believe there is no justice
//in it, that it is woven of darkness at its core. I asked you why he became a
//monster, and you could give no reason. And if I could ask __him__, I
//suppose, his answer would be: Why not?”
// hedrok: "Why not" - копія в 084:14834
-- Волдеморта, -- сказав старий чарівник. -- Нарешті я його розумію. Бо якщо
вірити, що світ справді такий, то маєш вірити, що у світі немає справедливості,
що його зіткано з темряви. Я спитав тебе, навіщо він став чудовиськом, і ти
не зміг навести мені причини. Але якби я міг запитати __його__, гадаю, відповідь
була б "`Чом би й ні?`"

***

// 7641
//They stood there gazing into each other’s eyes, the old wizard in his robes,
//and the young boy with the lightning-bolt scar on his forehead.
Вони стояли й незмигно дивилися один одному в очі: старий чарівник у мантії та
хлопчик зі шрамом у формі блискавки на чолі.

// 7642
//“Tell me, Harry,” said the old wizard, “will __you__ become a monster?”
-- Скажи мені, Гаррі, чи станеш __ти__ чудовиськом?

// 7643
//“No,” said the boy, an iron certainty in his voice.
-- Ні, -- сказав хлопець зі сталевою впевненістю.

// 7644
//“Why not?” said the old wizard.
-- Чом би й ні? -- запитав старий чарівник.

// 7645
//The young boy stood very straight, his chin raised high and proud, and said:
//“There is no justice in the laws of Nature, Headmaster, no term for fairness in
//the equations of motion. The universe is neither evil, nor good, it simply does
//not care. The stars don’t care, or the Sun, or the sky. But they don’t have to!
//__We __care! There __is__ light in the world, and it is __us!__”
Хлопчик стояв дуже струнко, з високо й гордо піднятим підборіддям, та сказав:

-- У законах природи, директоре, немає справедливості. У рівняннях руху не
існує множника чесності. Всесвіт ані злий, ані добрий, йому просто байдуже.
Зіркам байдуже, сонцю, небу. Але й гаразд! __Нам__ не байдуже! У світі __є__
світло, і це __ми__!

// 7646
//“I wonder what will become of you, Harry,” said the old wizard. His voice was
//soft, with a strange wonder and regret in it. “It is enough to make me wish to
//live just to see it.”
-- Цікаво, ким ти станеш, Гаррі, -- сказав старий чарівник. Його голос був
лагідним, його сповнювала дивна цікавість та жаль. -- Достатньо цікаво,
щоб мені хотілося жити, аби побачити це.

// 7647
//The boy bowed to him with heavy irony, and departed; and the oaken door slammed
//shut behind him with a thud.
Хлопець іронічно вклонився та пішов. Дубові двері грюкнули за його спиною.
