// 8906
//== Prior Information
== Розділ 49. Апріорна інформація

// 8907
//A boy waits at a small clearing at the edge of the non-forbidden forest, beside
//a dirt trail that runs back to the gates of Hogwarts in one direction, and off
//into the distance in another. There is a carriage nearby, and the boy is
//standing well away from it, looking at it, his eyes seldom wavering from its
//direction.
Хлопчик чекає на полянці край незабороненого лісу, біля ґрунтової стежки, що
прямує назад до воріт Гоґвортсу в одному напрямку і кудись у далину в іншому.
Неподалік стоїть диліжанс, і хлопчик дивиться на нього з деякої відстані, лише
подеколи відвертаючи погляд.

// 8908
//In the distance, a figure is approaching along the dirt path: A man wearing
//professorial robes, trudging slowly with his shoulders slumped low, his formal
//shoes kicking up small clouds of dust as he walks.
Стежкою віддалік наближається силует: чоловік, одягнений у професорську мантію,
плентається, опустивши плечі, а його туфлі здіймають клубочки пилу.

// 8909
//Half a minute later, the boy darts another quick glance before returning to his
//surveillance; and this glimpse shows that the man’s shoulders have
//straightened, his face unslackened, and that his shoes are now walking lightly
//across the dirt, leaving not a trace of dust in the air behind.
За пів хвилини хлопчик ще раз відвів погляд, а потім продовжив спостерігати за
диліжансом. Цього короткого погляду було достатньо, щоб помітити, що плечі
чоловіка випрямилися, обличчя посвіжішало, а йшов він не здіймаючи жодної
пилинки.

// 8910
//“Hello, Professor Quirrell,” Harry said without letting his eyes move again
//from the direction of their carriage.
-- Вітаю, професоре Квірел, -- не відриваючи погляду від диліжансу сказав
Гаррі.

// 8911
//“Salutations,” said the calm voice of Professor Quirrell. “You seem to be
//keeping your distance, Mr. Potter. I don’t suppose you see something odd about
//our conveyance?”
// hedrok odd/even https://gitlab.com/hpimr/hpimr/issues/324
-- Салют, -- пролунав виважений голос професора Квірела. -- Видається, ви тримаєте
дистанцію, містере Поттер. Невже ви побачили в нашому диліжансі щось неприродне?

// 8912
//“Odd?” Harry echoed. “Why no, I can’t say I see anything odd. There seem to be
//even numbers of everything. Four seats, four wheels, two huge skeletal winged
//horses…”
-- Неприродне? -- відгукнувся Гаррі. -- Та ні, не бачу нічого неприродного.
Природні сидіння, природні колеса, природні здоровезні схожі на скелети крилаті
коні...

// 8913
//A skin-wrapped skull turned to look at him and flashed teeth, solid and white
//in that black cavernous mouth, as though to indicate that it was just about as
//fond of him as he was of it. The other black leathery horse-skeleton tossed its
//head like it was whickering, but there was no sound.
Обтягнутий шкірою череп обернувся до нього і оскалив зуби, білі та міцні, у
схожій на печеру чорній пащі, наче хотів показати, що Гаррі йому подобався не
більше, ніж він Гаррі. Другий чорний шкірястий скелет-кінь закинув голову, ніби
іржав, але жодного звуку чутно не було.

// 8914
//“They are Thestrals, and they have always drawn the carriage,” Professor
//Quirrell said, sounding quite undisturbed as he climbed into the front bench of
//the carriage, sitting down as far to the right as possible. “They are visible
//only to those who have seen death and comprehended it, a useful defense against
//most animal predators. Hm. I suppose that the first time you went in front of
//the Dementor, your worst memory proved to be the night of your encounter with
//He-Who-Must-Not-Be-Named?”
-- Це тестрали, і вони завжди тягнули цей диліжанс, -- спокійно сказав
професор Квірел. Він заліз на переднє сидіння, намагаючись триматись якомога правіше.
-- Вони видимі лише тим, хто бачив смерть і усвідомив це. Гарний захист від більшості
тварин-хижаків. Гм. Припускаю, що за першого досвіду з дементором вашим найстрашнішим
спогадом виявилася ніч вашої зустрічі з Тим-Кого-Не-Можна-Називати?

// 8915
//Harry nodded grimly. It was the right guess, even if for the wrong reasons.
//__Those who have seen Death…__
Гаррі похмуро кивнув. Це була правильна здогадка, хоча й помилкові аргументи.
__Ті, хто бачив Смерть…__

// 8916
//“Did you recall anything of interest, thereby?”
-- До речі, чи згадали ви щось цікаве?

// 8917
//“Yes,” Harry said, “I did,” only that and nothing more, for he was not ready as
//yet to make accusations.
// Ельвіра: only that and nothing more - може це й збіг, але беру з перекладу
// Грабовського "The Raven" Едґара По
-- Так, згадав, -- сказав Гаррі. Тільки це і більш нічого. Він був ще не
готовий висувати звинувачення.

// 8918
//The Defense Professor smiled one of his dry smiles, and beckoned with an
//impatient finger.
Професор із захисту посміхнувся однією зі своїх нещирих посмішок і нетерпляче
вказав на сидіння.

// 8919
//Harry closed the distance and climbed into the carriage, wincing. The sense of
//doom had grown significantly stronger after the day of the Dementor, even
//though it had been slowly weakening before then. The greatest distance that the
//carriage allowed him from Professor Quirrell no longer seemed like nearly far
//enough.
Гаррі скоротив відстань і, здригнувшись, заліз у диліжанс. Після зустрічі з
дементором відчуття невідворотного значно посилилося, хоча перед тим повільно
згасало. Найбільша дистанція, яку забезпечувало сидіння, більше не здавалася йому
анітрохи достатньою.

// 8920
//Then the skeletal horses trotted forward and the carriage started in motion,
//taking them toward the outer bounds of Hogwarts. As it did, Professor Quirrell
//slumped back down into zombie-mode, and the sense of doom retreated, though it
//still hovered at the edge of Harry’s perceptions, unignorable…
Потім кістляві коні риссю побігли вперед, і диліжанс поніс їх до зовнішньої
межі Гоґвортсу. Тим часом професор Квірел повернуся до свого режиму зомбі, і
відчуття невідворотного відступило, хоча й не настільки, щоб його можна було
ігнорувати.

// 8921
//The forest scrolled by as the carriage rolled along, the trees moving past at a
//speed that seemed positively glacial by comparison to broomsticks or even cars.
//There was something oddly relaxing, Harry thought, about traveling that slowly.
//It had certainly relaxed the Defense Professor, who was slumped over with a
//small stream of drool coming out of his slack mouth and puddling on his robes.
З диліжансу було видно, як проминав ліс. Дерева віддалялись
не так швидко, як під час руху на мітлі чи машиною. Таке повільне
пересування якось розслабляло, подумав Гаррі. Хто точно розслабився, то це
професор із захисту, який розвалився на сидінні і пускав слину собі на мантію.

// 8922
//Harry still hadn’t decided what he was allowed to eat for lunch.
Гаррі й досі не вирішив, що йому можна з'їсти на обід.

// 8923
//His library research hadn’t turned up any sign of wizards speaking to
//nonmagical plants. Or any other nonmagical animals besides snakes, although
//__Spell and Speak__ by Paul Breedlove had recounted the probably-mythical
//tale of a sorceress called the Lady of Flying Squirrels.
Під час пошуків у бібліотеці він не знайшов жодної згадки про чаклунів, що можуть
розмовляти з немагічними рослинами чи тваринами, окрім змій. Хоча в "`__Говори
та Заклинай__`" Пола Брідлова щось говорилось про напівміфічну
відьму, що її прозвали повелителькою летючих білок.

// 8924
//What Harry __wanted__ to do was ask Professor Quirrell. The problem was
//that Professor Quirrell was __too smart__. Judging by what Draco had said,
//the Heir of Slytherin business was a major bombshell, and Harry wasn’t sure he
//wanted anyone else to know. And the instant Harry asked about Parseltongue,
//Professor Quirrell would fix him with those pale blue eyes and say, ‘I see, Mr.
//Potter, so you taught Mr. Malfoy the Patronus Charm and accidentally spoke to
//his snake.’
Чого Гаррі __хотілося__, так це розпитати професора Квірела. Та професор був
занадто розумним, і це було проблемою. Судячи з того, що сказав Драко, все, що
стосувалося нащадка Слизерина, було чималою сенсацією. І Гаррі не був впевнений,
що варто дозволяти дізнатися про цю справу комусь іще. Бо тієї ж миті, як Гаррі спитає про
парселмову, професор зиркне на нього своїми блідо-блакитними очима і скаже:
"`Я так розумію, містере Поттер, що ви навчили містера Мелфоя чарам патронуса
і випадково заговорили до його змії?`"

// 8925
//It wouldn’t __matter__ that it shouldn’t be enough evidence to locate the
//true explanation as a hypothesis, let alone overcome its burden of prior
//improbability. Somehow the Defense Professor would deduce it __anyway__.
//There were times when Harry suspected that Professor Quirrell had way more
//background information than he was telling, his priors were simply too good.
//Sometimes he got his amazing deductions right even when his __reasons__
//were wrong. The problem was that Harry couldn’t see how Professor Quirrell
//could’ve snuck in an extra clue about half the stuff he guessed. Just
//__once__ Harry would have liked to make some sort of incredible deduction
//from something Professor Quirrell said which would catch __him__
//completely off guard.
І __начхати__, що самого цього питання недостатньо для визначення
правди і формування гіпотези, а тим більше для спростування її апріорної малоймовірності.
Професор із захисту __все одно__ якимось чином дійде такого висновку. Гаррі вже подеколи
підозрював, що професор Квірел має значно більше відомостей, ніж каже, -- його
попередні припущення були аж занадто вдалими. Інколи він робив свої карколомні висновки,
навіть якщо його __аргументи__ були помилковими. Справа була в тому, що Гаррі не розумів
хід думок професора Квірела в більшості його припущень. Гаррі хотілося __бодай раз__
піймати професора на чомусь, захопити __його__ зненацька своїми блискучими доводами.

***

// 8926
//“I shall have a bowl of green lentil soup, with soy sauce,” Professor Quirrell
//said to the waitress. “And for Mr. Potter, a plate of Tenorman’s family chili.”
-- Мені супу з зеленої сочевиці з соєвим соусом, -- сказав професор
Квірел офіціантці. -- Щодо містера Поттера, то йому тарілку чилі за сімейним
рецептом Тенормана.

// 8927
//Harry hesitated in sudden dismay. He’d resolved to stick to vegetarian dishes
//for the moment, but he’d forgotten in his deliberations that Professor Quirrell
//did the __actual ordering __- and it would be awkward if he protested now
//-
Гаррі почувався застигнутим зненацька. Він вже був вирішив обмежитися тільки
вегетаріанськими стравами, але у своїх роздумах не врахував, що замовлення
робитиме __професор Квірел__... та заперечувати тепер вже було незручно...

// 8928
//The waitress bowed to them, and turned to go -
Офіціантка поклонилась їм і зібралася йти...

// 8929
//“Erm, excuse me, any meat in that from snakes or flying squirrels?”
-- Ем, перепрошую. А чи містить ця страва мʼясо змій чи летючих білок?

// 8930
//The waitress didn’t so much as blink an eye, only turned back to Harry, shook
//her head, bowed politely to him again, and resumed her walk toward the door.
Офіціантка навіть бровою не повела, тільки повернулась до Гаррі, похитала головою,
ще раз ввічливо вклонилася до нього та пішла до дверей.

// 8931
//(The other parts of Harry were snickering at him. Gryffindor was making
//sardonic comments about how a little social discomfort was enough to get him to
//resort to __Cannibalism!__ (shouted by Hufflepuff), and Slytherin was
//remarking on how nice it was that Harry’s ethics were flexible when it came to
//important goals like maintaining his relationship with Professor Quirrell.)
(Внутрішні особистості Гаррі насміхалися з нього. Ґрифіндорець робив єхидні зауваження
щодо того, що трохи соціального дискомфорту достатньо, щоб схилити його до
__канібалізму!__ (цю частину прокричав гафелпафець). А слизеринець похвалив Гаррі за
гнучкість моралі, коли дійшло до такої важливої справи, як підтримка його стосунків з
професором Квірелом.)

// 8932
//After the waitress had closed the door behind her, Professor Quirrell waved a
//hand to slide home the locking bar, spoke the usual four Charms to ensure
//privacy, and then said, “An interesting question, Mr. Potter. I wonder why you
//asked it?”
Коли офіціантка зачинила за собою двері, професор Квірел помахом руки замкнув
їх на клямку, використав звичайні чотири види чарів для забезпечення конфіденційності
розмови і сказав:

-- Яке цікаве запитання, містере Поттер. Чому ви його поставили?

// 8933
//Harry kept his face steady. “I was looking up some facts about the Patronus
//Charm earlier,” he said. “According to __The Patronus Charm: Wizards Who
//Could and Couldn’t,__ it turns out that Godric couldn’t and Salazar could. I was
//surprised, so I looked up the reference, in __Four Lives of Power.__ And
//__then__ I discovered that Salazar Slytherin could supposedly talk to
//snakes.” (Temporal sequence wasn’t the same as causation, it wasn’t Harry’s
//fault if Professor Quirrell missed that.) “Further research turned up an old
//story about a mother goddess type who could talk to flying squirrels. I was a
//bit worried about the prospect of eating something that could talk.”
Гаррі зберігав нейтральний вираз обличчя.

-- Нещодавно я досліджував чари патронуса, -- сказав він. -- Згідно з
"`__Чари патронуса: чародії, що могли і не могли__`" виходить, що Ґодрик не міг, а
Салазар -- міг. Я був дещо здивований, тож звернувся до зазначеного джерела, до
"`__Чотири Життя Сили__`". І __тоді__ виявилося, що Салазар Слизерин, можливо, міг
розмовляти зі зміями, -- (послідовність у часі і причинно-наслідковий зв'язок
це не одне й те саме, і не Гаррі винен, якщо професор Квірел цього не помітить).
-- Подальші пошуки виявили богиню-мати, що могла розмовляти з летючими білками.
Тому я був дещо занепокоєний перспективою з'їсти щось, що гіпотетично могло
розмовляти.

// 8934
//And Harry took a casual sip of his water -
І Гаррі спокійно відпив води...

// 8935
//- just as Professor Quirrell said, “Mr. Potter, would I be correct in guessing
//that you are also a Parselmouth?”
...саме тоді, коли професор Квірел сказав:

-- Чи не помилюся я, містере Поттер, якщо припущу, що ви також парселмовець?

// 8936
//When Harry was done coughing, he set his glass of water back down on the table,
//fixed his gaze on Professor Quirrell’s chin rather than looking him in the
//eyes, and said, “So you are able to perform Legilimency through my Occlumency
//barriers, then.”
Коли Гаррі закінчив кашляти, він поставив склянку з водою назад на стіл.
Він не дивився професорові Квірелу в очі, натомість зупинивши погляд на його підборідді.

-- Тож ви здатні провести виманологію крізь мої блокологічні барʼєри.

// 8937
//Professor Quirrell was grinning widely. “I shall take that as a compliment, Mr.
//Potter, but no.”
Професор Квірел широко посміхнувся.

-- Сприйматиму це як комплімент, містере Поттер. Але ні.

// 8938
//“I’m not buying this anymore,” Harry said. “There’s no __way__ you came to
//that conclusion based on that evidence.”
-- Я на це більше не куплюся, -- сказав Гаррі. -- Ви __аж ніяк__ не могли дійти
таких висновків на основі цих свідчень.

// 8939
//“Of course not,” Professor Quirrell said equably. “I had planned to ask you
//that question today in any case, and simply chose an opportune moment. I have
//suspected since December, in fact -”
-- Звісно ні, -- спокійно сказав професор Квірел, -- я в будь-якому разі збирався спитати
вас про це сьогодні, і просто вибрав вдалий момент. Взагалі-то, я підозрював ще з грудня.

// 8940
//“__December?__” said Harry. “I found out __yesterday!__”
-- __Грудня?__ -- сказав Гаррі. -- Я дізнався __вчора!__

// 8941
//“Ah, so you did not realize the Sorting Hat’s message to you was in
//Parseltongue?”
-- Тож ви не збагнули, що повідомлення Сортувального Капелюха звучало
парселмовою?

// 8942
//The Defense Professor had timed it exactly right the second time, too, just as
//Harry was taking a gulp of water to clear out his throat from the first
//coughing fit.
Професор із захисту знову вибрав вдалий момент. Саме тоді, коли Гаррі пригубив
воду, щоб прочистити горло після того, як вдавився вперше.

// 8943
//Harry __hadn’t__ realized, not until just now. Of course it was obvious
//the instant Professor Quirrell said it. Right, Professor McGonagall had even
//__told__ him not to talk to snakes where anyone could see him, but he’d
//thought she’d meant not to be seen talking to any statues or architectural
//features in Hogwarts that looked like snakes. Double illusion of transparency,
//he’d thought he understood her, she’d thought he understood her - but
//__how__ the __hell -__
Гаррі __не__ збагнув до цієї миті. Це стало очевидним, щойно
професор Квірел це озвучив. Звісно, професорка Макґонеґел навіть __сказала__
йому не говорити до змій, коли хтось може його побачити. Але він думав, що вона
має на увазі не бути поміченим, поки розмовляєш до якихось статуй чи
архітектурних витворів у Гоґвортсі, що виглядають як змії. Подвійна ілюзія прозорості:
він думав, що розуміє її, вона -- що він її зрозумів... але __як, чорт забирай...__

// 8944
//“So,” Harry said, “you performed Legilimency on me during my first Defense
//class, to find out what happened with the Sorting Hat -”
-- Тож, -- сказав Гаррі, -- ви застосували виманологію на мені під час мого першого
заняття із захисту, бо хотіли дізнатися, що сталося із Сортувальним Капелюхом...

// 8945
//“Then I would not have found out in December.” Professor Quirell leaned back,
//smiling. “This is not a puzzle you can solve on your own, Mr. Potter, so I will
//reveal the answer. Over the winter holiday, I was alerted to the fact that the
//Headmaster had filed a request for a closed judicial panel to review the case
//of one Mr. Rubeus Hagrid, whom you know as the Keeper of Keys and Grounds at
//Hogwarts, and who was accused of the murder of Abigail Myrtle in 1943.”
-- Тоді б я не дізнався про це у грудні, -- професор Квірел відкинувся на спинку
крісла й посміхнувся. -- Ця задача не з тих, які ви могли б вирішити самостійно,
тож я просто відкрию вам відповідь. Під час зимових канікул мою увагу привернув
запит директора до закритої судової колегії щодо перегляду справи
містера Рубеуса Геґріда, що відомий вам як ключник і охоронець дичини у
Гоґвортсі. Його було звинувачено у вбивстві Ебіґейл Міртл у 1943 році.

// 8946
//“Oh, of course,” said Harry, “that makes it downright __obvious __that I’m
//a Parselmouth. Professor, __what__ the sweet slithering snakes -”
// hedrok: the sweet slithering snakes копія 046:8380
-- О, звісно ж, -- сказав Гаррі, -- тепер абсолютно __очевидно__, що я парселмовець.
Професоре, __що__, заради всіх повзучих змій...

// 8947
//“The __other__ suspect for that murder was Slytherin’s Monster, the
//legendary inhabitant of Slytherin’s Chamber of Secrets. Which is why certain
//sources alerted me to the fact, and why it caught my attention sufficiently
//that I spent a good deal of bribe money to learn the details of the case. Now
//in point of fact, Mr. Potter, Mr. Hagrid is innocent. Ridiculously obviously
//innocent. He is the most blatantly innocent bystander to be convicted by the
//magical British legal system since Grindelwald’s Confunding of Neville
//Chamberlain was pinned on Amanda Knox. Headmaster Dippet prompted a student
//puppet to accuse Mr. Hagrid because Dippet needed a scapegoat to take the blame
//for the death of Miss Myrtle, and our marvelous justice system agreed that this
//was plausible enough to warrant Mr. Hagrid’s expulsion and the snapping of his
//wand. Our current Headmaster needs merely provide some new item of evidence
//significant enough to reconvene the case; and with Dumbledore applying pressure
//instead of Dippet, the result is a foregone conclusion. Lucius Malfoy has no
//particular reason to fear Mr. Hagrid’s vindication; thus Lucius Malfoy will
//only resist to the extent that he can do so costlessly in order to impose costs
//on Dumbledore, and Dumbledore is clearly willing to prosecute the case
//regardless.”
-- __Іншим__ підозрюваним за цією справою був монстр Слизерина, легендарний мешканець
Таємної кімнати. Саме тому дехто вирішив повідомити мене про цей факт, і
тому він настільки привернув мою увагу, що я витратив значну суму на хабар і
вивчив деталі справи. Містер Геґрід насправді невинний, містере Поттер. До
смішного очевидно, що невинний. Відтоді, як Невіла Чемберлена конфунднув Ґріндельвальд,
а повісили це на Аманду Нокс, Геґрід -- найбільш несправедливо засуджений правовою
системою чаклунської Британії очевидець. Директор Діпіт спонукав учня-маріонетку
звинуватити містера Геґріда, бо Діпіту потрібен був цап-відбувайло, на якого
можна було б звалити вину за смерть міс Міртл. А наша дивовижна система правосуддя
погодилась, що цього цілком достатньо для того, щоб розпорядитися виключити містера
Геґріда зі школи та зламати його паличку. Нашому поточному директору достатньо надати
докази досить вагомі, щоб ініціювати повторне розслідування справи. Тепер, коли
Дамблдор тисне на важелі замість Діпіта, результат передбачуваний. Містер
Мелфой не має конкретних причин боятися виправдання містера Геґріда, тож
він буде чинити супротив, доки це йому нічого не коштуватиме, тільки для того,
щоб це обійшлося коштовніше Дамблдорові, який вочевидь має на меті доведення
справи до кінця.

// 8948
//Professor Quirrell took a sip of his water. “But I digress. The new evidence
//that the Headmaster promises to provide is to exhibit a previously undetected
//spell on the Sorting Hat, which, the Headmaster asserts, he has personally
//determined to respond only to Slytherins who are also Parselmouths. The
//Headmaster further argues that this favors the interpretation that the Chamber
//of Secrets was indeed opened in 1943, approximately the right time frame for
//He-Who-Must-Not-Be-Named, a known Parselmouth, to have attended Hogwarts. It is
//a rather questionable logic, but a judicial panel may rule that it swings the
//case far enough to bring Mr. Hagrid’s guilt into doubt, if they can manage to
//keep a straight face as they say it. And now we come to the key question:
//__how __did the Headmaster discover this hidden spell on the Sorting Hat?”
Професор Квірел відпив ковток води.

-- Але я відхиляюся від теми. Новий доказ, який директор обіцяє надати -- це
висвітити приховане до того закляття на Сортувальному Капелюсі, що воно,
як він сам виявив, звертається лише до слизеринців, що є парселмовцями. Таким чином
Дамблдор аргументує, що у 1943 році Таємну кімнату цілком імовірно було відчинено.
Це приблизно той проміжок часу, коли Той-Кого-Не-Можна-Називати, відомий
парселмовець, відвідував Гоґвортс. Доволі сумнівна логіка, та судова колегія
може вирішити, що цього достатньо, щоб поставити провину містера Геґріда під питання.
Якщо вони, звичайно, впораються сказати це, зберігаючи серйозний вираз обличчя.
І тепер ми підійшли до головного питання: __як__ директор виявив це приховане
закляття на Сортувальному Капелюсі?

// 8949
//Professor Quirrell was smiling thinly now. “Well now, let us suppose that there
//was a Parselmouth in this year’s crop of students, a potential Heir of
//Slytherin. You must admit, Mr. Potter, that you stand out as a possibility
//whenever extraordinary people are considered. And if I then further ask myself
//which new Slytherin would be most likely to have his mental privacy invaded by
//the Headmaster, specifically hunting the memories of his Sorting, why, you
//stand out even more.” The smile vanished. “So you see, Mr. Potter, it was not
//__I__ who invaded your mind, though I will not ask you to apologize. It is
//not your fault that you believed Dumbledore’s protestations of respecting your
//mental privacy.”
Професор Квірел посміхався награною посмішкою.

-- Що ж, припустімо, що серед учнів цього року був парселмовець,
потенційний спадкоємець Слизерина. Ви маєте визнати, містере Поттер, що чітко
виділяєтесь, якщо брати до уваги екстраординарних людей. І якщо я спитаю себе,
до думок якого новенького слизеринця найімовірніше вторгнеться директор,
прицільно шукаючи спогади про його сортування, що ж, в цьому випадку, ви
виділяєтеся ще більше, -- посмішка зникла. -- Тепер ви бачите, містере Поттер,
не __я__ був тим, хто зазіхнув на ваші думки. Проте я не вимагатиму
вибачень. Не ваша провина, що ви повірили у Дамблдорові заяви про повагу до вашого
ментального простору.

// 8950
//“My sincere apologies,” Harry said, keeping his face expressionless. The rigid
//control was a confession in its own right, as was the sweat beading his
//forehead; but he didn’t think the Defense Professor would take any evidence
//from that. Professor Quirrell would just think Harry was nervous at having been
//discovered as the Heir of Slytherin. Rather than being nervous that Professor
//Quirrell might realize that Harry had deliberately betrayed Slytherin’s secret…
//which itself was no longer seeming like such a smart move.
-- Мої щирі вибачення, -- сказав Гаррі, підтримуючи обличчя безвиразним.

Суворий контроль був, по-своєму, зізнанням, як і піт, що стікав його скронею.
Хоча він не вважав, що професор із захисту сприйме це як свідчення. Професор
Квірел просто подумає, ніби Гаррі нервується, бо його викрили як спадкоємця
Слизерина, а не через те, що професор Квірел може збагнути, що Гаррі навмисно
видав таємницю Слизерина... що тепер не здавалося таким вже розумним
вчинком.

// 8951
//“So, Mr. Potter. Any progress on finding the Chamber of Secrets?”
-- Тож, містере Поттер, якісь успіхи в пошуках Таємної кімнати?

// 8952
//__No,__ thought Harry. But to maintain plausible deniability, you needed a
//general policy of sometimes evading questions even when you had nothing to
//hide… “With respect, Professor Quirrell, if I had made such progress, it is not
//__quite__ obvious to me that I should tell you about it.”
// hedrok: plausible deniability 072:12488
__Ні__, подумав Гаррі. Та, щоб підтримувати спроможність на правдоподібне заперечення,
потрібно інколи ухилятися від відповіді, навіть коли нема чого приховувати...

-- З усією повагою, професоре Квірел, але якби у мене були якісь успіхи, мені
не __надто__ очевидно, що я повинен вам про це розповідати.

// 8953
//Professor Quirrell sipped from his own waterglass again. “Well then, Mr.
//Potter, I shall freely tell you what I know or suspect. First, I believe the
//Chamber of Secrets is real, as is Slytherin’s Monster. Miss Myrtle’s death was
//not discovered until hours after her demise, even though the wards should have
//alerted the Headmaster instantly. Therefore her murder was performed either by
//Headmaster Dippet, which is unlikely, or by some entity which Salazar Slytherin
//keyed into his wards at a higher level than the Headmaster himself. Second, I
//suspect that contrary to popular legend, the purpose of Slytherin’s Monster was
//__not__ to rid Hogwarts of Muggleborns. Unless Slytherin’s Monster were
//powerful enough to defeat the Headmaster of Hogwarts and all the teachers, it
//could not triumph by force. Multiple murders in secrecy would result in the
//school’s closure, as nearly happened in 1943, or in the placing of new wards.
//So why Slytherin’s Monster, Mr. Potter? What true purpose does it serve?”
Професор Квірел знову відпив води зі склянки.

// hedrok: "keyed into his wards at a higher level than the Headmaster himself"
// копія з 7088
-- Тоді, містере Поттер, я відверто розповім, що я знаю чи підозрюю.
По-перше, я вірю, що Таємна кімната існує, як і монстр Слизерина. Перед тим, як
смерть міс Міртл було виявлено, минули години, хоча захисні чари повинні
були негайно сповістити директора. Тому вбивство було скоєне або директором Діпітом, що
сумнівно, або якоюсь сутністю, якій Салазар Слизерин надав більше повноважень у
своїх захисних чарах, ніж навіть директору. По-друге, я підозрюю, що всупереч популярній казочці,
призначення монстра Слизерина було __не__ у позбавленні Гоґвортсу учнів маґлівського роду.
Він не міг би взяти силою, якщо тільки не був могутнім настільки, щоб
перемогти директора Гоґвортсу та всіх учителів. Кілька таємничих убивств призвели б
лише до закриття школи, що майже сталося у 1943, або до створення нових захисних чарів.
То навіщо, містере Поттер, існує монстр Слизерина? Якій меті він насправді служить?

// 8954
//“Ah…” Harry dropped his gaze to his waterglass and tried to think. “To kill
//anyone who got into the Chamber and didn’t belong there -”
-- Гмм... -- погляд Гаррі впав на його склянку з водою; він намагався думати.
-- Щоб вбити кожного, хто пробрався до кімнати, але не повинен був...

// 8955
//“A monster powerful enough to defeat a team of wizards that had broken past the
//best wards Salazar could place on his Chamber? Unlikely.”
-- Монстр настільки сильний, щоб перемогти команду магів, які прорвались крізь
найкращі чари, що Салазар розмістив над своєю кімнатою? Навряд.

// 8956
//Harry was feeling a bit pressured now. “Well, it’s called the Chamber of
//Secrets, so maybe the Monster has a secret, or __is__ a secret?” For that
//matter, just what sort of secrets were in the Chamber of Secrets in the first
//place? Harry hadn’t done a lot of research on the subject, in part because he’d
//gotten the impression that nobody knew anything -
Гаррі відчував на собі тиск.

-- Ну, кімната називається Таємною, то може у монстра є якась таємниця, або він і __є__
таємниця? Якщо вже на те пішло, то що ще таємне у тій Таємній кімнаті? -- Гаррі
не вів ретельних пошуків інформації за цією справою, частково тому, що в нього склалося
враження, ніби ніхто нічого не знає...

// 8957
//Professor Quirrell was smiling. “Why not just write the secret down?”
Професор Квірел посміхався.

-- Чому ж просто не записати ці таємниці?

// 8958
//“Ahhh…” said Harry. “Because if the Monster spoke Parseltongue, that would
//ensure that only a true descendant of Slytherin could hear the secret?”
-- Гммм... -- сказав Гаррі. -- Бо якщо монстр говорив парселмовою, то
забезпечено, що лише справжній нащадок Слизерина зможе почути таємницю?

// 8959
//“Easy enough to key the wards on the Chamber to a phrase spoken in
//Parseltongue. Why go to the trouble of creating Slytherin’s Monster? It cannot
//have been easy to create a creature with a lifespan of centuries. Come, Mr.
//Potter, it should be obvious; what are the secrets that can be told from one
//living mind to another, but never written down?”
Налаштувати захисні чари кімнати на фразу, сказану парселмовою, доволі легко.
Навіщо все ускладнювати і створювати монстра? Створити істоту, що може жити
віками, не могло бути легкою справою. Ну ж бо, містере Поттер, це ж очевидно!
Що то за таємниці, що може розповісти один живий розум іншому, але що їх не
записати?

// 8960
//Harry saw it then, with a burst of adrenaline that started his heart racing,
//his breath coming faster. “__Oh.__”
Прозріння прийшло до Гаррі разом зі сплеском адреналіну, що пришвидшив його
серцебиття і подих.

-- __О.__

// 8961
//Salazar Slytherin had been very cunning indeed. Cunning enough to come up with
//a way to bypass the Interdict of Merlin.
Салазар Слизерин був справді хитрим. Хитрим настільки, що зміг знайти
спосіб обійти інтердикт Мерліна.

// 8962
//Powerful wizardries couldn’t be transmitted through books or ghosts, but if you
//could create a long-lived enough sentient creature with a good enough memory -
Потужні чаклування не можуть бути передані за допомогою книжок або привидів.
Але якщо створити довговічну істоту з достатньо хорошою пам'яттю...

// 8963
//“It seems very probable to me,” said Professor Quirrell, “that
//He-Who-Must-Not-Be-Named began his climb to power with secrets obtained from
//Slytherin’s Monster. That Salazar’s lost knowledge is the source of
//You-Know-Who’s extraordinarily powerful wizardry. Hence my interest in the
//Chamber of Secrets and the case of Mr. Hagrid.”
-- Мені здається цілком імовірним, -- сказав професор Квірел, -- що
Той-Кого-Не-Можна-Називати почав свій шлях до влади, дізнавшись таємниці, що їх
зберіг монстр Слизерина. Що втрачені знання Салазара є джерелом надпотужної
магії Відомо-Кого. Звідси мій інтерес у Таємній кімнаті, і у справі містера
Геґріда.

// 8964
//“I __see__,” Harry said. And if __he,__ Harry, could find Salazar’s
//Chamber of Secrets… then all of the lost knowledge that Lord Voldemort had
//obtained would be __his__ as well.
-- __Зрозуміло__, -- сказав Гаррі.

І якщо __він__, Гаррі, зміг би знайти Салазарову Таємну кімнату... то всі
загублені знання, що стали надбанням Лорда Волдеморта, належатимуть також і
__йому__.

// 8965
//Yes. That was __just__ how the story should go.
Так. __Саме__ так і має розвиватися сюжет.

// 8966
//Add in Harry’s superior intelligence and some original magical research and
//some Muggle rocket launchers, and the resulting fight would be completely
//one-sided, which was exactly how Harry wanted it.
Додайте ще надзвичайний інтелект Гаррі, і кілька магічних дослідів, і ще кілька
маґлівських ракетних установок. І тоді це буде гра цілковито в одні ворота.
А саме цього Гаррі й хотів.

// 8967
//Harry was grinning now, a very evil grin. __New priority: Find everything
//in Hogwarts that looks remotely like a snake and try speaking to it. Starting
//with everything you’ve already tried, only this time be sure to use
//Parseltongue instead of English - get Draco to let you into the Slytherin dorms
//-__
Гаррі широко посміхався, дуже злою усмішкою. __Нова програма дій: знайти у
Гоґвортсі все, що хоч трохи нагадує змій, і спробувати заговорити до них. Почати
з того, що вже було спробувано, але цього разу використовувати парселмову.
І зробити так, щоб Драко впустив тебе до слизеринського гуртожитку...__

// 8968
//“Don’t become too excited, Mr. Potter,” said Professor Quirrell. His own face
//had become expressionless, now. “You must __continue__ thinking. What were
//the Dark Lord’s parting words to Slytherin’s Monster?”
-- Не захоплюйтесь занадто, містере Поттер, -- сказав професор Квірел. Його
обличчя стало безвиразним. -- __Продовжуйте__ думати. Що сказав Темний Лорд
монстру Слизерина на прощання?

// 8969
//“__What?__” Harry said. “How could either of us possibly know that?”
-- __Що?__ -- здивувався Гаррі. -- Як хтось із нас взагалі може про це дізнатися?

// 8970
//“Visualize the scene, Mr. Potter. Let your imagination fill in the details.
//Slytherin’s Monster - probably some great serpent, so that only a Parselmouth
//may speak to it - has finished imparting all of the knowledge it possesses to
//He-Who-Must-Not-Be-Named. It conveys to him Salazar’s final benediction, and
//warns him that the Chamber of Secrets must now remain closed until the next
//descendant of Salazar should prove cunning enough to open it. And he who will
//become the Dark Lord nods, and says to it -”
-- Уявіть собі сцену, містере Поттер. Дозвольте вашій уяві заповнити прогалини. Монстр
Слизерина -- мабуть, якийсь величезний змій, тож тільки парселмовець може
заговорити до нього, -- закінчив ділитися знаннями, якими він володіє, з
Тим-Кого-Не-Можна-Називати. Він передає останнє благословення від Салазара і
попереджає його, що Таємна кімната має залишатися зачиненою, доки наступний нащадок
Слизерина не доведе свою здатність відкрити її. І той, хто стане Темним Лордом киває і
каже...

// 8971
//“Avada Kedavra,” said Harry, suddenly feeling sick to his stomach.
-- Авада Кедавра, -- Гаррі раптом стало зле.

// 8972
//“Rule Twelve,” Professor Quirrell said quietly. “Never leave the source of your
//power lying around where someone else can find it.”
-- Правило дванадцять, -- тихо сказав професор Квірел. -- Ніколи не залишай
джерело своєї сили там, де ще хтось може його знайти.

// 8973
//Harry’s gaze dropped to the tablecloth, which had decorated itself in a
//mournful pattern of black flowers and shadows. Somehow that seemed… too sad to
//be imagined, Slytherin’s great snake had only wanted to help Lord Voldemort,
//and Lord Voldemort had just… there was something unbearably sorrowful about it,
//what sort of person would __do__ that to a being who’d offered them
//nothing but friendship… “__Do__ you think the Dark Lord would have -”
Погляд Гаррі впав на скатертину, яка тепер була розшита невеселими
візерунками квітів і тіней. Якось це було... занадто сумно, щоб уявляти.
Слизеринський змій хотів лише допомогти Лорду Волдеморту, а Лорд Волдеморт просто
взяв і... було у цьому щось нестерпно печальне. __Ким__ треба бути, щоб зробити
таке із живим створінням, яке пропонує лише дружбу...

-- Ви __насправді__ вважаєте, що Темний Лорд міг...

// 8974
//“Yes,” Professor Quirrell said flatly. “He-Who-Must-Not-Be-Named left quite a
//trail of bodies behind him, Mr. Potter; I doubt he would have omitted that one.
//If there were any artifacts left there that could be moved, the Dark Lord would
//have taken those with him as well. There might still be something worth seeing
//in the Chamber of Secrets, and to find it would prove yourself the true Heir of
//Slytherin. But do not raise your hopes too high. I suspect that all you will
//find is the remains of Slytherin’s Monster resting quietly in its grave.”
-- Так, -- безвиразно сказав професор Квірел. -- Той-Кого-Не-Можна-Називати
залишив за собою чіткий слід із мертвих тіл, містере Поттер. І я сумніваюся, що він
знехтував конкретно цим. І якщо там були будь-які артефакти, що їх можна забрати,
то Темний Лорд так і зробив. У Таємній кімнаті ще могло лишитись щось варте уваги,
і той, хто знайде це, покаже себе справжнім спадкоємцем Слизерина. Але не занадто
на це сподівайтесь. Я підозрюю, що все, що ви знайдете, -- це мовчазні залишки монстра
Слизерина.

// 8975
//They sat in silence for a while.
Якийсь час вони сиділи у тиші.

// 8976
//“I could be wrong,” said Professor Quirrell. “In the end it is only a guess.
//But I did wish to warn you, Mr. Potter, so that you would not be too sorely
//disappointed.”
-- Я можу й помилятися, -- сказав професор Квірел. -- Все ж таки, це лише
здогадка. Але я хотів вас попередити, містере Поттер, щоб ваше розчарування не було
надто гірким.

// 8977
//Harry nodded shortly.
Гаррі кивнув.

// 8978
//“One might even regret your infant self’s victory,” said Professor Quirrell.
//His smile twisted. “If only You-Know-Who had lived, you might have persuaded
//him to teach you some of the knowledge that would have been your heritage, from
//one Heir of Slytherin to another.” The smile twisted further, as though to mock
//the obvious impossibility, even given the premise.
-- Хтось може навіть пожалкувати про свою перемогу у віці немовляти,
-- сказав професор Квірел з кривою усмішкою. -- Якби Відомо-Хто був живий, ви могли
б переконати його поділитись деякими знаннями з вашої спадщини -- від одного нащадка
Слизерина іншому.

Посмішка скривилася ще більше, неначе він висміював очевидну неможливість сказаного.

// 8979
//__Note to self,__ thought Harry, with a slight chill and an edge of anger,
//__make sure to extract my heritage out of the Dark Lord’s mind, one way
//or another.__
__Примітка собі__, подумав Гаррі з деяким холодком і озлобленістю, __зробити
все, щоб дістати свій спадок з голови Темного Лорда, так чи інакше__.

// 8980
//There was another silence. Professor Quirrell was looking at Harry as though
//waiting for him to ask something.
Вони ще мовчки посиділи. Професор Квірел дивився на Гаррі, наче чекав запитання.

// 8981
//“Well,” said Harry, “so long as we’re on the topic, can I ask how you think the
//whole Parselmouth business actually -”
-- Що ж, -- сказав Гаррі, -- якщо вже про це мова, то чи можу я запитати, як ви гадаєте,
чи вся ця парселмова насправді...

// 8982
//There came a knock at the door, then. Professor Quirrell raised a cautionary
//finger, then opened the door with a wave. The waitress entered, balancing a
//huge platter with their meals as though the whole assembly weighed nothing
//(which was in fact probably the case). She gave Professor Quirrell his bowl of
//green soup, and a glass of his usual Chianti; and set down before Harry a plate
//of small meat strips smothered in a heavy-looking sauce, plus a glass of his
//accustomed treacle soda. Then she bowed, managing to make it seem like sincere
//respect rather than perfunctory acknowledgment, and departed.
У двері постукали. Професор Квірел попереджально здійняв палець догори, потім
відчинив двері помахом руки. Офіціантка несла величезну тацю з їхньою їжею з такою
легкістю, ніби та нічого не важила (а так мабуть і було). Вона подала професорові
Квірелу його тарілку зеленого супу і склянку кʼянті, як завжди. А перед Гаррі поставила
тарілку тонко нарізаного мʼяса, змоченого у густому на вигляд соусі, і ще його
звичайну склянку содової із солодким сиропом. Потім вона вклонилася, зумівши
зробити це так, ніби це жест щирої поваги, а не проста формальність, і пішла.

// 8983
//When she was gone, Professor Quirrell held up a finger for silence again, and
//drew his wand.
Коли вона вийшла, професор Квірел знову здійняв палець, закликаючи до тиші, а
потім витяг паличку.

// 8984
//And then Professor Quirrell began performing a certain series of incantations
//that Harry recognized, making him take a sharp breath. It was the series and
//ordering that Mr. Bester had used, the full set of twenty-seven spells that you
//would perform before discussing anything of truly great import.
Тоді професор Квірел почав виконувати низку замовлянь, що їх Гаррі впізнав і аж
затамував подих. Це була та сама послідовність і той самий порядок, які використовував
містер Бестер, -- повний набір з двадцяти семи заклинань, що їх виконують перш ніж
обговорювати щось надзвичайно важливе.

// 8985
//If the discussion of the Chamber of Secrets __hadn’t__ counted as
//important -
Якщо розмова про Таємну кімнату __не__ вважалася важливою...

// 8986
//When Professor Quirrell was done - he’d performed __thirty__ spells, three
//of which Harry hadn’t heard before - the Defense Professor said, “Now we shall
//not be interrupted for a time. Can you keep a secret, Mr. Potter?”
-- Тепер деякий час нас не потривожать. Чи здатні ви зберегти таємницю, містере
Поттер? -- запитав професор Квірел, коли закінчив чарувати: __тридцять__
заклять, три з яких Гаррі ніколи не чув.

// 8987
//Harry nodded.
Гаррі кивнув.

// 8988
//“A serious secret, Mr. Potter,” Professor Quirrell said. His eyes were intent,
//his face grave. “One which could potentially send me to Azkaban. Think about it
//before you reply.”
-- Важливу таємницю, містере Поттер, -- сказав професор Квірел. Його погляд був
цілеспрямованим, а обличчя серйозним. -- Таку, що потенційно може заслати мене
в Азкабан. Перед тим як відповісти, подумайте про це.

// 8989
//For a moment Harry didn’t even see why the question should be hard, given his
//growing collection of secrets. Then -
Якийсь час Гаррі навіть не розумів, чому це питання повинне бути складним,
зважаючи на його зростаючу колекцію таємниць. Тоді...

// 8990
//__If this secret could send Professor Quirrell to Azkaban, that means
//he’s done something illegal…__
__Якщо через цю таємницю професор Квірел може потрапити в Азкабан, це означає, що він
скоїв щось незаконне...__

// 8991
//Harry’s brain performed a few calculations. Whatever the secret, Professor
//Quirrell did not think his illegal act would reflect badly on him in Harry’s
//eyes. There was no advantage to be gained from __not__ hearing it. And if
//it did reveal something wrong with Professor Quirrell, then it was very much to
//Harry’s advantage to know it, even if he had promised not to tell anyone.
Мозок Гаррі провів кілька розрахунків. Хай яка була ця таємниця, професор Квірел не
вважав, що його незаконні дії зіпсують враження Гаррі щодо нього. Не було
жодної переваги у тому, щоб її __не__ почути. І якщо таємниця й справді
викривала щось про професора Квірела, то знати її було в інтересах
Гаррі, навіть якщо він пообіцяє нікому не розказувати.

// 8992
//“I never had very much respect for authority,” Harry said. “Legal and
//governmental authority included. I will keep your secret.”
-- Ніколи не мав великої поваги до влади, -- сказав Гаррі. -- Включно з
законодавчою і виконавчою. Я зберігатиму вашу таємницю.

// 8993
//Harry didn’t bother asking whether the revelation was worth the danger it would
//pose to Professor Quirrell. The Defense Professor wasn’t stupid.
Гаррі не попіклувався спитати, чи викриття таємниці було варте тої небезпеки, на яку
наражав себе професор Квірел. Професор із захисту не був тупим.

// 8994
//“Then I must test whether you are truly a descendant of Salazar,” said
//Professor Quirrell, and stood up from his chair. Harry, prompted more by reflex
//and instinct than calculation, shoved himself up out of his own chair as well.
-- Тоді я маю перевірити, чи ви справді є нащадком Салазара, -- сказав
професор Квірел і встав з крісла. Гаррі також піднявся зі свого крісла. Він діяв
радше рефлекторно та інстинктивно, аніж за наміром.

// 8995
//There was a blur, a shift, a sudden motion.
Риси професора розплилися, змістились, різко змінились...

// 8996
//Harry aborted his panicked backward leap halfway through, leaving him
//windmilling his arms and trying not to fall over, a frantic flush of adrenaline
//running through him.
Гаррі в паніці мало не відскочив назад, в останню мить передумав, і так і залишився
розмахувати руками, намагаючись не впасти. Хвиля адреналіну пройшла тілом.

// 8997
//At the other end of the room swayed a snake a meter high, bright green and
//intricately banded in white and blue. Harry didn’t know enough snakelore to
//recognize it, but he knew that ‘brightly colored’ meant ‘poisonous’.
В іншому кінці кімнати похитувався змій висотою з метр, яскраво зелений, обрамлений
рясним біло-блакитним. Гаррі недостатньо володів змієзнавством, щоб упізнати вид. Але він
знав, що "`барвиста`" означає "`отруйна`".

// 8998
//The constant sense of doom had diminished, ironically enough, after the Defense
//Professor of Hogwarts had turned into a venomous snake.
Доволі іронічно: постійне відчуття невідворотного відступило, коли гоґвортський
професор із захисту перетворився на отруйного змія.

// 8999
//Harry swallowed hard and said, “Greetings - ah, hssss, no, ah,
//__greetingss.__”
Гаррі ковтнув слину і сказав:

-- Вітаю -- е, хсссс, ні, е, __здрасстуйте.__

// 9000
//“__Sso,__” hissed the snake. ”__You sspeak, I hear. I sspeak, you
//hear?__”
-- __Шщо ж,__ -- прошипів змій. -- __Ти сскажешш, я чую. Я сскажу, ти чуєшш?__

// 9001
//“__Yess, I hear,__” hissed Harry. ”__You are an Animaguss?__”
-- __Так, я чую,__ -- прошипів Гаррі. -- __Ти шщо, анімаг?__

// 9002
//“__Obvioussly,__” hissed the snake. ”__Thirty-sseven ruless, number
//thirty-four: Become Animaguss. All ssensible people do, if can. Thuss,
//____very rare.__” The snake’s eyes were flat surfaces ensconced within dark
//pits, sharp black pupils in dark gray fields. ”__This iss mosst ssecure
//way to sspeak. You ssee? No otherss undersstand uss.__”
-- __Очевидно,__ -- прошипів змій. -- __Тридцять четверте з тридцяти ссеми правил:
сстати анімагом. Уссі розумні люди сстають, якшщо можуть. Тому таке рідкіссне__.

Очі змія були пласкі та глибоко посаджені, з чорними контурами зіниць на темно-сірому тлі.

-- Це найбезпечнішший сспоссіб вессти розмову. Розумієшш? Іншші нашших сслів не ссприймають.__

// 9003
//“__Even if they are ssnake Animagi?__”
-- __Навіть якшщо вони анімаги-змії?__

// 9004
//“__Not unlesss heir of Sslytherin willss.__” The snake gave a series of
//short hisses which Harry’s brain translated as sardonic laughter.
//”__Sslytherin not sstupid. Ssnake Animaguss not ssame as Parsselmouth.
//Would be huge flaw in sscheme.__”
-- __Лишше якшщо забажає нашщадок Сслизерина,__ -- змій видав декілька коротких
шиплячих звуків, що їх мозок Гаррі переклав як злі смішки. -- __Сслизерин не дурний.
Анімаги-змії -- не те ссаме, шщо парсселмовці. Це було б сслабким міссцем у ссхемі.__

// 9005
//Well __that__ definitely argued that Parseltongue was personal magic, not
//snakes being sentient beings with a learnable language -
__Це__ напевно доводило, що парселмова була особистою магією, а змії не були
розумними створіннями зі своєю мовою, яку можна вивчити...

// 9006
//“__I am not regisstered,__” hissed the snake. The dark pits of its eyes
//stared at Harry. ”__Animaguss musst be regisstered. Penalty is two yearss
//imprissonment. Will you keep my ssecret, boy?__”
-- __Я не зареєсстрований,__ -- прошипів змій. Темні плями його очей дивились прямо
на Гаррі. -- __Анімаги повинні реєсструватиссь. Караєтьсся двома роками увʼязнення. Ти
триматимешш таємницю, хлопчику?__

// 9007
//“__Yess,__” hissed Harry. ”__Would never break promisse.__”
-- __Так,__ -- прошипів Гаррі. -- __Ніколи не видам.__

// 9008
//The snake seemed to hold still, as though in shock, and then began to sway
//again. “__We come here next in sseven dayss. Bring cloak to passs
//unsseen, bring hourglasss to move through time -__”
Змій завмер, наче шокований, а потім знову почав хитатись.

-- __Ми прийдемо ссюди через ссім днів. Принесси плашща, шщоб пройти непоміченим.
Принесси піссковий годинник, щоб рухатиссь крізь часс...__

// 9009
//“__You know?__” hissed Harry in shock. ”__How -__”
-- __Ти знаєшш?__ -- Гаррі був шокований. -- __Як...__

// 9010
//Again the series of short quick hisses that translated as sardonic laughter.
//“__You arrive in my firsst classs while sstill in other classs, sstrike
//down enemy with pie, two ballss of memory -__”
Знову ці короткі шиплячі звуки, що були перекладені як сардонічний сміх.
-- __Ти приходишш на моє першше заняття, поки шще на іншшому. Бʼєшш ворога пирогом.
Дві кулі памʼяті...__

// 9011
//“__Never mind,__” hissed Harry. ”__Sstupid question, forgot you were
//ssmart.__”
-- __Нехай,__ -- прошипів Гаррі. -- __Дурне питання. Забув, шщо ти розумний.__

// 9012
//“__Foolissh thing to forget,__” said the snake, but the hiss did not seem
//offended.
-- __Даремно забув,__ -- сказав змій, анітрохи не ображено.

// 9013
//“__Hourglasss is resstricted,__” Harry said. ”__Cannot usse until
//ninth hour.__”
-- __Піссковий годинник обмежено,__ -- сказав Гаррі. -- __Не можу
сскорисстатись до девʼятої вечора.__

// 9014
//The snake twitched its head, a snakish nod. “__Many resstrictionss.
//Locked to your usse only, cannot be sstolen. Cannot transsport other humanss.
//But ssnake carried in pouch, I ssuspect will go with. Think posssible to hold
//hourglasss motionlesss within sshell, without dissturbing wardss, while you
//turn sshell around it. We will tesst in sseven dayss. Will not sspeak of planss
//beyond thiss. You ssay nothing, to no one. Give no ssign of expectancy, none.
//Undersstand?__”
Змій смикнув головою -- зміїний кивок.

-- __Чимало обмеженнь. Тільки ти можешш сскорисстатиссь, не можна вкрассти. Не може
переноссити іншших людей. Гадаю, змія у капшшучку перенессе. Думаю,
можливо тримати годинник нерухомо у шшкарлупі, не потурбувавшши охоронні чари, і
прокрутити шшкарлупу навколо. Перевіримо за ссім днів. Про подальшші плани не сскажу.
Ти не сскажешш нічого, нікому. Жодного знаку, шщо ти чогоссь очікуєшш. Жодного.
Розумієшш?__

// 9015
//Harry nodded.
Гаррі кивнув.

// 9016
//“__Ansswer in sspeech.__”
-- __Сскажи парсселмовою.__

// 9017
//“__Yess.__”
-- __Так.__

// 9018
//“__Will do as I ssaid?__”
-- __Зробишш, як я ссказав?__

// 9019
//“__Yess. But,” __Harry gave a wobbling rasp that was how his mind had
//translated a hesitant ‘Ahhh’ into snakish, ”__I do not promisse to do
//whatever thiss iss, you have not ssaid -__”
-- __Так, але,__ -- Гаррі видав якісь вібруючі звуки -- так його мозок переклав
роздумливе «Емм» на зміїну, -- __Я не обіцяю робити те, про шщо ти шще не
ссказав...__

// 9020
//The snake performed a shiver that Harry’s mind translated as a severe glare.
//“__Of coursse not. Will disscusss sspecificss at next meeting.__”
Змій здригнувся, що мозок Гаррі переклав як гнівливий погляд.

-- __Звіссно ні. Обговоримо вссе іншше під часс насступної зусстрічі.__

// 9021
//The blur and motion reversed itself, and Professor Quirrell was standing there
//once more. For a moment the Defense Professor himself seemed to sway, as the
//snake had swayed, and his eyes seemed cold and flat; and then his shoulders
//straightened and he was human once more.
Розплиття й зміщення рис пройшли в зворотному порядку, і перед Гаррі знову був
професор Квірел. Лише на мить здалося, що він хитається у ритмі змія,
а його очі холодні та пласкі. Потім він випрямився і став людиною.

// 9022
//And the aura of doom had returned.
Відчуття невідворотного повернулося.

// 9023
//Professor Quirrell’s chair scooted back for him, and he sat down in it. “No
//sense in letting this go to waste,” Professor Quirrell said as he picked up his
//spoon, “though at the moment I would much prefer a live mouse. One can never
//quite disentangle the mind from the body it wears, you see…”
Крісло професора Квірела з усього маху кинулося до нього, і він сів.

-- Не бачу причин марнувати їжу, -- сказав він, взявши в руки виделку, -- хоча зараз
я би більше вподобав живу мишу. Розумієте, неможливо повністю розплутати звʼязки
між тілом та свідомістю...

// 9024
//Harry slowly took his seat and began eating.
Гаррі поволі сів і почав їсти.

***

// 9025
//“So the line of Salazar did not die with You-Know-Who after all,” said
//Professor Quirrell after a time. “It would seem that rumors have already begun
//to spread, among our fine student body, that you are Dark; I wonder what they
//would think, if they knew that.”
-- Тож лінія Салазара не перервалася разом з життям Відомо-Кого, -- сказав
професор Квірел за деяких час. -- Здається, між нашими шановними учнями вже
поширюються чутки про те, що ви "`темний`". Цікаво, що б вони сказали, якби знали
про це.

// 9026
//“Or if they knew that I had destroyed a Dementor,” Harry said, and shrugged. “I
//figure all the fuss will blow over over the next time I do something
//interesting. Hermione is having trouble, though, and I was wondering if you
//might have any suggestions for her.”
-- Або, якби вони знали, що я знищив дементора, -- знизуючи плечима сказав Гаррі.
-- Гадаю, вся ця буря у склянці вляжеться до того часу, коли я знову зроблю щось
цікаве. Хоча у Герміони є деякі проблеми, і я саме хотів поцікавитися, чи ви можете
чимось допомогти.

// 9027
//The Defense Professor ate several spoonfuls of soup in silence, then; and when
//he spoke again, his voice was oddly flat. “You really care about that girl.”
Професор із захисту зʼїв кілька ложок супу мовчки, а коли знов заговорив, його
голос був навдивовижу неемоційний.

-- Ви й справді піклуєтеся про ту дівчинку.

// 9028
//“Yes,” Harry said quietly.
-- Так, -- тихо сказав Гаррі.

// 9029
//“I suppose that is why she was able to bring you out of your Dementation?”
-- Припускаю, саме тому вона мала змогу витягнути вас зі стану дементації?

// 9030
//“More or less,” Harry said. The statement was true in a way, just not exact; it
//was not that his Demented self had cared, but that it had been confused.
-- Більш-менш, -- сказав Гаррі. Судження було правильним саме по собі, але не точним.
Не те щоб його дементованому "`я`" була важлива Герміона -- воно просто здивувалося.

// 9031
//“I did not have any friends like that when I was young.” Still the same
//emotionless voice. “What would have become of you, I wonder, if you had been
//alone?”
-- У мене не було таких друзів, коли я був вашого віку, -- той самий неемоційний
голос. -- Мені цікаво, ким би ви стали, якби були самотнім?

// 9032
//Harry shivered before he could stop himself.
Гаррі не встиг себе зупинити і здригнувся.

// 9033
//“You must be feeling grateful to her.”
-- Ви маєте бути їй вдячні.

// 9034
//Harry just nodded. Not quite exact, but true.
Гаррі кивнув. Все ще не точно, але правильно.

// 9035
//“Then here is what I might have done at your age, if there had been anyone to
//do it for -”
-- Тоді от що я зробив би у вашому віці, якби мені було для кого це робити...
