// 9036
//== Self Centeredness
== Розділ 50. Егоцентризм

// 9037
//Padma Patil had finished her dinner a little late, getting on toward
//seven-thirty, and was now striding quickly out of the Great Hall on her way
//to the Ravenclaw dorm and the study rooms. Gossiping was fun and destroying
//Granger’s reputation was more fun, but it could distract from schoolwork.
//She’d put off a six-inch essay on __lomillialor__ wood due in next morning’s
//Herbology class, and she needed to finish it tonight.
// hedrok: @ "lomillialor" - ніби з The Chronicles of Thomas Covenant
// Я так зрозумів, що це не ліс, а якась деревина.
Падма Патіл трохи затрималася на вечері. Було близько о пів на восьму, вона
швидко йшла з Великої зали до рейвенкловської башти й навчальних кімнат.
Пліткувати було весело, а руйнувати репутацію Ґрейнджер -- навіть веселіше,
проте це відволікало від навчання. Вона довго відкладала реферат з гербалогії про
дерево __ломіліалор__, що його треба зробити до завтрашнього ранку, і тому вона
має завершити його сьогодні ввечері.

// 9038
//It was while she was passing through a long, twisting, narrow stone corridor
//that the whisper came, sounding like it was coming from right behind her.
Вона саме йшла довгим вузьким камʼяним коридором з купою поворотів, коли
пролунав шепіт, ніби просто за її спиною.

// 9039
//“__Padma Patil…__”
-- __Падмо Патіл...__

// 9040
//She spun around quick as lightning, her wand already snatched up from a
//pocket of her robes and leaping into her hands, if Harry Potter thought he
//could sneak up on and scare __her__ that easily -
Вона крутнулася на місці з блискавичною швидкістю, миттю вихопила паличку
з кишені мантії та вже тримала її в руці. Якщо Гаррі Поттер гадав, що
може так легко підкрастися й налякати __її__...

// 9041
//There was no one there.
Нікого не було.

// 9042
//Instantly Padma spun around and looked in the other direction, if it had been
//a Ventriloquism Charm -
Падма одразу розвернулася й подивилася в інший бік на випадок, якщо це
були чари черевомовлення...

// 9043
//There was no one there, either.
Але там теж нікого не було.

// 9044
//The whispering sigh came again, soft and dangerous with a slight hissing
//undertone.
І знову почулося тихе зітхання: лагідне й небезпечне, в ньому чулося легке
шипіння.

// 9045
//“__Padma Patil, Slytherin girl…__”
-- __Падмо Патіл, слизеринко...__

// 9046
//“Harry Potter, Slytherin boy,” she said out loud.
-- Гаррі Поттер, слизеринцю, -- сказала вона вголос.

// 9047
//She’d fought Potter and his Chaos Legion a dozen times over, and she __knew__
//that this was Harry Potter doing this somehow…
Вона вже десятки разів билася з Поттером та його легіоном Хаосу, і вона
__знала__, що це якимось чином робить Гаррі Поттер...

// 9048
//…even though the Ventriloquism Charm was only line-of-sight, and in the
//winding corridor, she could easily see all the way to the nearest twist both
//forward and backward, and there was no one there…
...хоча чари черевомовлення працювали лише в межах прямої видимості, а у
звивистому коридорі вона легко бачила повороти попереду й позаду, і там нікого
не було...

// 9049
//…it didn’t matter. She knew her enemy.
...це неважливо. Вона знала свого ворога.

// 9050
//There was a whispery chuckle, now coming from beside her, and she spun around
//and pointed her wand at the whisper and shouted “__Luminos!__”
Пролунало тихе хихотіння, тепер зовсім поряд з нею. Вона обернулася, вказала
паличкою на джерело звуку й крикнула "`__Лумінос!__`"

// 9051
//The red bolt of light shot out and struck the wall, which lit with a crimson
//glow that soon faded.
Вилетіла червона блискавка світла й вдарилася о стіну, через що та ненадовго
засяяла багряним.

// 9052
//She hadn’t really expected it to work. Harry Potter couldn’t __possibly__ be
//invisible, not really invisible, that was magic most __grownups__ couldn’t
//do, and she’d never believed nine-tenths of the stories about him.
Вона й не очікувала насправді, що це спрацює. Гаррі Поттер __аж ніяк__ не
міг бути невидимим, не невидимим насправді -- на ці чари були неспроможні
більшість __дорослих__, а вона не вірила й десятій частині історій про
нього.

// 9053
//The whispery voice laughed again, now on her other side.
Голос-шепіт знову розсміявся, цього разу з іншого боку.

// 9054
//“Harry Potter stands on the precipice,” whispered the voice, now sounding
//very close to her ear, “he is wavering, but you, you are already falling,
//Slytherin girl…”
-- Гаррі Поттер стоїть на краю прірви, -- прошепотів голос, тепер майже в неї
над вухом, -- він хитається, але ти, ти вже падаєш, слизеринко...

// 9055
//“The hat never called out Slytherin for __my__ name, Potter!” She backed up
//against the wall, so she wouldn’t have to watch behind herself, and raised
//her wand in an attack stance.
-- Не на __моїй__ голові Капелюх кричав "`Слизерин`", Поттере! -- вона
позадкувала до стіни, щоб не треба було дивитися собі за спину, та підвела
паличку в стійку для нападу.

// 9056
//Again the soft laugh. “Harry Potter has been in the Ravenclaw common room for
//the last half-hour, helping Kevin Entwhistle and Michael Corner rehearse
//Potions recipes. But it matters not. I am here to deliver a warning to you,
//Padma Patil, and if you choose to ignore it, that is your own affair.”
І знову цей тихий сміх.

-- Останні пів години Гаррі Поттер допомагає Кевінові Ентвіслу та Майклові
Корнеру вивчати рецепти зіллів у вежі Рейвенклову. Але це несуттєво. Я тут для
того, щоб попередити тебе, Падмо Патіл, а прислухатися чи ні -- твоя власна
справа.

// 9057
//“Fine,” she said coldly. “Go ahead and warn me, Potter, I’m not afraid of
//you.”
-- Гаразд, -- холодно сказала вона. -- Уперед, попереджай мене, Поттере, я
тебе не боюся.

// 9058
//“Slytherin was a great House, once,” said the whisper; it sounded sadder,
//now. “Slytherin was once a House you would have been proud to choose, Padma
//Patil. But something turned wrong, something turned sour; do you know what
//went awry in Slytherin House, Padma Patil?”
// hedrok: "went wrong" у 047:8595
-- Колись Слизерин був славетним гуртожитком, -- почувся тепер сумніший шепіт.
-- Слизерин колись був таким гуртожитком, що ти з гордістю вибрала б його,
Падмо Патіл. Але щось зіпсувалося, щось пішло не так. Чи знаєш ти, що
спотворило Слизерин, Падмо Патіл?

// 9059
//“No, and I don’t care!”
-- Ні, і мене це не турбує!

// 9060
//“But you should care,” said the whisper, now sounding like it was coming from
//just behind her head where it stood almost pressed against the wall. “For you
//are still that girl whom the Sorting Hat offered that choice. Do you think
//that just choosing Ravenclaw means that you are not Pansy Parkinson, and will
//not ever become Pansy Parkinson, no matter how you conduct yourself
//otherwise?”
-- Але мало б турбувати, -- проказав шепіт. Тепер видавалося, що він лунає
позаду її голови, хоча вона ледве чи не торкалася стіни. -- Бо ти досі та
дівчинка, що їй Сортувальний Капелюх запропонував той вибір. Невже ти гадаєш,
що просто вибрати Рейвенклов достатньо, щоб не бути Пенсі Паркінсон і ніколи не
стати Пенсі Паркінсон, хай як схоже на неї ти поводитимешся?

// 9061
//Despite everything, now, small chills of fear were spreading out from her
//spine and running over her skin. She’d heard __those__ stories about Harry
//Potter too, that he was a secret Legilimens. But she still stood straight,
//and she put all the bite she could into her voice when she said, “The
//Slytherins went Dark to get power, just like __you__ did, Potter. And __I__
//won’t, not ever.”
Попри все, мурашки пробігли її спиною та розійшлися всім тілом. Вона чула була
й __такі__ історії про Гаррі Поттера, ніби він таємно був виманологом. Але вона
все одно стояла прямо і вклала у свій голос усю жовч, на яку була здатна:

-- Слизеринці звернулися до темряви, щоб отримати могутність, як і __ти__,
Поттере. А __я__ так ніколи не вчиню.

// 9062
//“But you’ll spread vicious rumors about an innocent girl,” whispered the
//voice, “even though it will not help you attain any of your own ambitions,
//and without considering that she has powerful allies who might take offense.
//That is not the proud Slytherin of the old days, Padma Patil, that is not the
//pride of Salazar, that is Slytherin gone rotten, Padma Parkinson not Padma
//Malfoy…”
-- Але ти поширюєш брудні плітки про невинну дівчину, -- прошепотів голос, --
хоча це навіть не допоможе тобі досягти жодної власної цілі, ти навіть не
подумала про те, що в неї є могутні союзники, що можуть образитися. Це не
гордий Слизерин старих днів, Падмо Патіл, не те, чим пишався Салазар, це --
гнилий Слизерин. Падма Паркінсон -- не Падма Мелфой...

// 9063
//She was getting more creeped out than she ever had been in her life, and the
//possibility was starting to occur to her that this might __really__ be a
//ghost. She hadn’t ever heard that ghosts could hide themselves like this, but
//maybe they just didn’t usually do it - not to mention that most ghosts
//weren’t this __eerie,__ they were just dead people after all - “Who __are__
//you? The Bloody Baron?”
Вона ще ніколи в житті не була такою переляканою, і вона почала розглядати
можливість, що це __справді__ був привид. Хоча вона ніколи не чула, щоб привиди
могли ось так ховатися, проте, мабуть, вони просто не робили так зазвичай. Вже
не кажучи, що більшість привидів не були такими __моторошними__ -- зрештою,
вони були просто мертвими людьми...

-- __Хто__ ти? Кривавий Барон?

// 9064
//“When Harry Potter was bullied and beaten,” the voice whispered, “he
//commanded all his allies to refrain from vengeance; do you remember that,
//Padma Patil? For Harry Potter is wavering, but not yet lost; he is
//struggling, he knows himself to be in peril. But Hermione Granger made no
//such request of her own allies. Harry Potter is angered with you now, Padma
//Patil, more angered than he would ever be on his own behalf… and __he__ has
//allies of his own.”
-- Коли Гаррі Поттера цькували й били, -- шепотів голос, -- він наказав усім
своїм союзникам утриматися від помсти. Памʼятаєш це, Падмо Патіл? Бо Гаррі Поттер
хитається, але ще не впав. Він бореться, він знає, що в небезпеці. А ось Герміона
Ґрейнджер не просила такого ж від своїх союзників. Гаррі Поттер злиться на
тебе, Падмо Патіл, більше, ніж будь-коли зміг би злитися заради себе... а в
__нього__ є власні союзники.

// 9065
//A shudder went through her, she knew that it was visible and she hated
//herself for it.
Вона затремтіла, знала, що це було видно, і ненавиділа себе за це.

// 9066
//“Oh, don’t be afraid,” breathed the voice. “I will not hurt you. For you see,
//Padma Patil, Hermione Granger truly is innocent. __She__ does not stand on
//the precipice, __she__ is not falling. She did not ask her allies to refrain
//from hurting you, because the thought did not even occur to her as a
//possibility. And Harry Potter knows very well that if he hurt you or caused
//you to be hurt, for Hermione Granger’s sake, then she would never speak to
//him again until the Sun burned low and the last star failed in the night
//sky.” The voice was very sad now. “She truly is a kindly girl, a person such
//as I could only wish to be…”
-- Та не бійся, -- видихнув голос. -- Я не завдам тобі шкоди. Бо, розумієш,
Падмо Патіл, Герміона Ґрейнджер справді невинна. __Вона__ не стоїть на краю
прірви, __вона__ не падає. Вона не просила союзників утриматися від помсти
тобі, бо їй навіть не спало на думку, що хтось може помститися. А Гаррі Поттер
чудово розуміє, що якби він завдав тобі шкоди сам чи зробив так, щоб ти зазнала
шкоди, навіть заради блага Герміони Ґрейнджер, то вона б з ним більше не
розмовляла, доки Сонце не згоріло б, і остання зірка не полишила б нічне небо, --
тепер голос став зовсім сумним. -- Вона щиро добра дівчина, людина, якою я
можу лише мріяти стати...

// 9067
//“Granger can’t cast the Patronus Charm!” said Padma. “If she was really as
//nice as she pretends to be -”
-- Ґрейнджер не здатна створити чари патронуса! Якби вона справді була такою
хорошою, як вдає...

// 9068
//“Can __you__ cast the Patronus Charm, Padma Patil? You dared not even attempt
//it, you feared what the result would be.”
-- А __ти__ можеш створити чари патронуса, Падмо Патіл? Ти навіть не наважилися
спробувати, бо боялася результату.

// 9069
//“That’s not __true!__ I didn’t have time, that was all!”
-- Це __неправда__! У мене не було часу, ось і все!

// 9070
//The whisper continued. “But Hermione Granger did try, openly before her
//friends, and when her magic failed she was surprised and dismayed. For there
//are secrets to the Patronus Charm that few ever knew, and maybe none now know
//but I.” A soft, whispery chuckle. “Let it stand that it is no stain of her
//spirit that halts her light from coming forth. Hermione Granger cannot cast
//the Patronus Charm for the very same reason that Godric Gryffindor, who
//raised these halls, never could.”
-- Але Герміона Ґрейнджер спробувала, -- провадив далі шепіт, -- відкрито,
перед усіма друзями, і коли магія зрадила їй, вона була здивована й розгублена.
Є такі таємниці чар патронуса, про які відомо було лише декільком, і,
можливо, тепер лише мені, -- мʼякий, тихий сміх. -- Обмежмося тим, що це не
якась пляма її духу не дає світлу засяяти. Герміона Ґрейнджер не може
викликати чари патронуса з тієї саме причини, що й Ґодрик Ґрифіндор, що звів
ці стіни, так і не зміг цього.

// 9071
//The corridor __was__ becoming colder, she was certain of it, as though
//someone were using the Chilling Charm.
У коридорі __справді__ похолоднішало, вона в цьому не сумнівалася: ніби
хтось застосовував чари холоднечі.

// 9072
//“And Harry Potter is not Hermione Granger’s only ally.” Now there was an
//undertone of dry amusement in that whisper, it reminded her suddenly and
//frighteningly of Professor Quirrell. “Filius Flitwick and Minerva McGonagall
//are quite fond of her, I do believe. Did it occur to you that if those two
//learned what you were doing to Hermione Granger, they might become less fond
//of you? They might not intervene openly, perhaps; but they might be a little
//slower to award you House Points, a little slower to steer opportunities your
//way -”
-- Та й Гаррі Поттер -- не єдиний союзник Герміони Ґрейнджер, -- тепер у шепоті
чулися нотки сухого сміху, що раптом налякав її тим, як нагадував професора
Квірела. -- Філіус Флитвік та Мінерва Макґонеґел, як я розумію, у захваті від
неї. Чи не спадало тобі на думку, що коли ці двоє дізнаються про те, що ти
робиш з Герміоною Ґрейнджер, ти їм можеш почати подобатися менше? Напевно, вони
не втручатимуться явно... Але вони можуть трохи баритися з нарахуванням тобі
очок гуртожитку, дещо повільніше надавати тобі можливості...

// 9073
//“Potter __snarked__ on me?”
-- Поттер __нажалівся__ на мене?

// 9074
//A ghostly chuckle, a dry heh-heh-heh. “Do you think those two are stupid,
//deaf and blind?” In a sadder whisper, “Do you think Hermione Granger is not
//precious to them, that they will not see her hurting? As they might have been
//fond of you once, their bright young Padma Patil, but you are throwing it
//away…”
Примарний сміх, сухе "`хе-хе-хе`".

-- Вважаєш цих двох дурними, глухими й сліпими? -- сумніший шепіт. -- Вважаєш, що
Герміона Ґрейнджер для них не дорогоцінна, що вони не бачать, як вона страждає?
Можливо, колись вони були в захваті від тебе, їхньої маленької розумної Падми Патіл,
то заради чого ти відкидаєш це?

// 9075
//Padma’s throat was dry. She hadn’t thought of that, not at all.
У Падми пересохло в горлі. Про це вона не подумала, зовсім.

// 9076
//“I wonder how many people will end up caring for you, Padma Patil, on this
//path that you now tread. Is it worth that much, just to distance yourself
//further from your sister? To be the shadow to Parvati’s light? Your deepest
//fear has always been to fall into harmony with her, __back__ into harmony
//with her I should say; but is it worth hurting an innocent girl, just to make
//yourself that much more different? Must you be the __evil__ twin, Padma
//Patil, can you not find a different good to pursue?”
-- Цікаво, а скільком людям ти подобатимешся, Падмо Патіл, на цьому
шляху, яким ти тепер ідеш? Невже воно того варте, аби відрізнятися від своєї
сестри ще більше? Бути тінню до світла Парваті? Твоїм найглибиннішим страхом
завжди було знайти з нею гармонію, чи, радше, відновити гармонію. Але невже
заради цього варто завдавати шкоди невинній дівчині -- аби бути не такою,
як вона? Чи мусиш ти бути __злою__ близнючкою, Падмо Патіл, невже ти не можеш
знайти іншу добру мету?

// 9077
//Her heart was hammering in her chest. She’d, she’d never talked about that
//with __anyone -__
Її серце стукотіло в грудях. Вона... вона ніколи про це __ні з ким__ не
розмовляла...

// 9078
//“I have always wondered at how students bully each other,” sighed the voice.
//“How children make life difficult for themselves, how they turn their schools
//into prisons even with their own hands. Why do human beings make their own
//lives so unpleasant? I can give you a part of the answer, Padma Patil. It is
//because people do not stop and think before causing pain, if they do not
//imagine that they themselves could also be hurt, that they might also suffer
//from their own misdeeds. But suffer you will, oh, yes, Padma Patil, suffer
//you will, if you stay on this road. You will suffer the same pain of
//loneliness, the same pain of others’ fear and distrust, that you now inflict
//on Hermione Granger. Only for you it will be deserved.”
-- Мене завжди цікавило, чому учні цькують одне одного, -- зітхнув голос. -- Як
діти роблять життя складнішим для самих себе, як вони перетворюють школи
на тюрми власними ж руками. Чому людські істоти роблять свої власні життя такими
неприємними? Я можу дати тобі частину відповіді, Падмо Патіл. Через те, що люди
не завдають собі клопоту зупинитися й подумати перед тим, як завдати болю, не
уявляють, що вони самі теж можуть зазнати болю, що вони можуть постраждати від
власних лихих вчинків. Але ти постраждаєш, о, так, Падмо Патіл, страждатимеш
ти, якщо не зійдеш з цього шляху. Ти страждатимеш від такого ж болю від самотності,
такого ж болю від страху й недовіри інших, якого ти завдаєш зараз Герміоні
Ґрейнджер. Тільки, на відміну від неї, ти на це заслуговуєш.

// 9079
//Her wand was shaking in her hand.
Паличка тремтіла в її руках.

// 9080
//“You did not choose sides when you went to Ravenclaw, girl. You choose your
//side by the way you live your life, what you do to other people and what you
//do to yourself. Will you illuminate others’ lives, or darken them? That is
//the choice between Light and Dark, not any word the Sorting Hat cries out.
//And the hard part, Padma Patil, is not saying ‘Light’, the hard part is
//deciding which is which, and admitting it to yourself when you begin down the
//wrong road.”
-- Ти не тоді вибрала сторону, коли пішла до Рейвенклову, дівчинко. Ти вибираєш
сторону тим, як живеш, тим, як поводишся з іншими людьми та з собою. Ти
робитимеш життя інших яскравішим чи тьмянішим? Ось вибір між Світлом та
Темрявою, а не якесь слово, що його вигукнув Сортувальний Капелюх. І
найскладніше, Падмо Патіл, не вимовити слово "`Світло`", найскладніше --
вирішити, що є що, і визнати, що ти почала йти не тим шляхом.

// 9081
//There was silence. It went on for a time, and Padma realized that she had
//been dismissed.
Запала тиша. Вона тяглася якийсь час, і Падма зрозуміла, що її відпустили.

// 9082
//Padma almost dropped her wand, when she tried to put it back into her pocket.
//She almost fell, when she took a step forward away from the wall, and turned
//to go -
Вона ледь не випустила паличку з рук, коли клала її назад до кишені. Падма ледь
не впала, коли зробила крок від стіни й збиралася вже йти...

// 9083
//“I have not always chosen rightly between Light and Dark,” the whisper said,
//now loud and harsh directly into her ear. “Do not take my wisdom as a final
//word, girl, do not fear to question it, for though I tried I have sometimes
//failed, oh, yes, I have failed. But you are hurting a true innocent, and you
//will achieve none of your ambitions by doing so, it is not for any cunning
//plan. You are inflicting pain purely for the sake of the pleasure it brings
//you. I have not always chosen rightly between Light and Dark, but that I know
//for darkness, for certain. You are hurting an innocent girl, and escaping
//retribution only because she is too kindly to tolerate her allies moving
//against you. I cannot hurt you for that, so know only that I cannot respect
//it. You are unworthy of Slytherin; go and do your Herbology homework,
//Ravenclaw girl!”
-- Я не завжди робив правильний вибір між Світлом та Темрявою, -- знову почувся
шепіт, тепер гучний та різкий, ніби лунав прямо їй у вухо. -- Не сприймай мою
мудрість як остаточну, дівчинко, не бійся ставити її під сумнів, бо хоч я й
старався, та були й невдачі, та ще й які. Але ти кривдиш дійсно невинну,
і навіть не заради досягнення якоїсь власної цілі, не для
якогось хитрого плану. Ти завдаєш болю лише заради власної втіхи. Я не завжди
правильно вибирав між Світлом і Темрявою, проте це безперечно темрява. Ти
шкодиш невинній дівчині, і не отримуєш відплати лише через те, що вона надто
добра, щоб дозволити своїм союзникам щось зробити з тобою. Я не можу тебе за це
покарати, то знай лише, що я зневажаю твій вибір. Ти не гідна Слизерину. Йди
й роби домашнє завдання з гербалогії, рейвенкловко!

// 9084
//The final whisper came out in a louder hiss that sounded almost like a snake,
//and Padma fled, she fled down the corridors like Lethifolds were chasing her,
//she ran heedless of the rules about running in the corridors, even when she
//passed other students who looked at her in surprise, she did not stop, she
//ran all the way to the Ravenclaw dorms with her pulse pounding in her neck,
//the door asked her “Why does the Sun shine in the day instead of the
//nighttime?” and it took her three tries before she could make her answer
//coherent, and then the door came open and she saw -
// hedrok: Lethifold -> смертефалд Абабагаламага (фантастичні звірі)
Останні слова скидалися на гучне шипіння, майже зміїне, і Падма втекла. Вона
бігла коридорами, ніби за нею гналися смертефалди; вона бігла, незважаючи на
правила про біг у коридорах; не зупинилася, навіть коли проминала інших учнів,
що з подивом на неї дивилися; бігла, аж доки дісталася дверей до рейвенкловської
вежі. Серце калатало їй в грудях, коли двері запитали її:

-- Чому сонце світить вдень, а не вночі?

Лише з третьої спроби вона змогла дати звʼязну відповідь, а коли двері відчинилися,
вона побачила...

// 9085
//- a few girls and boys, some young and some old, all staring at her, and in
//one corner at the pentagonal table, Harry Potter and Michael Corner and Kevin
//Entwhistle, looking up from their textbooks.
...декількох дівчат та хлопців, молодих та дорослих, і всі вони витріщалися на
неї, а в одному кутку за пʼятикутним столом були Гаррі Поттер, Майкл Корнер та
Кевін Ентвісл. Вони теж підвели погляд з підручників.

// 9086
//“Sweet Merlin!” exclaimed Penelope Clearwater, rising from a couch. “What
//happened to you, Padma?”
-- О Мерліне! -- вигукнула Пенелопа Клірвотер, підводячись з диванчика. -- Що
сталося, Падмо?

// 9087
//“I,” she stuttered, “I, I heard - a ghost -”
-- Я, -- вона затиналася, -- я, я чула... привида ...

// 9088
//“It wasn’t the Bloody Baron, was it?” said Clearwater. She drew her wand and
//a moment later she was holding a cup, and then an __Aguamenti__ later the cup
//was filled with water. “Here, drink this, sit down -”
-- Це ж був не Кривавий Барон, га? -- запитала Клірвотер. Вона дістала паличку й
за мить тримала склянку, а після "`Аґваменті`" -- склянку з водою. -- Ось, випий,
присядь...

// 9089
//Padma was already striding toward the pentagonal table. She looked at Harry
//Potter, who was looking at her with his own gaze, calm and grave and a little
//sad.
Падма вже хутко йшла до пʼятикутного стола. Вона подивилася на Гаррі Поттера,
що дивився на неї спокійним та серйозним поглядом, навіть дещо сумним.

// 9090
//“__You__ did this!” Padma said. “How - you - how dare you!”
-- __Ти__ це зробив! -- сказала Падма. -- Як... ти... як ти смієш!

// 9091
//There was a sudden hush in the Ravenclaw dorm.
Раптом у вітальні Рейвенклову запала тиша.

// 9092
//Harry just looked at her.
Гаррі лише дивився на неї.

// 9093
//And said, “Is there anything I can help you with?”
А тоді запитав:

-- Чи можу я тобі чимось допомогти?

// 9094
//“Don’t deny it,” Padma said, her voice shaking, “__you__ set that ghost on
//me, it __said__ -”
-- Не заперечуй, -- голос Падми тремтів, -- це __ти__ підіслав того привида,
він __сказав__...

// 9095
//“I mean it,” Harry said. “Can I help you with anything? Get you some food,
//or go fetch a soda for you, or help you with your homework, or anything like
//that?”
-- Я серйозно, -- сказав Гаррі. -- Чи можу я тобі чимось допомогти? Принести
тобі їжі, дістати газованої води, допомогти з домашнім завданням чи щось таке?

// 9096
//Everyone was staring at the two of them.
Усі витріщалися на них.

// 9097
//“Why?” Padma said. She couldn’t think of anything else to say, she didn’t
//understand.
-- А що? -- запитала Падма. Вона не знала, що ще сказати, вона не розуміла.

// 9098
//“Because some of us are standing on the precipice,” Harry said. “And the
//difference is what you do for other people. Will you let me help you with
//something, Padma, please?”
-- Бо деякі з нас стоять на краю прірви, -- сказав Гаррі. -- А важливо те, що
ти робиш для інших людей. Дозволь мені допомогти тобі з чимось, Падмо, будь
ласка.

// 9099
//She stared at him, and knew, in that moment, that he’d gotten his own
//warning, same as her.
Вона витріщилася на нього, і зрозуміла тієї миті, що він отримав власне
попередження, таке саме, як і вона.

// 9100
//“I…” she said. “I’ve got to write six inches on __lomillialor__ -”
-- Я... Мені треба написати шість дюймів про __ломіліалор__...

// 9101
//“Let me run up to my dorm room and get my Herbology stuff,” Harry said. He
//rose from the pentagonal table, looked at Entwhistle and Corner. “Sorry,
//guys, I’ll see you later.”
-- Зажди хвильку, я збігаю до себе, принесу все для гербалогії, -- сказав
Гаррі. Він підвівся з-за пʼятикутного стола, подивився на Ентвісла та
Корнера. -- Вибачте, хлопці, побачимося пізніше.

// 9102
//They didn’t say anything, just stared, along with everyone else in the dorm
//room, as Harry Potter walked over to the stairs.
Вони нічого не сказали -- лише витріщалися разом з усіма іншими у вітальні,
доки Гаррі Поттер ішов до сходів.

// 9103
//And just as he started up, he said, “And no one’s to pester her with
//questions unless __she__ wants to talk about it, I hope everyone’s __got
//that?__”
І коли він тільки-но почав підніматися, він сказав:

-- І щоб ніхто не надокучав їй питаннями, хіба що __вона__ захоче про це
розмовляти. Сподіваюся, усі __зрозуміли__?

// 9104
//“Got it,” said most of the first years and some of the older students, a few
//of them sounding quite scared.
-- Зрозуміли, -- сказали більшість першокласників та деякі старші учні, і багато
з них були доволі налякані.

***

// 9105
//And she talked about a lot of things with Harry Potter besides
//__lomillialor__ wood - even her fear of falling back into harmony with
//Parvati, which she’d never talked about with __anyone__ before, but then
//Harry’s ghostly ally already knew. And Harry had reached into his pouch and
//pulled out some __odd__ books, loaning them to her on condition of complete
//secrecy, saying that if she could comprehend those books it would change the
//pattern of her thinking enough that she’d never fall into harmony with
//Parvati again…
І вона розмовляла про купу всього з Гаррі Поттером, не лише про дерево
__ломіліалор__ -- навіть про свій страх повернутися до гармонії з Парваті, хоча
про це вона ще ніколи __ні з ким__ не розмовляла. Проте примарний союзник Гаррі
вже все одно про це знав. А Гаррі дістав зі свого капшучка якісь __дивні__
книжки й позичив їй на умовах абсолютної секретності, і сказав, що якщо вона їх
зрозуміє, то це змінить те, як вона думає, і вона вже ніколи не повернеться до
гармонії з Парваті...

// 9106
//At nine o’ clock, when Harry said he had to go, the essay was only half done.
О девʼятій, коли Гаррі сказав, що має йти, було зроблено лише половину реферату.

// 9107
//And when Harry paused, and looked at her on the way out, and said that __he
//__thought she was worthy of Slytherin, it made her feel good for a whole
//minute before she realized what had just been said to her and who had said
//it.
А коли Гаррі зупинився, озирнувся та сказав, що __він__ вважає, що вона гідна
Слизерину, вона цілу хвилину пишалася цим, доки не зрозуміла, що{stress} їй щойно
сказали, та хто{stress} це сказав.

***

// 9108
//When Padma got down to breakfast, that morning, she saw Mandy see her and
//whisper something to the girl sitting beside her at the Ravenclaw table.
Коли Падма спустилася до сніданку наступного ранку, вона побачила, що Менді її
побачила й шепотить щось сусідкам за рейвенкловським столом.

// 9109
//She saw that girl get up from the bench and walk toward her.
Вона побачила, що одна дівчинка підвелася з лавки та йде до неї.

// 9110
//Last night Padma had been glad that girl roomed in the other dorm; but now
//that she thought about it, this was worse, now she had to do it in front of
//__everyone__.
Минулого вечора Падма раділа, що в них різні спальні. Але тепер, коли вона про
це подумала, так було ще гірше: так їй доведеться зробити це в присутності
__всіх__.

// 9111
//But even though Padma was sweating, she knew what she had to do.
Але, хоч Падма й спітніла, вона знала, що має зробити.

// 9112
//The girl came closer -
Дівчина підійшла ближче...

// 9113
//“I’m sorry.”
-- Вибач.

// 9114
//“What?” said Padma. That was __her__ line.
-- Що? -- запитала Падма. Це мала бути __її__ репліка.

// 9115
//“I’m sorry,” repeated Hermione Granger. Her voice was loud so that everyone
//could hear. “I… I didn’t ask Harry to do that, and I was angry with him when
//I found out, and I made him promise not to do it again to __anyone__, and I’m
//not talking to him for a week… I’m really, __really __sorry, Miss Patil.”
-- Вибач, -- повторила Герміона Ґрейнджер. Вона казала це гучно, щоб усі інші
теж почули. -- Я... я не просила Гаррі це робити, і я на нього розізлилася,
коли дізналася, і змусила пообіцяти, що він ніколи не робитиме такого з
__будь-ким__, і я не розмовлятиму з ним тиждень... Мені справді, __справді__
прикро, міс Патіл.

// 9116
//Hermione Granger’s back was stiff, her face was stiff, you could see the
//sweat on her face.
Поза Герміони Ґрейнджер була напруженою, її обличчя було напруженим, і можна
було побачити піт на її лиці.

// 9117
//“Um,” said Padma. Her own thoughts were pretty much scrambled, now…
-- Ем... -- вимовила Падма. Наразі всі її думки переплуталися...

// 9118
//Padma’s gaze flicked to the Ravenclaw table, where one boy was watching them
//with tight eyes and his hands clenched in his lap.
Вона кинула оком на рейвенкловський стіл, де один хлопець спостерігав за ними
суворим поглядом, а його руки були стиснуті в кулаки на колінах.

***

// 9119
//__Earlier:__
__Раніше:__

// 9120
//“I told you to be __nicer!__” shrieked Hermione.
// hedrok: 048:8903 nicer
-- Я ж сказала тобі поводитися __приязніше__! -- верещала Герміона.

// 9121
//Harry was starting to sweat. He’d never actually heard Hermione scream at him
//before, and it was quite loud in the empty classroom.
Гаррі спітнів. Герміона ще ніколи не кричала на нього, і у порожньому кабінеті
було доволі гучно.

// 9122
//“I - but - but I __was__ nice!” Harry protested. “I practically __redeemed__
//her, Padma was going down the wrong path and I turned her off it! I probably
//changed her whole life to be happier! Besides, you should’ve heard the
//__original__ version of what Professor Quirrell suggested I do -” at which
//point Harry realized what he was saying and closed his mouth a second too
//late.
-- Я... але... але я __поводився__ приязно! -- запротестував Гаррі. -- Я
фактично __привів її до спокути__, Падма йшла хибним шляхом, і я її з нього
врятував! Я напевно змінив усе її життя на краще! Крім того, якби ти чула
__оригінальну__ версію того, що пропонував зробити професор Квірел... -- а тоді
Гаррі збагнув, що він каже, і закрив рота секундою пізніше, ніж було варто.

// 9123
//Hermione clutched at her chestnut curls, a gesture Harry hadn’t seen from her
//before. “What’d __he__ say to do? __Kill__ her?”
Герміона вхопилася за пасма свого каштанового волосся -- такого жесту Гаррі ще
в неї не бачив.

-- Що __він__ пропонував? __Убити__ її?

// 9124
//The Defense Professor had suggested that Harry identify all the key
//influential students inside and outside his year and try to gain control of
//the entire Hogwarts rumor mill, remarking that this was a generally useful
//and amusing challenge for any true Slytherin attending Hogwarts.
Професор із захисту пропонував був, щоб Гаррі знайшов усіх ключових впливових
учнів серед свого та інших років, і спробував отримати контроль над усією
мережею пліток Гоґвортсу. Він також зазначив, що це все одно корисний і цікавий
виклик для будь-якого справжнього слизеринця, що відвідує Гоґвортс.

// 9125
//“Nothing like __that,__” Harry said quickly, “he just said in a general way
//that I should get influence over the people spreading rumors, and __I__
//decided that the __nice__ version of that would be to just inform Padma
//directly about the meaning of what she was doing, and the possible
//consequences of her actions, instead of trying to threaten her or anything
//like that -”
-- Нічого __такого__, -- швидко сказав Гаррі, -- він просто запропонував,
загалом, щоб я отримав вплив на людей, що розповсюджують чутки, а __я__
вирішив, що __приязніше__ буде просто напряму проінформувати Падму про значення
того, що вона робить, та про можливі наслідки її дій, а не погрожувати їй чи
щось таке...

// 9126
//“__You call that not threatening someone?__” Hermione’s hands were pulling at
//her hair now.
-- __Ти вважаєш, що нікому не погрожував?__ -- тепер Герміона __тягнула__ себе за
волосся.

// 9127
//“Um…” Harry said. “I guess she might’ve felt a __little__ threatened, but
//Hermione, people will do whatever they think they can get away with, they
//don’t care about how much it hurts other people if it doesn’t hurt
//themselves, if Padma thinks there’s __no__ consequences to spreading lies
//about you then of __course__ she’ll just go on doing it -”
-- Ем... Можливо, їй здалося, що їй __трохи__ погрожують, але, Герміоно, якщо
людині здається, що щось їй зійде з рук, то вона це зробить, і начхати, як
сильно це шкодить іншим, якщо не шкодить їй самій. Якби Падма вважала,
що для неї __не буде__ жодних наслідків через поширення брехні про тебе, то
__звісно__ вона б просто робила це далі...

// 9128
//“And you think there’s going to be no consequences to what __you__ did?”
-- І ти гадаєш, що не буде жодних наслідків через __твої__ дії?

// 9129
//Harry got a sudden sick feeling to his stomach.
Раптом Гаррі стало дуже зле.

// 9130
//Hermione had the angriest look on her that he’d ever seen. “What do you
//think the other students think of you now, Harry? Of __me?__ If Harry doesn’t
//like the way you talk about Hermione, you’ll get ghosts set on you, is that
//what you want them to think?”
Він ще ніколи не бачив Герміону такою розлюченою.

-- Що тепер про тебе думають інші учні, Гаррі? А про __мене__? "`Якщо Гаррі не
сподобається, що я кажу про Герміону, то він нацькує на мене привидів.`"
Ось що ти хочеш, щоб вони думали?

// 9131
//Harry opened his mouth and no words came out, he just… hadn’t thought about
//it that way, actually…
Гаррі розкрив рота, проте не знайшов слів, він просто... просто не подумав про
це, насправді...

// 9132
//Hermione reached down to grab her books from the table where she’d slammed
//them. “I’m not talking to you for a week, and I’ll __tell__ everyone I’m not
//talking to you for a week, and I’ll tell them __why__, and __maybe__ that’ll
//undo some of what you just did. And after that week, I’ll - I’ll decide then
//what to do, I guess -”
Герміона потяглася й схопила книжки, що вона їх туди гепнула раніше.

-- Я не розмовлятиму з тобою тиждень, і я __скажу__ всім, що не розмовлятиму з
тобою тиждень, і я скажу всім, __чому__, і, __можливо__, це частково виправить те,
що ти зробив. А за тиждень я... я вирішу, що робити, гадаю...

// 9133
//“__Hermione!__” Harry’s own voice rose to a shriek of desperation. ”__I was
//trying to help!__”
-- __Герміоно!__ -- тепер вже Гаррі кричав від розпачу. -- __Я хотів
допомогти!__

// 9134
//The girl turned back and looked at him as she opened the classroom door.
Дівчина обернулася й подивилася на нього, хоча вже відчинила двері до кімнати.

// 9135
//“Harry,” she said, and her voice trembled a little beneath the anger,
//“Professor Quirrell is sucking you into the darkness, he really is, I mean
//it, Harry.”
// hedrok: "sucking you into the darkness" копія 8878
-- Гаррі, -- сказала вона, крім злості в її голосі чулося легке тремтіння. --
Професор Квірел засмоктує тебе в темряву, чесно, я серйозно, Гаррі.

// 9136
//“This… wasn’t him, this wasn’t what he said to do, this was just __me__ -”
-- Це... це не він, він не це пропонував, це був просто __я__...

// 9137
//Hermione’s voice was almost a whisper now. “Someday you’re going to go out to
//lunch with him, and it will be your dark side that comes back, or maybe even
//you won’t come back at all.”
Тепер Герміона ледь не шепотіла.

-- Якось ти підеш з ним на обід, а повернеться лише твоя темна сторона, а може
ти й узагалі не повернешся.

// 9138
//“I promise you,” Harry said, “that I __will__ come back from lunch.”
-- Я обіцяю, що я __повернуся__ з обіду.

// 9139
//He wasn’t even thinking as he said it.
Він сказав це бездумно.

// 9140
//And Hermione just turned around and strode out and slammed the door behind
//her.
Герміона відвернулася й хутко пішла, грюкнувши дверима за собою.

// 9141
//__Way to invoke the laws of dramatic irony, moron,__ observed Harry’s
//Internal Critic. __Now you’re going to die this Saturday, your last words
//will be ‘I’m sorry, Hermione’, and she’ll always regret that the last thing
//she did was slam the door -__
__Віртуозно зіграв на законах драматичної іронії, йолопе,__ зазначив внутрішній
критик Гаррі. __Тепер ти помреш цієї суботи, твоїми останніми словами буде
"`Герміоно, пробач`", а вона завжди шкодуватиме про цей свій останній грюк
дверима...__

// 9142
//__Oh, shut up.__
__Ой, замовкни.__

***

// 9143
//When Padma sat down with Hermione for breakfast, and said in a voice loud
//enough for others to hear that the ghost had just told her things that were
//important for her to hear, and Harry Potter had been right to do it, there
//were some people who were less frightened afterward, and some who were
//frightened more.
Коли Падма присіла поряд з Герміоною за сніданком, та голосно -- так, щоб інші
чули -- сказала, що привид розповів їй те, що їй було важливо почути, і Гаррі
Поттер вчинив був правильно, дехто став боятися менше, а дехто -- значно більше.

// 9144
//And afterward people __did __say fewer nasty things about Hermione, at least
//in the first year, at least in public where Harry Potter might hear about it.
Після цього люди __справді__ менше казали гидких речей про Герміону, принаймні
серед першокласників, принаймні публічно, де Гаррі Поттер міг про це почути.

// 9145
//When Professor Flitwick asked Harry if he was responsible for what had
//happened to Padma, and Harry said yes, Professor Flitwick told him that he
//was to serve two days’ detention. Even if it had only been a ghost and Padma
//hadn’t been hurt, still, that wasn’t acceptable behavior for a Ravenclaw
//student. Harry nodded and said that he understood why the Professor had to do
//that, and wouldn’t protest; but considering that it __did __seem to have
//turned Padma around, did Professor Flitwick really think, off the record,
//that he’d done the wrong thing? And Professor Flitwick paused, seeming to
//actually think about it, and then said to Harry, in a solemnly squeaky voice,
//that he needed to learn how to relate to other students the normal way.
Коли професор Флитвік запитав Гаррі, чи був він відповідальним за те, що
сталося з Падмою, а Гаррі відповів "`так`", професор Флитвік сказав йому,
що він винен два дні відпрацювань. Навіть якщо це був лише привид, і Падма
не постраждала, це все одно була неприйнятна поведінка для рейвенкловця. Гаррі
кивнув та сказав, що розуміє, чому професор Флитвік мусить це зробити, і не
сперечається. Та враховуючи, що це, видається, __справді__ виправило
Падму, чи не вважав професор Флитвік, не для протоколу, що Гаррі вчинив правильно?
А професор Флитвік деякий час мовчав, ніби справді обмірковував це, а тоді сказав
урочисто писклявим голосом, що Гаррі треба навчитися нормально спілкуватися
з іншими учнями.

// 9146
//And Harry couldn’t help but think that this was advice that Professor
//Quirrell would never give him.
І Гаррі не міг стримати думки, що такої поради він ніколи не почує від
професора Квірела.

// 9147
//Harry couldn’t help but think that if he’d done it Professor Quirrell’s way,
//the normal __Slytherin __way, a mixture of positive and negative incentives
//to bring Padma and the other rumor-mongers under his explicit control, then
//Padma wouldn’t have talked about it, and Hermione would have never found out…
Також Гаррі не міг стримати думки, що якби він вчинив так, як радив професор
Квірел, по-слизеринськи -- використав суміш позитивних та негативних стимулів,
щоб явно керувати Падмою та іншими пліткарями, -- то Падма б про це не
розповідала, і Герміона ніколи б не дізналася...

// 9148
//…in which case Padma wouldn’t have been redeemed, she would have stayed on
//the wrong path, and she herself would have suffered from that eventually. It
//wasn’t as if Harry had __lied __to Padma in any way, when he was Time-Turned
//and invisible and using the Ventriloquism Charm.
...і тоді Падма б не прийшла до спокути, вона б залишилася на хибному шляху, і
сама б зрештою через це страждала. І Гаррі жодним чином __не брехав__ Падмі,
коли був невидимим під дією часовороту та використовував чари черевомовлення.

// 9149
//Harry still wasn’t sure whether he’d done the right thing, or __a__ right
//thing, and Hermione hadn’t relented on not talking to him - though she was
//talking a lot with Padma. It hurt more than Harry had expected, going back
//to studying by himself; like his brain had already started to forget its
//long-honed skill of being alone.
Гаррі досі не був певен, чи діяв єдиним правильним чином, чи __одним з__ правильних.
Герміона не помʼякшила свого вироку не розмовляти з ним -- хоча вона багато розмовляла
з Падмою. Це було неприємніше, ніж Гаррі очікував, -- повернутися до самотнього
навчання. Ніби його мозок вже почав забувати довготреновану навичку бути на
самоті.

// 9150
//The days until Saturday’s lunch with Professor Quirrell seemed to go by very,
//very slowly.
Дні до суботнього обіду з професором Квірелом тягнулися дуже, дуже повільно.
