// 9967
//== TSPE, Constrained Cognition, Pt 7
== Розділ 57. СТЕ, Обмежене мислення, ч.7

// 9968
//Harry had __hoped__ that he’d just achieved fusion with his mysterious
//dark side and would be enabled to draw on all of its benefits with none of its
//drawbacks, call up the crystal clarity and indomitable will on demand, without
//needing to go cold or angry.
Гаррі __сподівався був__, що злився зі своєю таємничою темною стороною, і тепер
матиме всі її переваги без жодних недоліків -- зможе викликати кришталеву ясність
та незламність за бажанням без потреби ставати холодним та злим.

// 9969
//Once again, he’d overestimated how much progress he’d made. __Something__
//had happened, but Harry still had a mysterious dark side, it was still separate
//from him, and his ordinary self was still domitable. And despite the repair
//work he’d done on his dark side’s fear of death, he didn’t dare go dark while
//unshielded in Azkaban, that was tempting fate way too much.
Він вкотре переоцінив свої успіхи. __Щось__ змінилося, але Гаррі досі мав
таємничу темну сторону, вона досі була окремою сутністю, і його звичайне я досі
було зламним. Та незважаючи на успішне зцілення темної сторони від страху
смерті, Гаррі не наважувався зануритися в темну сторону посеред Азкабану, без
жодного захисту від дементорів -- не можна було аж так спокушати долю.

// 9970
//Which was unfortunate, because a bit of nondomitability would have __sure
//come in handy about now.__
А прикро, бо трохи незламності йому б __зовсім не завадило прямо зараз__.

// 9971
//What made it harder was that he couldn’t slump against a wall, couldn’t break
//into tears, couldn’t even heave a sigh. His dear Bella was watching him and
//that wasn’t the sort of thing her Dark Lord would do.
Особливо важко було через те, що він не міг спертися на стіну, не міг розплакатися,
не міг навіть зітхнути. Люба Бела спостерігала за ним, а нічого з цього її Темний
Лорд би не зробив.

// 9972
//“My Lord -” Bellatrix said. Her low voice was strained. “The Dementors - they
//are coming - I can feel them, my Lord -”
-- Володарю... -- напружено й тихо сказала Белатриса. -- Дементори... вони
наближаються... я відчуваю їх, володарю...

// 9973
//“Thank you, Bella,” said a dry voice, “I already know that.”
-- Дякую, Бело, -- пролунав сухий голос, -- я вже знаю.

// 9974
//Harry couldn’t sense the holes in the world the same way as when he’d been
//wearing the Deathly Hallow, but he could feel the empty pull increasing in
//intensity. At first he’d mistaken it for the result of descending a stairwell,
//until he and Bellatrix had finished descending and the pull had gone on
//increasing. Then decreased, as the Dementors moved away along the spiral, then
//increased as they went up another flight of stairs… There were Dementors within
//Azkaban itself now, and they were coming for him. Of course they were. Harry
//might be resistant now, but he was not __hidden.__
Гаррі не міг відчувати діри цього світу так само, як коли він був під Смертельною
реліквією, проте він відчував, що потяг порожнечі посилився. Спочатку він помилково
приписав це спуску сходами, але коли вони завершили спускатися, посилення не спинилося.
Потім зменшилося, коли дементори пішли далі вздовж спіралі, потім знову почало збільшуватися,
коли вони почали підійматися сходами... Тепер дементори були всередині Азкабану, і вони
йшли за Гаррі. Ну звісно. Може Гаррі тепер і стійкий, але не __схований__.

// 9975
//__New requirement,__ Harry told his brain. __Find a way of defeating
//Dementors that doesn’t invoke my Patronus Charm. Alternatively, find yet
//another way of hiding someone from Dementors, besides the Cloak of Invisibility
//-__
__Нова вимога,__ сказав Гаррі своєму мозкові. __Знайди спосіб здолати дементорів
без чарів патронуса. Альтернативно, знайди ще один спосіб сховати когось від
дементорів, крім Плаща невидимості...__

// 9976
//__I quit,__ said his brain. __Find yourself another piece of
//computing substrate to solve your ridiculously overconstrained problems.__
__Я звільняюся,__ сказав його мозок. __Знайди собі інший шматок обчислювального
субстрату, що розв'язуватиме твої задачі зі сміховинно великою кількістю
обмежень.__

// 9977
//__I mean it,__ thought Harry.
__Я серйозно,__ подумав Гаррі.

// 9978
//__So do I,__ said his brain. __Put up your Patronus Charm and wait
//for the Aurors to find you. Be sensible. It’s over.__
__Я теж,__ сказав його мозок. __Застосуй чари патронуса й чекай, доки тебе
знайдуть аврори. Схаменися. Усе скінчено.__

// 9979
//__Give up…__
__Здавайся...__

// 9980
//The sucking emptiness seemed to pull harder, as he thought it; and Harry
//realized what was happening, concentrated more intensely on the stars, turned
//his mind away from the despair -
Потяг порожнечі посилювався щомиті, і Гаррі збагнув, що коїться. Він старанніше
зосередився на зірках, спробував ігнорувати розпач...

// 9981
//__You know,__ observed the logical side of him, __if you’re not
//allowed to think __any __negative thoughts because that will open your
//mind to the Dementors, __that’s__ a cognitive bias too, how would you know
//if it actually __was__ time to give up?__
__А знаєш,__ зазначила його логічна частина, __якщо тобі не дозволено
__жодної__ негативної думки через те, що вона відкриє твій розум дементорам, то
__це теж__ когнітивне упередження. Як ти дізнаєшся, коли __справді__ час
здаватися?__

// 9982
//A desperate sobbing scream rose up from below, words mixed in like “no” and
//“away”. The prisoners knew, the prisoners could feel it.
Знизу почулося відчайдушне схлипування й крики, чулися слова "`ні`" та "`геть`".
В'язні знали, в'язні відчували.

// 9983
//The Dementors were coming.
Дементори наближалися.

// 9984
//“My Lord, you - you should not risk yourself for me - take back your Cloak -”
-- Володарю, ви... ви не маєте ризикувати собою заради мене... заберіть свій
Плащ...

// 9985
//“Be silent, fool,” hissed an angry voice. “When I decide to sacrifice you I
//will tell you so.”
-- Тихо, дурепо, -- злобно прошипів голос. -- Коли я вирішу тобою пожертвувати,
я тобі скажу.

// 9986
//__She’s got a valid point,__ said Slytherin. __You
//__shouldn’t__ risk yourself for her, there’s no way her life is as
//valuable as yours.__
__Вона має рацію,__ сказав слизеринець. __Ти __не маєш__ ризикувати собою заради
неї. Не може бути, щоб її життя було таким же цінним, як твоє.__

// 9987
//For an instant Harry considered sacrificing Bellatrix to save himself -
І щойно Гаррі почав розглядати можливість принести Белатрису в жертву, щоб
врятувати себе...

// 9988
//And in that moment, some of the dim orange gas-light seemed to flee the
//corridor, a touch of cold crept over Harry’s fingertips. And he knew, then,
//that to think of leaving Bellatrix to the shadows of Death, would make him
//vulnerable once more. Even in the moment of making the decision, he might
//become unable to cast the Patronus Charm, for he would have given up the
//thought that had saved him before.
Тієї ж миті, частина тьмяного оранжевого світла гасових ламп ніби зникла з
коридору, а пальців Гаррі торкнулася холоднеча. І тоді він зрозумів, що сама
думка про те, щоб залишити Белатрису тіням смерті робить його знов вразливим.
Щойно він прийме це рішення, він, мабуть, навіть не зможе більше
використовувати чари патронуса, адже зрадить ту ідею, що рятувала його раніше.

// 9989
//It occurred to Harry that he could still take the Cloak from Bellatrix
//afterward, even if he couldn’t cast the Patronus Charm; and then he had to
//wrench his thoughts away from that option, focus firmly on his decision
//__not__ to do it, or he might have just fallen over where he stood. For
//the whirlpool of emptiness swirling around him was now deadly strong; there
//were screams coming from __above__, and the screams below had stopped.
Гаррі спало на думку, що він усе одно зможе взяти в Белатриси Плащ, навіть
якщо більше не буде здатен на чари патронуса. А тоді йому довелося хутко
спинити цей хід думок, і цілковито зосередитися на рішенні __не__ робити
цього, бо інакше він міг би просто впасти на місці. А вир порожнечі навколо
нього вже став смертельно сильним. Кричали тепер __над__ ним, крики внизу
спинилися.

// 9990
//__This is ridiculous,__ said his logical side. __Rational agents
//shouldn’t have to put up with this sort of censored reasoning process, all the
//theorems assume that how you think doesn’t affect reality apart from your
//actual actions, which is why you’re free to choose an optimal algorithm without
//worrying about how your thoughts interact with Dementors -__
__Це якась маячня,__ зазначила його логічна частина. __Раціональні агенти не
мають зазнавати такої цензури на процес мислення, усі теореми ґрунтуються на
тому, що процес мислення не впливає на дійсність жодним чином, крім як через
прийняті рішення, і, відповідно, можна вибрати оптимальний алгоритм та не
турбуватися про те, як твої думки взаємодіють з дементорами...__

// 9991
//…
...

// 9992
//__That is a really dumb idea,__ said Gryffindor. __Even I think it’s
//a dumb idea and I’m your Gryffindor side. You’re not seriously going to just
//stand there and -__
__Це справді дурна думка,__ сказав ґрифіндорець. __Навіть я вважаю цю думку
дурною, а я твій внутрішній ґрифіндорець. Ти ж не збираєшся насправжки просто
стояти там і...__

***

// 9993
//“We have a fix!” shouted Ora, holding up her magic mirror as though in triumph.
//“The Dementor outside the inner wall pointed to level seven, C spiral, that’s
//where they are!”
-- Ми знайшли їх! -- крикнула Ора, тріумфально підвівши чарівне дзеркало.
-- Дементори за внутрішніми стінами визначили місце: сьомий рівень, спіраль
"`В`", ось де вони!

// 9994
//Her Aurors were looking at her expectantly.
Аврори очікувально втупилися у неї.

// 9995
//“No,” Amelia said in a level voice. “That’s where __one__ of them is. The
//Dementors still can’t find Bellatrix Black. We are not running down there and
//letting her through in the confusion, and we are not dividing our forces to be
//ambushed. So long as we move with caution, we can’t lose. Tell Scrimgeour and
//Shacklebolt to keep going down level by level, same as before -”
-- Ні, -- спокійно сказала Амелія. -- Там __один__ з них. Дементори досі не можуть
знайти Белатрису Блек. Ми не кинемося туди й не дозволимо їй прослизнути в сум'ятті.
Ми не розділятимемо сили, щоб не втрапити у засідку. Якщо просуватися обережно,
ми не програємо. Передайте Скрімджерові та Шеклболтові, щоб продовжували спускатися
рівень за рівнем, як і раніше...

// 9996
//The old wizard was already striding forward. Amelia didn’t even bother cursing
//him, this time, as once again their carefully constructed shields parted like
//water and rippled gently in his wake.
Старий чарівник вже жваво йшов уперед. Цього разу Амелія навіть не марнувала
дихання на те, щоб клясти його, а їхні старанно зведені щити знову розступилися
перед ним мов вода, і лише трохи сколихнулися, коли він пройшов.

***

// 9997
//Harry waited at the beginning of the corridor, just next to the stairs leading
//upward. Bellatrix and the snake were behind him, concealed by the Deathly
//Hallow that Harry had mastered; he knew, though he could not see, that the
//emaciated sorceress was sitting upon the stairs, slumped back, since Harry had
//withdrawn his Hover Charm to free up his mind and magic.
Гаррі чекав на початку коридору, коло сходів, що вели нагору.
Белатриса зі змієм були за ним, їх приховувала опанована Гаррі Смертельна
реліквія. Він знав, хоч і не міг бачити, що виснажена чаклунка сиділа на
сходах, відкинувшись назад, бо Гаррі скасував чари польоту, щоб звільнити свій
розум та магію.

// 9998
//Harry’s eyes were fixed on the far end of the corridor, next to the stairs that
//led downward. Not in his mind now, but in true reality, the light in the
//corridor had dimmed, the temperature had fallen. The fear thundered over him
//and around him like a sea whipped by hurricane winds, and the sucking emptiness
//had become a howling draw toward some approaching black hole.
Гаррі втупився в дальній кінець коридору -- там, де сходи йшли вниз. Тепер
світло потьмяніло, а температура впала не лише в його розумі, а й у дійсності.
Страх гримів над ним та навколо нього, мов море під час бурі, а потяг порожнечі
перетворився на страшенну тягу чорної діри, що все ближчала.

// 9999
//Up the stairs at the far end, floating smoothly through the dying air, came the
//voids, the absences, the wounds in the world.
Угору сходами на іншому кінці коридору крізь вмираюче повітря рівномірно пливли
порожнечі, відсутності, рани світу.

// 10000
//And Harry expected them to stop.
Гаррі очікував, що вони зупиняться.

// 10001
//With all the will and focus he could muster, Harry __expected them to
//stop.__
Чимдуж, щонайсильніше зосередився на тому, що __очікує, що вони зупиняться.__

// 10002
//Anticipated their stopping.
Прогнозував їхню зупинку.

// 10003
//Believed they would stop.
Вірив, що вони зупиняться.

// 10004
//…that was the idea, anyway…
...ну, принаймні, такий був задум...

// 10005
//Harry shut down the dangerous stray thought, and __expected the Dementors
//to halt.__ They had no intelligence of their own, they were just wounds in the
//world, their form and structure was borrowed from others’ expectations. People
//had been able to negotiate with them, offer them victims in exchange for
//cooperation, only because they __believed Dementors would bargain. __So if
//Harry believed hard enough that the voids would turn and go, they would turn
//and go.
Гаррі обрубав небезпечну випадкову думку і __очікував, що дементори
заклякнуть__. У них не було власного інтелекту, вони були лише ранами світу,
вони приймали подобу й структуру згідно очікувань інших. Люди могли вести з
ними перемовини, пропонувати їм жертви в обмін на співпрацю лише через те, що
__вірили, що з дементорами можна домовлятися__. Отже, якщо Гаррі достатньо
сильно повірить, що порожнечі розвернуться та підуть геть, то вони розвернуться
й підуть геть.

// 10006
//But the wounds in the world kept coming, the swirling fear seemed like a solid
//thing now, the emptiness tearing at matter as well as mind, substance as well
//as spirit, you could see the metal beginning to tarnish as the holes in the
//world passed.
Але рани світу все наближалися, вир страху вже здавався суцільним, порожнеча
розривала матерію й розум, речовину й дух, можна було навіть побачити, як метал
тьмянів, коли діри світу проминали його.

// 10007
//A small sound came from behind him, from Bellatrix, but she said no word, for
//she had been instructed to remain silent.
Він почув за спиною тихий звук від Белатриси. Вона не вимовила жодного слова, бо
їй було наказано мовчати.

// 10008
//__Don’t think of them as creatures, think of them as psychosensitive
//objects, they can be controlled if I can control myself -__
__Не думай про них як про живих істот, вважай їх психочутливими об'єктами. Я можу
їх контролювати, якщо можу контролювати себе...__

// 10009
//The problem was that he __couldn’t__ control himself so easily, couldn’t
//make himself believe blue was green by an act of will. Couldn’t suppress all
//those thoughts about how irrational it was to __make__ yourself believe
//something. How __impossible__ it was to trick yourself into believing
//something if you __knew__ that was what you were doing. All the training
//Harry had given himself against self-deception was refusing to switch off
//__no matter how harmful it was in this unique special case -__
Проблема була в тому, що він __не міг__ контролювати себе так легко, не міг
змусити себе вірити, ніби щось синє -- зелене, силою волі. Не міг позбутися усіх
думок про те, як ірраціонально __змушувати__ себе повірити у щось. Як __неможливо__
за допомогою будь-яких хитрощів повірити у щось, якщо ти __знаєш__, що намагаєшся
себе обдурити. Усе тренування Гаррі проти самообману відмовлялося вимикатися,
__хай як це шкодило саме в цьому унікальному, особливому випадку...__

// 10010
//The shadows of Death crossed the halfway point of the corridor, and Harry held
//up his hand, fingers spread, and said in a voice of firm and confident command,
//“Stop.”
Тіні смерті перетнули вже половину коридору, і тоді Гаррі підвів руку з розчепіреними
пальцями і наказав твердим, упевненим голосом:

-- Зупиніться.

// 10011
//The shadows of Death stopped.
Тіні смерті зупинилися.

// 10012
//Behind Harry, Bellatrix gave a strangled gasp, like it was being torn out of
//her.
За спиною Белатриса придушено зойкнула, ніби їй вибили повітря з грудей.

// 10013
//Harry gestured to her, the signal he had set up in advance which meant,
//__repeat what you heard the Dementors say.__
Гаррі зробив жест -- заздалегідь умовлений сигнал, що означав "`повтори все, що
сказали дементори`".

// 10014
//“They say,” Bellatrix said, her voice was shaking, “they said, ‘Bellatrix Black
//was promised us. Tell us where she hides, and you will be spared.’”
-- Вони кажуть, -- голос Белатриси тремтів, -- вони сказали: "`Нам обіцяли Белатрису
Блек. Скажи, де вона ховається, і тебе помилують.`"

// 10015
//“Bellatrix?” Harry said, making his voice sound amused. “She escaped a while
//ago.”
-- Белатриса? -- запитав Гаррі з напускною веселістю. -- Вона вже давно втекла.

// 10016
//A moment later, Harry realized that he should have said that Bellatrix was
//among the Aurors in the top level, that would have caused more confusion -
За мить Гаррі зрозумів, що варто було сказати, ніби Белатриса серед аврорів
на верхньому рівні -- це призвело б до більшого хаосу.

// 10017
//No, it was wrong to think of the Dementors as trickable, they were merely
//__things,__ they were controlled only by __expectations -__
Ні, неправильно вважати, ніби дементорів можна обдурити, -- вони лише
__предмети__, ними керують __очікування__ інших...

// 10018
//“They say,” Bellatrix said in a cracked voice, “they say they know you’re
//lying.”
-- Вони кажуть, -- надломленим голосом доповідала Белатриса, -- кажуть, що
знають, що це брехня.

// 10019
//The voids began to move forward again.
Порожнечі відновили рух уперед.

// 10020
//__Her anticipations are more solidly believed than mine; she is
//controlling them, unwittingly -__
__Її очікування мають більшу віру, ніж мої. Їх контролює вона, і
сама про це не знає...__

// 10021
//“Don’t resist,” Harry said, pointing his wand behind him.
-- Не чини опору, -- сказав Гаррі, і вказав паличкою за спину.

// 10022
//“I, I love you, farewell, my Lord -”
-- Я, я кохаю вас, прощавайте, володарю...

// 10023
//“__Somnium.__”
-- __Сомніум__.

// 10024
//It had helped, strangely enough, hearing those particular awful words,
//understanding Bellatrix’s mistake; it reminded Harry why he was fighting.
Це, як не дивно, допомогло -- почути саме ці жахливі слова, зрозуміти помилку
Белатриси. Це нагадало Гаррі, за що він бореться.

// 10025
//“Stop,” Harry said again. Bellatrix was asleep; now only his own will, his own
//expectations rather, should control those spheres of annihilation -
-- Зупиніться, -- повторив Гаррі.

Белатриса спала, тепер лише його воля чи, радше, його очікування мали керувати
цими сферами анігіляції...

// 10026
//But they kept on gliding forward, and Harry couldn’t stop himself from worrying
//that the previous experience had damaged his confidence, which meant that he
//__wouldn’t__ be able to stop them, and as he noticed himself thinking
//that, he doubted even more - he needed more time to prepare, really ought to
//practice controlling just one Dementor in a cage first -
Але вони все просувалися далі, і Гаррі не міг стримати хвилювання, чи не
зашкодив попередній досвід його впевненості, і через це він __не зможе__
зупинити їх. Через усвідомлення цього він починав сумніватися ще більше...
Йому потрібен був час, щоб підготуватися, краще було б спочатку навчитися
контролювати лише одного дементора в клітці...

// 10027
//There was only a quarter of corridor now between Harry and the shadows of
//death, the empty winds were so strong that Harry could feel the erosion
//beginning in the cracks of himself.
Між Гаррі та тінями смерті залишилася лише чверть коридору, вітри порожнечі
були такими сильними, що Гаррі вже відчував, як ерозія почала діяти на нього
самого.

// 10028
//And the thought came to Harry that maybe he was wrong, maybe Dementors
//__did__ have their own desires and planning capability. Or maybe they were
//controlled by how __everyone__ thought they worked, not just whoever was
//closest to them. And in either case -
І тоді Гаррі спало на думку, що, можливо, він просто помилявся, і в дементорів
__були__ власні бажання й можливість планувати. А може їх контролювало
уявлення __кожного__ про їхню поведінку, а не лише того, хто був до них найближчим. А
тоді...

// 10029
//Harry drew up his wand into the starting position for the Patronus Charm, and
//spoke.
Гаррі виставив паличку в початкову позицію чарів патронуса та сказав:

// 10030
//“One of your number went to Hogwarts and did not return. It no longer exists;
//that Death is dead.”
-- Один вашого роду потрапив до Гоґвортса й не повернувся. Його більше не існує.
Смерть померла.

// 10031
//The Dementors halted, a dozen wounds in the world stood motionless, while the
//emptiness screamed around them like a deadly wind to nowhere.
Дементори зупинилися, дюжина ран світу нерухомо повисла в повітрі, а порожнеча
кричала навколо них, ніби смертельний вітер, що дув у ніщо.

// 10032
//“Turn and go and do not speak of this to anyone, little shadows, or I will
//destroy you as well.”
-- Розверніться та йдіть, і не кажіть про це нікому, маленькі тіні, або я знищу
й вас.

// 10033
//Harry’s fingers slid into the starting position for the Patronus Charm, and
//readied himself to cast it; in his mind, the Earth shone among the stars, the
//day side bright and blue with reflected sunlight, the night side glimmering
//with the light of human cities. Harry wasn’t bluffing, wasn’t trying to do
//anything tricky with his thoughts. The shadows of Death would move forward and
//be annihilated, or they would depart, he was equally ready for either…
Гаррі пересунув пальці до початкової позиції чарів патронуса, підготувався
застосувати їх. У його розумі Земля вже світилася посеред зірок, денна сторона
була яскравою та синьою у сонячному світлі, нічна сторона мигтіла світлом
людських міст. Гаррі не блефував, не намагався якось схитрувати. Тіні смерті
рушать уперед і будуть анігільовані, або вони підуть. Він був готовий до обох
варіантів...

// 10034
//And the voids retreated back as smoothly as they came, the winds of nothingness
//lessening with each meter they traversed, as they slid back down the stairs,
//and departed.
І порожнечі так само плавно пішли туди, звідки прийшли. Нищівний вітер слабшав
з кожним метром їхнього віддалення, коли вони спускалися сходами й зникли.

// 10035
//Whether they truly had their own pseudo-intelligence, or whether Harry had
//finally succeeded in __expecting__ them to go… that, Harry didn’t know.
Чи в них справді був якийсь власний псевдоінтелект, чи Гаррі просто нарешті
вдалося __повірити__, що вони підуть... Цього Гаррі не знав.

// 10036
//But they were gone.
Але вони пішли.

// 10037
//Harry took a moment to sit down beside the unconscious Bellatrix on the stairs,
//and slumped down as she was slumped, closing his eyes for a moment, only a
//moment, he sure as hell wasn’t planning to sleep in Azkaban, but he needed to
//take that moment. The Aurors would still be going down the stairs slowly, Harry
//hoped, so it wouldn’t hurt to take just five minutes to rest. Harry was careful
//to keep his thoughts positive, cheerful, __my, I’ll just have some nice
//regenerative rest here, and then I’ll feel better,__ rather than, say,
//__my, I’ll just collapse in emotional and physical exhaustion,__ because
//the Dementors hadn’t yet retreated very far.
Гаррі скористався нагодою: присів поряд з непритомною Белатрисою на сходах,
відкинувся назад, як і вона, і навіть на мить заплющив очі. Лише на мить --
він, дідько, не планував спати в Азкабані. Проте ця мить йому була потрібна.
Аврори, як сподівався Гаррі, продовжать повільно спускатися сходами, тому якісь
пʼять хвилин відпочинку не завадять. Гаррі старанно формулював свої думки
позитивно й радісно: "`ой, я тут трохи відновлю сили й мені стане краще`"
замість, скажімо, "`ой, я просто впаду тут від емоційного й фізичного
виснаження`", бо дементори ще недостатньо віддалилися.

// 10038
//__And by the way,__ Harry said to his brain, __you’re fired.__
__І, до речі,__ сказав Гаррі своєму мозку, __тебе звільнено.__

***

// 10039
//“I found him!” cried the old wizard’s voice.
-- Я його знайшов! -- почувся крик старого чарівника.

// 10040
//__Who?__ thought Amelia, as she turned to see Dumbledore’s return,
//carrying in his arms -
__Кого?__ подумала Амелія, а тоді обернулася, щоб побачити, як Дамблдор
повернувся, а в нього в руках...

// 10041
//- the one sight, the one person, she would never have expected to behold -
...було те єдине, та єдина людина, яку вона ніколи б не очікувала побачити...

// 10042
//- a man in torn red robes, looking scorched like he’d fought a small war, blood
//dried on many cuts. His eyes were open, and he was chewing on a bar of
//chocolate, held in his one living hand.
...чоловіка в пошматованій червоній мантії, він був весь подряпаний, ніби брав участь
у невеличкій війні, засохла кров прикривала чимало порізів. Його очі були розплющені,
і він жував плитку шоколаду, яку тримав у живій руці.

// 10043
//Bahry One-Hand was __alive.__
Барі Однорук був __живим__.

// 10044
//A glad cry went up, her Aurors lowering their wands, some of them already
//starting to rush forward.
Здійнявся радісний гомін, її аврори опускали палички, дехто вже поспішав
підійти.

// 10045
//“__Stay on guard!__” bellowed Amelia. “Check them both for Polyjuice -
//scan Bahry for small Animagi or traps -”
-- __Не розслаблятися!__ -- прогриміла Амелія. -- Перевірте їх обох на
багатозільну настоянку, проскануйте Барі щодо дрібних анімагів та пасток...

***

// 10046
//“__Innervate. Wingardium Leviosa.__”
-- __Інервація. Вінґардіум Левіоза.__

// 10047
//There was a pause. Harry sensed, though he could not quite see, that the
//invisible woman was pushing herself to her feet, and turning her head to look
//around. “I’m… alive…?”
Запанувала тиша. Потім Гаррі відчув, хоча не міг цього бачити, що невидима жінка
підвелася на ноги й вертіла головую, щоб роззирнутися довкола.

-- Я... жива?..

// 10048
//Harry was sorely tempted to say no, just to see what she made of that. Instead
//he hissed, “Don’t ask stupid questions.”
Гаррі кортіло сказати "`ні`" -- просто подивитися на її реакцію.

-- Не став дурних питань, -- прошипів він натомість.

// 10049
//“What happened?” whispered Bellatrix.
-- Що сталося? -- прошепотіла Белатриса.

// 10050
//And the Dark Lord gave a wild, high-pitched laugh, and said, “I scared the
//Dementors away, my dear Bella.”
І Темний Лорд видав дикий, високий сміх.

-- Я відлякнув дементорів, моя люба Бело.

// 10051
//There was a pause. Harry wished he could see Bellatrix’s face; had he said the
//wrong thing?
І знову тиша. Гаррі хотів бачити обличчя Белатриси. Невже він сказав щось не так?

// 10052
//After a time, in a quavering voice, “Could it be, my Lord, that in your new
//form, you have begun to care for me -”
За деякий час почувся тремтячий голос:

-- Чи може таке бути, володарю, що у цій новій подобі я стала вам не байдужа...

// 10053
//“No,” Harry said coldly, and turned from her (though he kept his wand on her),
//and began walking. “And take care that you do not offend me again, or I will
//abandon you here, use or no use. Now follow, or be left behind; I have work to
//do.”
-- Ні, -- холодно сказав Гаррі, відвернувся (хоча не відводив від неї палички)
і почав йти. -- І доклади зусиль, щоб більше не дратувати мене, або -- є з тебе
користь чи ні -- кину тебе тут. А тепер іди за мною чи лишайся. У мене є
робота.

// 10054
//Harry strode forward, not listening to the gasping sounds that came from behind
//him; he knew Bellatrix was following.
Гаррі швидким кроком пішов уперед, і не слухав схлипувань, що лунали позаду.
Він знав, що Белатриса йде за ним.

// 10055
//…because the last thing that woman needed, the very last thing she needed to
//start thinking before the psychiatric healer began trying to deprogram her, was
//to believe that her Dark Lord could ever love her back.
...бо менше за все цій жінці було потрібно, найостанніше, що їй було потрібно
перед тим, як психіатричний цілитель почне спроби повернути її справжню, -- це
повірити в те, що Темний Лорд колись може покохати її у відповідь.

***

// 10056
//The old wizard smoothed his silver beard contemplatively, looking at where
//Auror Bahry was being carried out of the room by two strong Aurors.
Старий чарівник задумливо гладив свою срібну бороду і споглядав за тим, як
аврора Барі виносять з кімнати два сильних аврори.

// 10057
//“Do you understand this, Amelia?”
-- Ти щось розумієш, Амеліє?

// 10058
//“No,” she said simply. She suspected some trap they hadn’t yet been able to
//fathom, which was why Auror Bahry was going to be kept outside the main party
//and guarded.
-- Ні, -- прямо відповіла вона.

Вона підозрювала, що це якась пастка, яку вони не змогли намацати. Тому аврора Барі
не буде задіяно в операції -- натомість його стерегтимуть.

// 10059
//“Perhaps,” the old wizard said at length, “whichever of their number can cast
//the Patronus Charm, is more than a simple hostage. Someone who was tricked into
//this, mayhap? For whatever reason, they left your Auror alive; let us not be
//the first to wield deadly curses, when we find them -”
-- Можливо, -- повільно вимовив старий чарівник, -- той з них, хто здатен на
чари патронуса -- не просто заручник. Хтозна, може його змусили брати в цьому
участь хитрощами? Хай з якої причини, вони лишили твоєму авророві життя. Не
будьмо першими, хто користуватиметься смертельними закляттями, коли знайдемо
їх...

// 10060
//“I see,” said the old witch in sudden realization, “__that__ was their
//plan. It costs them nothing to Oblivate him and leave him alive, and makes
//__us__ hesitate -” Amelia nodded decisively, and said to her people, “We
//carry on as before.”
-- Ясно, -- раптом зрозуміла стара відьма, -- __ось__ який у них план.
Забуттятнути й залишити його живим їм нічого не коштувало, а __нас__ змушує
вагатися... -- Амелія рішуче кивнула та звернулася до своїх людей. --
Продовжуємо без змін.

// 10061
//The old wizard sighed. “Any news from the Dementors?”
Старий чарівник зітхнув.

-- Є якісь новини від дементорів?

// 10062
//“If I tell you,” Amelia snapped, “will you run off again?”
-- Якщо я скажу, -- кинула Амелія, -- ти знову втечеш?

// 10063
//“It costs you nothing, Amelia,” the old wizard said quietly, “and may save one
//of your own people the fight.”
-- Тобі це нічого не коштує, Амеліє, -- тихо сказав старий чарівник, -- і може
врятувати когось із твоїх людей від бою.

// 10064
//__Costs me nothing except my chance at vengeance -__
__Нічого не коштує, крім мого шансу на помсту...__

// 10065
//But that was nothing compared to the other, the annoying old wizard was often
//right in the end, it was part of what made him so annoying.
Та помста в порівнянні була дрібницею. Старий чарівник, що так її дратував, часто
зрештою мав рацію -- частково саме це в ньому й дратувало.

// 10066
//“The Dementors have ceased to answer questions about the other person they said
//they saw,” Amelia told him, “and they will not say why, nor where.”
-- Дементори більше не відповідають на питання про людину, яку, як вони
стверджували, бачили раніше, -- сказала йому Амелія, -- і вони не кажуть ані
чому, ані де.

// 10067
//Dumbledore turned to the blazing silver phoenix on his shoulder, whose light
//illuminated the whole corridor, and received a silent headshake in reply. “I
//cannot detect them either,” said Dumbledore. Then he shrugged. “I suppose I
//shall just walk the whole spiral from top to bottom and see if anything turns
//up, shall I?”
Дамблдор звернув погляд на яскравого срібного фенікса, що сидів у нього на плечі
й освітлював весь коридор. Той тихо похитав головою у відповідь.

-- Я теж не можу їх виявити, -- сказав Дамблдор, а потім знизав плечима. -- Гадаю,
мені варто просто прогулятися всією спіраллю зверху донизу й подивитися, чи не
зустріну я щось, га?

// 10068
//Amelia would have ordered him not to do it, if she thought that would have made
//the tiniest difference.
Амелія б наказала йому цього не робити, якби гадала, що це змінить бодай щось.

// 10069
//“Albus,” said Amelia as the old wizard turned to depart, “even you can be
//ambushed.”
-- Албусе, -- сказала Амелія, коли старий чарівник обернувся, щоб піти, --
навіть ти можеш потрапити у засідку.

// 10070
//“Nonsense, my dear,” the old wizard said cheerfully as he strode off yet again,
//waving as though in admonition his fifteen-inch wand of unidentifiable
//dark-grey wood, “I’m invincible.”
-- Пусте, дорогенька, -- радісно сказав чарівник, не зупиняючи свій черговий
відхід. Він змахнув своєю пʼятнадцятидюймовою паличкою з невідомого темно-сірого
дерева, ніби відмахнувся від її слів. -- Я невразливий.

// 10071
//There was a pause.
Запала тиша.

// 10072
//(“He didn’t just really say that -” whispered the newest Auror present, a
//still-prim young lady by the name of Noelle Curry, to the senior member of her
//trio, Auror Brooks. “Did he?”)
( -- Він же не міг цього справді сказати... -- прошепотіла аврор з найменшим досвідом
з усіх присутніх -- досі напружена молода леді на імʼя Ноела Каррі -- старшому члену
її трійці -- авророві Брукс. -- Чи сказав?)

// 10073
//(“He can get away with it,” Isabel whispered back to her, “he’s
//__Dumbledore,__ not even Fate takes him seriously anymore.”)
( -- Йому це зійде з рук, -- прошепотіла у відповідь Ізабелла, -- це ж __Дамблдор__
-- навіть Доля вже не сприймає його всерйоз.)

// 10074
//“And that,” Amelia said heavily, for the benefit of the younger Aurors, “is why
//we never call him in on anything unless we absolutely must.”
-- Ось чому, -- стомлено пояснила Амелія, переважно для молодших аврорів, -- ми
ніколи не викликаємо його, хіба що немає іншого виходу.

***

// 10075
//Harry lay very still on the hard bench that served as the bed of this cell, a
//blanket pulled over him, staying as absolutely motionless as he could while he
//waited for the fear to return. There was a Patronus approaching, and a powerful
//one. Bellatrix was hidden by a Deathly Hallow, no easy Charm would penetrate
//that; but Harry did not know what other arts the Aurors might employ to detect
//his own self, and dared not reveal his ignorance by asking her. So Harry lay on
//a hard bed, in a cell with a locked door, and the mighty metal door locked
//behind him, in absolute darkness, with a thin blanket pulled over him, hoping
//that whoever it was wouldn’t look in, or wouldn’t look too closely if they did
//-
Гаррі лежав на твердій лавці, що в цій камері була ліжком, і старався не ворушити
жодним мʼязом. Лежав без жодного руху, доки чекав на повернення страху. Наближався
патронус, і потужний. Белатрису приховувала Смертельна реліквія --
прості чари не виявлять її, але Гаррі не знав, які інші вміння можуть застосувати
аврори, щоб знайти його самого, і не наважувався видати своє незнання питанням до Белатриси.
Тому Гаррі лежав на твердому ліжку у камері за зачиненими дверима і за величезними
зачиненими металевими дверима позаду, у цілковитій темряві, повністю під ковдрою,
і сподівався, що хай хто це був, він не зазирне, або не надто прискіпливо оглядатиме
все, якщо зазирне...

// 10076
//That wasn’t a point Harry could affect, really, that part of his fate lay
//entirely in the hands of the Hidden Variables. Most of his mind was
//concentrating on the ongoing Transfiguration he was performing.
Насправді, на це Гаррі не міг вплинути жодним чином, ця частина його долі цілком
залежала від прихованих змінних. Переважно його розум зосередився на поточній
трансфігурації, яку він виконував.

// 10077
//Listening in the silence, Harry heard the quick footsteps approach; they paused
//outside his door, and then -
У тиші Гаррі почув, як наблизилися швидкі кроки. Вони зупинилися поза дверима, а
тоді...

// 10078
//- continued onward.
...почали віддалятися.

// 10079
//Soon the fear returned.
Невдовзі повернувся страх.

// 10080
//Harry didn’t allow himself to notice his own relief, any more than he allowed
//himself to notice the fear. He was holding in his mind the form of a Muggle
//device rather larger than a car battery, and slowly applying that Form to the
//substance of an ice cube (which Harry had frozen using __Frigideiro__ on
//water from a bottle in his pouch). You weren’t supposed to Transfigure things
//to be burned, but between the original substance being water, and the
//Bubble-Head Charm to protect their air supply, Harry hoped that this wouldn’t
//make him or anyone else sick.
// hedrok: копія "to be burned" 15:2250
Гаррі проігнорував відчуття полегшення так само, як ігнорував страх. Він тримав у
розумі форму маґлівського пристрою значно більшого за автомобільний акумулятор,
і повільно застосовував цю форму до льодового куба (це була вода з пляшки з капшучка,
що її Гаррі заморозив за допомогою "`Фріґідейро`"). Не можна було трансфігурувати
на те, що має згоріти, проте оригінально матерія була водою, а бульбашкоголові
чари захищали повітря, яким вони дихали, тож Гаррі сподівався, що ані йому, ані
комусь іншому не стане від цього погано.

// 10081
//Now it was just a question of whether there would be enough time before the
//Aurors did a detailed check on this cell block, for Harry to finish this
//Transfiguration, and the partial Transfiguration he would do after that -
Тепер питання було лише в тому, чи вистачить йому часу до того, як аврори
ґрунтовно обстежать цей блок камер, для завершення цієї трансфігурації та для
часткової трансфігурації, яку він мав здійснити далі...

***

// 10082
//When the old wizard strode back empty-handed, even Amelia began to feel a
//twinge of worry. She and the other two Auror teams had worked a third of the
//way down the three spirals, in synchrony so as not to allow any gap in their
//coverage that could be jumped by cutting through a ceiling, and they’d yet to
//find any sign.
Коли старий чарівник повернувся ні з чим, навіть Амелія почала трохи
хвилюватися. Вона з двома іншими командами аврорів уже спустилася на третину
трьох спіралей -- синхронно, без жодних прогалин у їхньому захисті, щоб ніхто
не зміг вислизнути, прорізавши собі прохід крізь стелю, і вони досі не бачили
жодних ознак злочинців.

// 10083
//“Might I ask you to report?” Amelia said, keeping the edge out of her voice.
-- Чи не міг би ти відзвітувати? -- запитала Амелія без тону наказу.

// 10084
//“First a simple walk from top to bottom,” said the old wizard. He was frowning,
//wrinkling his face even more than usual. “I examined Bellatrix’s cell, and
//found a death doll left in her place. This escape was meant to go unremarked, I
//think. There is something hidden in the corner beneath a scrap of cloth; I left
//that undisturbed for your Aurors to examine. On the return trip, I opened each
//door and looked within the cells. I saw nothing Disillusioned, only the
//prisoners -”
-- Спочатку просто пройшовся згори донизу, -- сказав старий чарівник. Він
хмурився, через що його обличчя було навіть більш зморшкуватим, ніж зазвичай.
-- Я оглянув камеру Белатриси, знайшов там ляльку-труп на її місці. Гадаю, ця
втеча планувалася як непомітна. Щось приховано в кутку під клаптем тканини. Я
це не чіпав, щоб твої аврори могли дослідити його. На зворотному шляху я
відкрив кожні двері й зазирнув до кожної камери. Я не побачив нічого
розілюзненого -- лише вʼязнів...

// 10085
//They were interrupted by a scream from the red-golden phoenix, and all her
//Aurors flinched from it. Condemnation was in it, and an urgent demand that
//almost started Amelia running from the corridor on the spot.
Їх перервав крик червоно-золотого фенікса, і всі аврори здригнулися через цей
крик. У ньому було засудження і невідкладна вимога, що ледь не змусила Амелію
одразу бігти до коридору.

// 10086
//“- in rather distressing condition,” Dumbledore said quietly. For a moment the
//blue eyes were very cold beneath the half-moon glasses. “Will any of you speak
//to me of the consequences of their actions?”
...у доволі гіркому стані, -- тихо сказав Дамблдор. На мить сині очі стали дуже
холодними за серпастими окулярами. -- Чи готовий хтось із вас узяти на себе відповідальність
за наслідки ваших дій?

// 10087
//“__I__ did not -” Amelia began.
-- __Я__ не... -- почала Амелія.

// 10088
//“I know,” said the old wizard. “My apologies, Amelia.” He sighed. “Some of the
//more recent prisoners had scraps of their magic left, when I looked upon them,
//but I sensed no uneaten power; the strongest had only as much magic left as a
//first-year child. I heard Fawkes scream in distress many times, but never
//challenge. It seems you shall have to continue your search; they can hide well
//enough to escape my mere glance.”
-- Я знаю. Вибач, Амеліє, -- старий чарівник зітхнув. -- У декого з новіших вʼязнів
лишилися крихти магії, коли я їх оглядав, у кожного відчув тільки залишки сили --
у найсильнішого магії було як у першокласника. Я чув багато криків засудження від
Фоукса, проте жодного виклику. Видається, вам доведеться продовжити пошуки. Вони
здатні сховатися достатньо добре, щоб уникнути мого швидкого огляду.

***

// 10089
//When Harry finished his first Transfiguration, he sat up, pulled back the
//blanket that had covered him, cast a quick __Lumos,__ glanced at his
//watch, and was shocked to see that nearly an hour and thirty minutes had
//passed. How much of that time had gone by since someone had opened the door and
//then closed it again - Harry hadn’t been looking in that direction, of course -
//that, Harry couldn’t guess.
Коли Гаррі завершив першу трансфігурацію, він присів, стягнув з себе ковдру,
ненадовго використав "`Лумос`", щоб поглянути на годинник, і був приголомшений:
минуло майже півтори години. Як давно хтось -- він, звісно, не дивився у тому
напрямку -- відчинив і знову зачинив двері, Гаррі гадки не мав.

// 10090
//“My Lord…?” whispered Bellatrix’s voice, soft and very tentative.
-- Володарю?.. -- обережно й тихо прошепотіла Белатриса.

// 10091
//“You may speak now,” Harry said. He’d told her to remain silent while he
//worked.
-- Можеш говорити, -- сказав Гаррі. Він наказав був їй мовчати, доки він
працює.

// 10092
//“That was Dumbledore who looked upon us.”
-- Сюди заходив Дамблдор.

// 10093
//Pause.
Пауза.

// 10094
//“Interesting,” Harry said neutrally. He was glad he had not noticed this at the
//time. That sounded like a __rather close shave__.
-- Цікаво, -- без емоцій сказав Гаррі.

Він був радий, що не помітив був цього. Видавалося, їх __ледь не спіймали__.

// 10095
//Harry said a word to his pouch, and began drawing forth the magical device that
//he would mate to the product of his hour’s labor. Then, when that was drawn
//forth, another word brought forth a tube of industrial-strength glue; before
//using it, Harry cast the Bubble-Head Charm on himself and Bellatrix, and had
//Bellatrix cast the same Charm on the snake, so that the glue fumes in the
//enclosed cell would not harm them.
Гаррі промовив слово до капшучка і почав витягати магічний пристрій, що його
він зʼєднає з продуктом години своєї праці. Тоді, коли він витягнув пристрій з
капшучка, чергове слово, і в нього був тюбик промислового клею. Перед тим, як
почати ним користуватися, Гаррі застосував бульбашкоголові чари на собі й
Белатрисі, та наказав їй створити ці чари на змі{stress}єві, щоб випари клею у замкненій
камері їм не нашкодили.

// 10096
//When the glue had begun to set, binding technology to magic, Harry laid it down
//upon the bed, and sat down on the floor, resting his magic and will for a
//moment before essaying the next Transfiguration.
Коли клей почав застигати -- поєднувати технологію з магією, Гаррі поклав
пристрій на ліжко, а сам сів на підлогу. Він хотів трохи відновити сили магії
та розуму перед наступною трансфігурацією.

// 10097
//“My Lord…” Bellatrix said hesitantly.
-- Володарю... -- непевно сказала Белатриса.

// 10098
//“Yes?” said the dry voice.
-- Так? -- сухо запитав голос.

// 10099
//“What is that device you made?”
-- Що це за пристрій, який ви виготовляєте?

// 10100
//Harry thought rapidly. It seemed like a good chance to check his plans with
//her, under the guise of leading questions.
Гаррі швидко міркував. Видавалося, це слушна нагода перевірити свої плани
-- треба було лише ставити питання-натяки.

// 10101
//“Consider, my dear Bella,” said Harry smoothly. “How difficult is it for a
//powerful wizard to cut the walls of Azkaban?”
-- Подумай, моя люба Бело, -- сказав Гаррі. -- Як складно могутньому
чарівнику прорізати стіни Азкабану?

// 10102
//There was a pause, and then Bellatrix’s voice came, slow and puzzled, “Not
//difficult at all, my Lord…?”
-- Зовсім не складно, володарю?.. -- по деякому часі спантеличено й повільно
сказала Белатриса.

// 10103
//“Indeed,” said the dry, high voice of Bella’s master. “Suppose one were to do
//this, and fly through the hole on a broomstick, and soar up and away. Rescuing
//a prisoner from Azkaban would seem easy then, would it not?”
-- Саме так, -- сказав сухий, високий голос господаря Бели. -- Припустімо, хтось
це зробить і вилетить крізь отвір на мітлі, здійметься в небо й полетить геть.
Видається, врятувати вʼязня Азкабану легко, чи не так?

// 10104
//“But my Lord…” said Bella. “The Aurors would - they have their own broomsticks,
//my Lord, fast ones -”
-- Але, володарю... У аврорів -- у них є власні мітли, володарю, і швидкі...

// 10105
//Harry listened, it was as he had thought. The Dark Lord replied, again in tones
//of smoothly Socratic inquiry, and Bellatrix asked a further question, which
//Harry had not expected, but Harry’s own counterquestion showed that it should
//not matter in the end. And in response to Bellatrix’s last question, the Dark
//Lord only smiled, and said that it was time for him to resume his work.
Гаррі вислухав: усе було, як він і очікував. Темний Лорд відповів -- знову
тоном сократичного розпитування, а Белатриса поставила чергове питання, якого
Гаррі не очікував, проте питанням-відповіддю Гаррі показав, що, зрештою, це не
мало значення. А у відповідь на останнє питання Белатриси Темний Лорд лише
посміхнувся та сказав, що час йому повертатися до роботи.

// 10106
//And then Harry got up from the floor of the cell, went to the far end of the
//cells, and touched his wand to the hard surface of the wall - the wall of
//Azkaban, the solid metal that separated them from direct exposure to the
//Dementors’ pit.
Гаррі підвівся з підлоги камери, підійшов до дальнього краю та приклав паличку
до твердої поверні стіни -- стіни Азкабану, суцільного металу, що відділяв їх
від прямого впливу ями дементорів.

// 10107
//And Harry began a partial Transfiguration.
І Гаррі почав часткову трансфігурацію.

// 10108
//This spell would go faster, Harry hoped. He’d spent hours and hours practicing
//the unique magic, which had made it routine, not much more difficult for him
//than ordinary Transfiguration. The shape he was changing had not all that much
//total volume, the Transfigured shape might be tall and wide and long, but it
//was very thin. Half a millimeter, Harry had thought, would be enough,
//considering the perfect smoothness…
Він сподівався, що на це закляття піде менше часу. Гаррі тренувався був
годинами накладанню своєї унікальної магії. Це вже стало рутиною -- лише трохи
складнішою для нього, ніж звичайна трансфігурація. Форма, яку він перетворював,
мала доволі невеличкий загальний обʼєм -- хай вона була широкою, високою й
довгою, проте вона була дуже тонкою. Гаррі вирішив, що пів міліметра має
вистачити, враховуючи бездоганну гладкість...

// 10109
//On the long bench that served as a prison bed, where Harry had set down the
//Transfigured technological device and the mated magic item for the glue to dry,
//tiny letters in golden script gleamed on the Muggle artifact. Harry hadn’t
//really __planned__ for them to be there, but they’d kept running through
//the back of his mind, and so seemed to have become part of the Transfigured
//form.
На лаві, що була тюремним ліжком, де Гаррі поклав був трансфігурований
технологічний пристрій, що був зʼєднаний з магічним предметом клеєм, що сохнув,
крихітні золоті літери виблискували на маґлівському артефакті. Гаррі не те щоб
__планував__ був, щоб вони там були, проте ці слова лунали десь у його розумі,
і тому, видається, стали частиною трансфігурованої форми.

// 10110
//There were many different things Harry could have said before using this
//particular triumph of technological ingenuity. Any number of things that would
//be, in one sense or another, appropriate. Or at least things that Harry
//__could__ have said, __would__ have said, if Bellatrix had not been
//there.
Гаррі міг би сказати багато всього різного з приводу саме цього тріумфу
технологічної винахідливості. Незчисленну кількість висловів Гаррі __міг би__
сказати і __сказав би__, якби Белатриси не було поряд.

// 10111
//But there was only one thing to say, that Harry would only get the chance to
//say just this once, and probably never get a better chance to say ever again.
//(Or __think,__ anyway, if he couldn’t say it.) He hadn’t seen the actual
//movie, but he’d seen a preview, and for some reason the phrase had stuck in his
//mind.
Але був лише один вислів, що Гаррі міг сказати тільки зараз, і напевно ніколи в нього більше
не буде шансу його вимовити. (Тобто, __подумати__, якщо він не міг його сказати вголос.)
Самого фільму він не бачив, проте бачив трейлер, і з якоїсь причини фраза залишилася
в його памʼяті.

// 10112
//The tiny golden letters upon the Muggle device said,
Дрібними золотими літерами на маґлівському пристрої було написано:

// 10113
//__All right, you primitive screwheads! Listen up!__
// Армія темряви 18:00 Переклад ICTV
"`__Ви, придуркуваті голови! Слухайте сюди!__`"
