// 12191
//== Self Actualization, Pt 5
== Розділ 70. Пошук себе, ч.5

// 12192
//Even if you had been the Deputy Headmistress for three decades, and a
//Transfiguration Professor before that, it was rare that you saw Albus
//Dumbledore caught completely flatfooted.
Навіть якщо ти три десятиліття була заступницею директора, а вчителькою з
трансфігурації і того довше, тобі хіба зрідка доводилося бачити
Албуса Дамблдора, заскоченого зненацька.

// 12193
//“…Susan Bones, Lavender Brown, and Daphne Greengrass,” Minerva finished. “I
//should also note, Albus, that Miss Granger’s account of your seemingly
//unsupportive attitude - I believe her phrase was ‘he said I should be happy to
//be just a sidekick’ - has generated a good deal of __interest__ among the
//older girls. Several of whom came to me to ask if Miss Granger’s accusations
//were true, since Miss Granger had said that I was there.”
-- ...Сьюзен Боунз, Лаванда Браун та Дафна Ґрінґрас, -- завершила перелік
Мінерва. -- Також маю зазначити, Албусе, що розповіді міс Ґрейнджер
про гадану відсутність підтримки з твого боку -- як це вона формулює,
чекайте, "`він сказав, я маю тішитися, що я -- лише Робін свого Бетмена`", -- викликало
значну __зацікавленість__ серед старших дівчат. Декілька з них прийшли до мене і
запитали, чи є правда у звинуваченнях міс Ґрейнджер, позаяк міс Ґрейнджер
сказала, що я була присутня впродовж розмови.
//Робін свого Бетмена, лише охвістя головного героя, помагач головного героя.

// 12194
//The old wizard leaned back in his huge chair, still gazing at her, his eyes
//looking rather abstracted beneath the half-moon glasses.
Старий чарівник відкинувся на спинку свого величезного крісла, не відводячи від
неї очей, втім, не пильних, а дещо розфокусованих під скельцями серпастих окулярів.

// 12195
//“It placed me in something of a dilemma, Albus,” said Professor McGonagall. Her
//face stayed quite neutral, she made sure of that. “I now know that you did not
//truly mean to discourage the girl. Quite the opposite, in fact. But you and
//Severus have often told me that to keep a secret I must give no sign that
//differs from the reaction of someone truly ignorant. Thus I had no choice but
//to confirm that Miss Granger’s account was accurate, and feign the appropriate
//degree of worry, with a slight overtone of offense. After all, had I
//__not__ known you were deliberately manipulating Miss Granger, I might
//have been rather put out.”
-- Це поставило мене перед складним вибором, Албусе, -- правила своє професорка
Макґонеґел. На її обличчі зберігався нейтральний вираз, вона докладала для цього зусилля. --
Я знаю, що насправді ти не хотів, щоб дівчинка занепала духом, а радше
навпаки. Та ви з Северусом так часто пояснювали були мені: щоб не видати таємницю,
маєш поводитися так, як поводилася б людина й справді не втаємничена. Таким
чином, мені лишалося тільки підтвердити точність переповідок міс Ґрейнджер, а
також зобразити відповідну ступінь занепокоєння, з легкою додачею образи.
Зрештою, якби я __не знала__, що ти зумисне маніпулював міс Ґрейнджер, я була
б доволі засмучена.

// 12196
//“I… see,” the old wizard said slowly. His hands toyed absently with his silver
//beard, small quick gestures.
-- Ее... розумію, -- повільно проказав старий чарівник. Він недбало
порпався у срібній бороді, його руки робили стрімкі, короткі рухи.

// 12197
//“Thankfully,” Professor McGonagall continued, “so far Professors Sinistra and
//Vector are the only two faculty members to don Miss Granger’s buttons.”
-- На щастя, -- продовжувала професорка Макґонеґел, -- наразі лише професорки
Сіністра і Вектор з усього викладацького складу надягли ці значки міс Ґрейнджер.

// 12198
//“Buttons?” repeated the old wizard.
-- Значки? -- повторив старий чарівник.

// 12199
//Minerva drew forth a small silver disc bearing the initials S.P.H.E.W., laid it
//on Albus’s desk, and gave it a brief tap with her finger.
Мінерва витягла маленький срібний диск з викарбуваними на ньому літерами
С.С.Р.А.Г.Ч, виклала його Албусові на стіл та коротко постукала по ньому нігтем.

// 12200
//And the voices of Hermione Granger, Padma Patil, Parvati Patil, Lavender Brown,
//Susan Bones, Hannah Abbott, Daphne Greengrass, and Tracey Davis cried out in
//unison, “__We won’t settle for second best, it’s time to give a witch a
//quest!__”
Голоси Герміони Ґрейнджер, Падми Патіл, Парваті Патіл, Лаванди Браун, Сьюзен
Боунз, Анни Ебот, Дафни Ґрінґрас та Трейсі Девіс хором проскандували: "`Скніти
в башті -- вибачайте, відьмам ви похід надайте!`"
// Інші варіанти:
//Згодні ми лише на Фродо, жінка -- керівник походу!
//"Альпіністе, випий льоду, жінка -- керівник походу! (Гей, сексисте; гей,
//товариш)

// 12201
//“Miss Granger is selling them for two Sickles, and tells me that she has so far
//sold fifty of them. I believe that Nymphadora Tonks, in seventh-year
//Hufflepuff, is enchanting them for her. To conclude my report,” Professor
//McGonagall said briskly, “our eight newly minted heroines have asked permission
//to conduct a protest outside the entrance to your office.”
-- Міс Ґрейнджер продає їх по два серпики за штуку, і каже, що наразі продала
вже п'ятдесят. Гадаю, їх зачакловує для неї Німфадора Тонкс, семикласниця
з Гафелпафу. І, нарешті, на завершення звіту, -- коротко додала Макґонеґел, --
наша вісімка новоспечених героїнь просить дозволу на проведення протесту
перед входом у ваш кабінет.

// 12202
//“I hope,” Albus said, frowning, “you explained to them that -”
-- Я сподіваюся, -- насупився Албус, -- ти їм пояснила, що...

// 12203
//“I explained to them that Wednesday at 7PM would be fine,” said Minerva. She
//took back the button from the Headmaster’s desk, favored Albus with a honeyed
//smile, and turned to the door.
-- Я їм пояснила, що у вівторок о сьомій вечора це буде цілком доречно, --
сказала Мінерва. Вона забрала значок з директорського столу, обдарувала Албуса
солоденькою усмішкою і попрямувала до дверей.

// 12204
//“Minerva?” said the old wizard from behind her. “__Minerva!__”
-- Мінерво? -- гукнув їй навздогін старий чарівник. -- __Мінерво!__

// 12205
//The oaken door shut solidly behind her.
Дубові двері щільно зачинилися за нею.

***

// 12206
//There wasn’t a lot of room between the brief stone walls that demarcated the
//vestibule to the Headmaster’s office, so although a lot of people had wanted to
//watch the protest, not many had been allowed to come. Just Professor Sinistra
//and Professor Vector, who were wearing the buttons, and the prefects Penelope
//Clearwater and Rose Brown and Jacqueline Preece, who were wearing the buttons.
//Behind __them,__ Professor McGonagall and Professor Sprout and Professor
//Flitwick, who weren’t wearing the buttons, scrutinizing the whole affair. Harry
//Potter and the Head Boy of Hogwarts were there, and the boy prefects Percy
//Weasley and Oliver Beatson, all wearing the buttons to show Solidarity. And of
//course the eight founding members of S.P.H.E.W., forming a picket line next to
//the gargoyles with their signs. Hermione’s own sign, attached to a solid wooden
//handle which seemed to weigh heavier and heavier in her hands as the seconds
//passed, said NOBODY’S SIDEKICK.
Поміж сірих кам'яних стін, що обмежували вестибюль перед входом у
кабінет директора, було не надто просторо, тож, хоча охочих подивитися на
протест було вдосталь, не багатьом була надана така змога. Зі сторонніх спостерігачів
були лише професорка Сіністра і професорка Вектор, що надягли значки, і старости Пенелопа Клірвотер,
Розі Браун та Жаклін Пріс, що надягли значки. Позаду __цих__ спостерігачів за
заходом спостерігали професорка Макґонеґел, професорка Спраут і професор
Флитвік, що не надягли значків. Ще там були Гаррі Поттер і староста
школи, разом із старостами-хлопчиками Персі Візлі і Олівером Бетсоном; всі
вони надягли значки для демонстрації Солідарності. І звісно ж, там були всі
члени-засновники С.С.Р.А.Г.Ч.а -- з плакатами в руках вони розташувалися пікетом
навпроти гаргуйлів. Плакат Герміони, приторочений до міцного
дерев'яного держака, щосекунди важчав у неї в руках. Він
проголошував: "`НІЯКА Я ВАМ НЕ РОБІН!`".
//"Я ВАМ НЕ ПОМАГАЧ!"

// 12207
//And Professor Quirrell, who was leaning with his back against the far stone
//wall and watching with unreadable eyes. The Defense Professor had gotten one of
//her buttons, though she’d never sold one to him; and he wasn’t wearing it, but
//idly tossing it with one hand.
І ще був професор Квірел. Він спирався спиною на дальню кам'яну стіну і
споглядав усе видовище непроникним поглядом. Професор із захисту теж десь
надибав один із її значків, хоч вона йому й не продавала; і він його не надяг, а
мимохідь підкидав однією рукою.

// 12208
//This whole idea had seemed like a much better idea four days ago, when the
//fires of her indignation had been burning fresh and hot, and she’d been facing
//the prospect of doing it all four days __later __instead of __right
//now.__
Вся ця ідея здавалася значно ліпшою чотири дні тому, коли вогонь її обурення
палав ново і сильно, і їй треба було все це робити чотирма днями __пізніше__, а
не __просто зараз.__

// 12209
//But she had to carry on, because that was what heroes did, they carried on, and
//also because it had seemed infinitely too awful to tell everyone she was
//calling it off. Hermione wondered how much heroism had gone on for reasons like
//that. Most books didn’t __say__ “And then they refused to give up, no
//matter how sensible it would have been, because that would’ve been too
//embarrassing”; but a great deal of history made a lot more sense that way.
Та вона мусила правити своє, бо саме це і роблять героїні, вони правлять
своє; а ще тому, що було б незмірно соромно сказати всім, що вона передумала і все
скасовується. Герміоні спало на думку, скільки напевно всього героїчного було скоєно
через подібні мотиви. У більшості книжок __не пишеться__: "`І вони відмовилися
здаватися, бо, хай наскільки розсудливо це було, їм було б надто ніяково`".
Втім, існування такої мотивації багато що пояснило б про історичний процес.

// 12210
//At 7:15pm, Professor McGonagall had told her, Headmaster Dumbledore would come
//down and talk to them for a couple of minutes. Professor McGonagall had said
//not to be frightened - the Headmaster was a good person deep down, and they’d
//properly gotten the school’s authorization for the protest.
О сьомій п'ятнадцять вечора професорка Макґонеґел сказала була їй, що директор
Дамблдор спуститься і поговорить з ними кілька хвилин. Професорка Макґонеґел
сказала була, що нема чого боятися -- директор, мовляв, у глибині душі хороша
людина, а вони належним чином отримали дозвіл школи на протест.

// 12211
//But Hermione was very very aware that even if she was doing it with signed
//permission, she was still Defying Authority.
Втім, Герміона дуже-дуже-дуже чітко усвідомлювала, що, хоч і за дозволу із
підписом, та все одно вона Кидала Виклик Авторитетові.

// 12212
//After she’d decided to be a hero, Hermione had done the obvious thing, and gone
//to the Hogwarts library and taken out books on how to be a hero. Then she’d
//returned those books back to their shelves, because it’d been patently obvious
//that none of the authors had been actual heroes themselves. Instead she’d just
//read five times over, until she’d memorized every word, the thirty inches by
//Godric Gryffindor that was all his autobiography and his life’s advice. (Or the
//English translation, anyway; she couldn’t read Latin yet.) Godric Gryffindor’s
//autobiography had been a lot more __compressed__ than the books Hermione
//was used to reading, he used __one sentence__ to say things that should’ve
//taken thirty inches just by themselves, and then there was __another__
//sentence after that…
Вирішивши стати героєм, Герміона зробила очевидний крок, а саме -- вона
пішла була до бібліотеки Гоґвортсу і повитягала з полиць купу книжок про те, як бути героєм.
Тоді вона повернула ці книжки назад на полиці, позаяк було цілковито очевидно, що
їхні автори самі героями не були. Натомість вона п'ять разів перечитала, аж
доки могла вже цитувати напам'ять, тридцять дюймів з-під пера Ґодрика
Ґрифіндора, що становили всю його автобіографію і всі його поради нащадкам.
(Точніше, їхній переклад на англійську; латиною вона ще не вміла читати.)
Автобіографія Ґодрика Ґрифіндора була значно __стисліша__ за ті книжки, до яких
Герміона була звикла, він за допомогою __одного речення__ міг передати
ідею, на яку, одну-однісіньку, стало б щонайменше тридцять дюймів, а тоді писав собі
__ще одне__ таке речення...
//щільніша, насиченіша, ємкіша, щільніша

// 12213
//But it was clear from what she’d read that, while Defying Authority wasn’t the
//__point__ of being a hero, you couldn’t be a hero if you were too scared
//to do it. And Hermione Granger knew by now how others saw her, and she knew
//what other people thought she couldn’t do.
Втім, з прочитаного було цілком ясно, що хоча Кидати Виклик Авторитетові -- це не
мета героя, та неможливо бути героєм, якщо ти занадто боїшся це робити. А
Герміона Ґрейнджер вже знала, якою її уявляють інші, й на що, на їхню думку,
вона не здатна.

// 12214
//Hermione hefted her picket sign a little higher and concentrated on breathing
//slowly and rhythmically instead of hyperventilating until she fell over.
Герміона підняла свій плакат трохи вище і зосередилась на тому, щоб дихати
глибоко й ритмічно, а не хекати як собака в спеку, щоб зрештою не зомліти, задерши
лапки догори.

// 12215
//“__Really?__” said Miss Preece in a tone of undisguised fascination. “They
//couldn’t __vote?__”
-- Що, __правда?__ -- сказала міс Пріс неприховано враженим тоном. -- Вони не
могли __голосувати__?

// 12216
//“Indeed,” said Professor Sinistra. (The Astronomy Professor’s hair was still
//dark, and her dark face only slightly lined; Hermione __would__ have
//guessed her age at around seventy, except -) “I quite remember my mother’s
//rejoicing when they announced the Qualification of Women Act, although she did
//not actually qualify.” (Which meant that Professor Sinistra had been around her
//Muggle family in 1918.) “And that wasn’t the worst of it. Why, just a few
//centuries earlier -”
-- Саме так, -- підтвердила професорка Сіністра. (Волосся професорки з астрономії
досі було темне, а її засмагле обличчя мало небагато зморшок; Герміона
__ніколи__ б не подумала, що їй більше сімдесяти, от тільки...) -- Я добре
пам'ятаю, як тішилася моя мати, коли жінкам дозволили балотуватися в парламент,
хоча вона сама й не могла цього зробити. (Відповідно, професорка Сіністра
підтримувала зв'язок зі своєю маґлівською родиною ще у 1918 році.) -- І це ще не
найгірше. Та що там, лише декілька століть перед тим...

// 12217
//Thirty seconds later all the non-Muggleborns, male and female both, were
//staring at Professor Sinistra with utterly shocked expressions. Hannah had
//dropped her sign.
Тридцять секунд потому всі чоловіки і жінки не маґлівського роду витріщалися
на професорку Сіністру з абсолютно шокованим виразом на обличчях. Анна навіть
впустила з рук свій плакат.

// 12218
//“And __that__ wasn’t the worst of it either, not by half,” finished
//Professor Sinistra. “But you see where this sort of thing could potentially
//lead.”
-- І __це__ ще було не найгірше, далеко не найгірше, -- завершила професорка
Сіністра. -- Та ви вже бачите, до чого таке може потенційно призвести.

// 12219
//“Merlin preserve us,” said Penelope Clearwater in a strangled voice. “You mean
//__that’s__ how men would treat us if we didn’t have wands to defend
//ourselves?”
-- Борони нас Мерліне, -- задушено пискнула Пенелопа Клірвотер. -- Ви хочете
сказати, що __ось так__ чоловіки би з нами поводилися, якби в нас не було
паличок, щоб захистити себе?

// 12220
//“__Hey!__” said one of the boy prefects. ”__That’s__ not -”
-- __Гей!__ -- сказав один зі старост-хлопчиків. -- __Це__ не...

// 12221
//There was a short, sardonic laugh from the direction of Professor Quirrell.
//When Hermione turned her head to look she saw that the Defense Professor was
//still idly toying with the button, not bothering to glance up at the rest of
//them, as he said, “Such is human nature, Miss Clearwater. Rest assured that
//__you__ would be no kinder, if witches had wands and men lacked them.”
Пролунав короткий, сардонічний смішечок з боку професора Квірела. Коли Герміона
повернула голову, вона побачила, що професор із захисту досі
стоїть, грається зі значком, і не дає собі клопоту навіть підвести на них очі,
правлячи своє:

-- Така людська природа, міс Клірвотер. Будьте певні, __ви__
були б анітрохи не добріша, якби у відьом були чарівні палички, а в чоловіків
-- ні.

// 12222
//“I hardly think so!” snapped Professor Sinistra.
-- Я так не думаю! -- різко перервала його професорка Сіністра.

// 12223
//A cold chuckle. “I suspect it happens more often than any dare suggest, in the
//proudest pureblood families. Some lonely witch spies a handsome Muggle; and
//thinks how very easy it would be, to slip the man a love potion, and by him be
//adored alone and utterly. And since she knows he can offer her no resistance,
//why, it is only natural for her to take from him whatever she pleases -”
І знову холодний смішечок.

-- Я підозрюю, таке трапляється частіше, ніж будь-хто наважується собі уявити,
та ще й у найвидатніших чистокровних родинах. Якась самотня відьма помічає
красунчика-маґла; їй спадає на думку, що це так просто -- підсунути чоловікові
любовне зілля, і ось вже вона -- довіку і сповна ним обожнювана. І, позаяк вона
знає, що він не здатний чинити їй опір, то, звісно ж, і це лише природно, -- вона
братиме від нього все, що їй заманеться...

// 12224
//“__Professor Quirrell!__” said Professor McGonagall sharply.
-- __Професоре Квірел!__ -- застерегла професорка Макґонеґел.

// 12225
//“I’m sorry,” Professor Quirrell said mildly, his eyes still looking down on the
//button in his hand, “are we all still pretending it doesn’t happen? My
//apologies, then.”
-- Перепрошую, -- м'яко зауважив професор Квірел, все ще розглядаючи значок у
своїй руці, -- ми що, досі вдаємо, ніби такого ніколи не трапляється? Тоді
прийміть мої вибачення.

// 12226
//Professor Sinistra snapped, “And I suppose that wizards don’t -”
Професор Сіністра гарикнула:

-- Ну так, хочете сказати, що чаклуни не...

// 12227
//“There are __children__ present, Professors!” Again Professor McGonagall.
-- Шановні професори, __діти__ ж слухають! -- знову скрик професорки
Макґонеґел.

// 12228
//“Some do,” Professor Quirrell said equably, as though discussing the weather.
//“Although personally, I don’t.”
-- Деякі чаклуни -- так, -- рівним голосом відповів Квірел, ніби прогноз погоди
обговорював. -- Особисто я -- ні.

// 12229
//There was a bit of silence, for a time. Hermione put up her sign again - it had
//slipped down to her shoulder while she was listening. She’d never thought of
//that, not even a little, and now she was trying __not__ to think of it,
//and her stomach was feeling a bit queasy. She looked in Harry Potter’s
//direction, not quite knowing why she did; and she saw that Harry’s face was
//perfectly still. A chill ran down her spine before she looked away, not quite
//fast enough to miss the small nod that Harry gave her, as though they were
//agreeing on something.
На якусь мить запала тиша. Герміона знову підняла свій плакат -- він
зісковзнув їй на плече, поки вона слухала. Вона ніколи не думала про таке,
анітрішечки, і тепер вона знову намагалася __не__ думати про таке, а живіт їй
злегка зводило. Вона подивилася в напрямку Гаррі Поттера, не зовсім
усвідомлюючи, чому; і побачила, що обличчя Гаррі абсолютно спокійне. Її спиною
встиг пробігти холодок, перш ніж вона відвела погляд -- відвела недостатньо швидко,
щоб не помітити, як Гаррі Поттер злегка їй кивнув. Так, ніби вони про щось
домовлялися.

// 12230
//“To be fair,” Professor Sinistra said after a while, “since I received my
//Hogwarts letter I can’t recall encountering any prejudice on account of being a
//woman, or colored. No, now it is all for being a Muggleborn. I believe Miss
//Granger said that it was __just__ with heroes that she found a problem, so
//far?”
-- Заради справедливості, -- сказала професорка Сіністра за деякий час, --
відколи я отримала свого листа з Гоґвортсу, я не пригадую, щоб я зустрічалася з
якимись упередженнями щодо моєї статі чи кольору шкіри. Ні, відтоді -- лише як
маґлородець. Міс Ґрейнджер ніби казала, що вона виявила дискримінацію __лише__ в
героїчній сфері, поки що?

// 12231
//It took Hermione a moment to recognize that she’d been asked the question, and
//then she said “Yes,” in a tone that squeaked a little. This whole thing had
//blown up a bit larger than she’d imagined when she’d started it.
Герміоні знадобилося декілька секунд, щоб усвідомити, що їй поставили питання, а
тоді вона сказала "`так`", чи радше, пискнула "`так`". Дискусія набула таких пропорцій,
яких вона собі й не уявляла, коли починала все це.

// 12232
//“What exactly did you check, Miss Granger?” said Professor Vector. She looked
//older than Professor Sinistra, her hair starting to gray a little; Hermione
//hadn’t ever come close to Professor Vector in person until the Arithmancy
//Professor had asked her for a button.
-- З якими матеріалами ви працювали, міс Ґрейнджер? -- спитала професорка
Вектор. Вона виглядала старшою за професорку Сіністру, її волосся вже трохи
зайнялося сивиною; Герміона ніколи не розмовляла з професоркою Вектор особисто
-- аж доки професорка з числомагії не попросила в неї значок.

// 12233
//“Um,” Hermione said, her voice a little high, “I checked the history books and
//there’s been as many woman Ministers of Magic as men. Then I looked at Supreme
//Mugwumps and there were a few more wizards than witches but not many. But if
//you look at people like famous Dark Wizard hunters, or people who’ve stopped
//invasions of Dark creatures, or people who’ve overthrown Dark Lords -”
-- Я, -- почала Герміона, трохи зависоким голосом, -- я перевірила історичні
джерела, і виявила, що серед міністрів магії жінок було стільки ж, скільки
чоловіків. Тоді я розглянула посаду Верховного речника, і там було трохи більше
чаклунів, ніж відьом, але не набагато. Та якщо подивитися, наприклад, на
славетних мисливців за темними чаклунами, чи на тих, хто зупиняв різні
вторгнення з боку темних істот, чи, скажімо, на тих, хто перемагав темних
лордів...

// 12234
//“And the Dark Wizards themselves, of course,” said Professor Quirrell.
//__Now__ the Defense Professor had looked up. “You may add that to your
//list, Miss Granger. Among all the suspected Death Eaters we know of only two
//sorceresses, Bellatrix Black and Alecto Carrow. And I daresay that most wizards
//would be hard-pressed to name a single Dark Lady besides Baba Yaga.”
-- І на самих темних чаклунів, звісно, -- додав професор Квірел. __Тепер__ він
підвів очі. -- Їх теж можете додати до свого переліку, міс Ґрейнджер. Серед
усіх підозрюваних у смертежерстві ми знаємо лише про двох магічок: Белатрису
Блек та Алекто Керроу. І, ладен закластися, мало хто з чаклунів пригадає ім'я
бодай однієї Темної Леді, крім, звісно, Баби Яги.

// 12235
//Hermione just stared at him.
Герміона мовчки втуплялася в нього.

// 12236
//He couldn’t __possibly__ be -
Просто __неможливо__, щоб він...

// 12237
//“Professor Quirrell,” said Professor Vector, “what exactly are you implying?”
-- Професоре Квірел, -- сказала професорка Вектор, -- до чого, власне, ви ведете?

// 12238
//The Defense Professor raised the button so that the golden-lettered S.P.H.E.W.
//faced them, and said, “Heroes,” then turned the button to show its silver
//backside and said, “Dark Wizards. They are similar career paths followed by
//similar people, and one can hardly ask why young witches are turning away from
//one course without considering its reflection.”
Професор із захисту підняв значок із золотими літерами С.С.Р.А.Г.Ч. до рівня
обличчя і сказав: "`герої`". Тоді повернув значок срібним сподом назовні і
сказав:

-- Темні Чаклуни. Це два схожих кар'єрних шляхи, і їх обирають схожі люди. Не
можна досліджувати, чому молоді відьми відмовляються від одного шляху, не
розглянувши також його віддзеркалення.

// 12239
//“Oh, __now__ I see!” said Tracey Davis, speaking up so suddenly that
//Hermione gave a small startle. “You’re joining our protest because you’re
//worried that not enough girls are becoming Dark Witches!” Then Tracey giggled,
//which Hermione couldn’t have managed at this point if you paid her a million
//pounds sterling.
-- О, __тепер__ зрозуміла! -- сказала Трейсі Девіс. Її репліка була настільки
неочікуваною, що Герміона аж підстрибнула з несподіванки. -- Ви приєднуєтесь до
нашого протесту, позаяк ви занепокоєні тим, що замало дівчаток стають темними
відьмами!

Тут Трейсі зробила те, що Герміоні наразі не вдалося б і за мільйон фунтів
стерлінгів винагороди -- вона гиготнула.

// 12240
//There was a half-smile on Professor Quirrell’s face as he replied, “Not really,
//Miss Davis. In truth I do not care about that sort of thing in the slightest.
//But it is futile to count the witches among Ministers of Magic and other such
//ordinary folk leading ordinary existences, when Grindelwald and Dumbledore and
//He-Who-Must-Not-Be-Named were all men.” The Defense Professor’s fingers idly
//spun the button, turning it over and over. “Then again, only a very few folk
//ever do anything interesting with their lives. What does it matter to you if
//__they__ are mostly witches or mostly wizards, so long as __you__ are
//not among them? And I suspect you will not be among them, Miss Davis; for
//although you are ambitious, you have no ambition.”
На обличчі професора Квірела замайоріло щось на кшталт напівусмішки.

// hedrok: 'although you are ambitions, you have no ambition' - схоже є
//         в 080:14330
-- Насправді ні, міс Девіс. Якщо чесно, мене анітрохи не хвилюють подібні
речі. Втім, це марна праця -- лічити відьом поміж міністрів магії та іншого
звичайного люду, що ведуть цілком звичайне існування, коли всі -- і
Ґріндельвальд, і Дамблдор, і Той-Кого-Не-Можна-Називати -- всі вони були
чоловіками, -- пальці професора з захисту спроквола гортали значок, туди-сюди,
туди-сюди. -- І знов таки, лише дрібка з усіх людей роблять зі своїм життям
щось цікаве. Яка різниця, хто __вони__ -- здебільшого відьми, чи здебільшого
чаклуни, якщо __ти__ -- не один із них? А я підозрюю, що вас серед них не буде,
міс Девіс; позаяк, хоч ви й амбіційна, та жодної амбіційної мети не маєте.

// 12241
//“__That’s not true!__” said Tracey indignantly. “And what’s it mean?”
-- __Це неправда!__ -- обурилася Трейсі. -- І що це означає?

// 12242
//Professor Quirrell straightened from where he had been leaning against the
//wall. “You were Sorted into Slytherin, Miss Davis, and I expect that you will
//grasp at any opportunity for advancement which falls into your hands. But there
//is no great ambition that you are driven to accomplish, and you will not
//__make__ your opportunities. At best you will grasp your way upward into
//Minister of Magic, or some other high position of unimportance, never breaking
//the bounds of your existence.”
Професор Квірел випростався, відклеївся від стіни, на яку спирався весь цей
час.

-- Вас відсортовано до Слизерину, міс Девіс, і, цілком очікувано, ви готові
чіплятися за будь-яку можливість просування, що трапиться вам на шляху. Втім,
нема у вас жодної великої мети, яку ви б хотіли здійснити, і ви не
__створюватимете__ своїх можливостей. У найкращому випадку, ви протиснетесь
нагору до рівня міністра магії, чи якоїсь іншої високої і невидатної посади, і
ніколи не перетнете межі свого звичного існування.

// 12243
//Then Professor Quirrell’s gaze shifted away from Tracey, he was looking at
//__her,__ the pale blue eyes staring at her with an awful intensity__
//-__ “Tell me, Miss Granger. Do __you__ have an ambition?”
І ось погляд професора Квірела перейшов від Трейсі, і ось він вже дивиться на
__неї__, його бліді блакитні очі просто свердлять її...

-- Скажіть мені, міс Ґрейнджер. А у __вас__ є велика мета?

// 12244
//“Professor -” squeaked the high stern voice of Professor Flitwick, and then her
//Head of House’s voice cut off, and from the side of her vision Hermione saw
//that Harry had laid his hand on Professor Flitwick’s shoulder and was shaking
//his head, face looking very adult.
-- Професоре, -- суворо пискнув професор Флитвік, а тоді вихователь її гуртожитку
урвав себе. Краєм ока Герміона побачила, що Гаррі поклав був руку професорові
Флитвіку на плече й хитав головою з дуже дорослим виглядом.

// 12245
//Hermione felt like a deer caught in headlights.
Герміона відчула себе як олень, заскочений у світлі автомобільних фар.

// 12246
//“What drove you to break your bounds, Miss Granger?” said the Defense
//Professor, still gazing directly at her. “Why is getting good marks in class no
//longer enough? Is it true greatness that you seek? Does some aspect of the
//world dissatisfy you, that you must remake according to your will? Or is this
//all merely a child’s game to you? I will be quite disappointed if this is only
//about rivaling Harry Potter.”
-- Що змусило вас подолати свої обмеження, міс Ґрейнджер? -- спитав професор
із захисту, дивлячись просто на неї. -- Чому самих тільки гарних оцінок вже не досить?
Чи ви шукаєте справжньої величі? Існує щось таке у світі, що настільки не
задовольняє вас, що мусите переробити його згідно власної волі? Чи це все для вас
лише дитяча гра? Я буду дуже розчарований, якщо все це -- лише через
суперництво з Гаррі Поттером.

// 12247
//“I -” said Hermione, her voice so high-pitched it made a sort of peeping sound,
//but then she couldn’t think of what else to say.
-- Я... -- почала Герміона. Її голос був такий тонкий, що з неї вичавилося щось на
кшталт писку, але далі вона не могла нічого вигадати.

// 12248
//“You may take a moment to think, if you like,” said Professor Quirrell.
//“Pretend it is a homework essay, six inches due Thursday. I hear you are quite
//eloquent in them.”
-- Можете трохи подумати, якщо треба, -- сказав професор Квірел. -- Уявіть, що
це домашнє завдання, реферат на шість дюймів на задану тему, здавати у вівторок. Я
чув, вони у вас вкрай красномовні.

// 12249
//Everyone was looking at her.
Всі на неї дивилися.

// 12250
//“I -” said Hermione. “I don’t agree with one single thing you just said,
//anywhere.”
-- Я... -- сказала Герміона, -- Я не згодна з жодним словом з того, що ви щойно
сказали. З жоднісіньким.

// 12251
//“Well spoken,” came Professor McGonagall’s crisp voice.
-- Гарно сказано, -- пролунав хрусткий голос професорки Макґонеґел.

// 12252
//Professor Quirrell’s gaze did not waver. “That is not six inches, Miss Granger.
//__Something__ drives you to defy the Headmaster’s verdict and gather
//followers about yourself. Perhaps it is something you prefer not to speak
//aloud?”
Погляд професора Квірела не змінив свого напрямку.

-- Цього не стане на шість дюймів, міс Ґрейнджер. __Щось__ спонукає вас
опиратися вердикту директора і збирати навколо себе послідовників. Можливо,
йдеться про щось, про що ви радше не говорили б уголос?


// 12253
//Hermione knew the correct answer wouldn’t impress Professor Quirrell, but it
//was the correct answer, so she said it. “I don’t think you need ambition to be
//a hero,” Hermione said. Her voice wavered but it didn’t crack. “I think you
//just have to do what’s right. And they’re not my followers, we’re friends.”
Герміона знала, що правильна відповідь не справить враження на професора
Квірела, та це була правильна відповідь, тож вона її сказала.

-- Я не думаю, що треба мати велику мету, щоб бути героєм, -- сказала Герміона.
Її голос затремтів, та не урвався. -- Я гадаю, ти просто мусиш чинити так, як
належить. І вони мені не послідовники, а друзі.

// 12254
//Professor Quirrell leaned back against the wall again. The half-smile had faded
//from his face. “Most folk tell themselves they are doing right, Miss Granger.
//They do not thereby rise above the ordinary.”
Професор Квірел знову сперся об стіну. Напівусмішка на його обличчі згасла.

-- Більшість людей переконують себе, що чинять правильно, міс Ґрейнджер. Цим
вони не підіймуть себе над звичайністю.

// 12255
//Hermione took a couple of deep breaths, trying to be brave. “It’s not
//__about__ being not ordinary,” she said as stoutly as she could. “But I
//think if someone just tries to do what’s right, over and over again, and
//they’re not too lazy to do all the work it takes, and they think about what
//they’re doing, and they’re brave enough to do it even when they’re scared -”
//Hermione paused for an instant, her eyes darting to Tracey and Daphne, “- and
//they cleverly plan how to do it - and they don’t just do what other people do -
//then I think someone like that would already get into enough trouble.”
Герміона пару раз глибоко вдихнула, намагаючись зібрати усю свою мужність.

-- __Справа__ не в тому, щоб бути незвичайним, -- сказала вона так впевнено, як
тільки могла. -- Втім, я гадаю, що якщо хтось намагається чинити правильно,
знову і знову, і цей хтось ладен впоратись з усією роботою, яка для цього
потрібна, і він думає перед тим, як щось робити, і він достатньо хоробрий,
щоб робити це попри власний страх, -- Герміона зробила крихітну паузу,
зустрівшись очима із Трейсі та Дафною, -- і він розробляє хитрі плани, як
саме це зробити, -- і він не просто робить те саме, що всі решта, -- тоді, я гадаю, хтось
такий неодмінно втрапить у халепу належно героїчного розміру.

// 12256
//Some of the girls and boys chuckled, as did Professor McGonagall, who looked
//wry and proud at the same time.
Деякі дівчата і хлопці хихотнули, і професорка Макґонеґел теж. Вона видавалася
втомленою та гордою водночас.

// 12257
//“You may be right about that,” said the Defense Professor, his eyes
//half-lidded. He tossed Hermione the button, and she caught it without thinking.
//“My donation to your cause, Miss Granger. I understand that they are worth two
//Sickles.”
-- Тут, може, ви й маєте рацію, -- сказав професор із захисту, його очі були
напівпримружені. Він кинув Герміоні значок, і вона бездумно впіймала його.
-- Мій благодійний внесок на вашу справу, міс Ґрейджер. Як я розумію, вони
коштують два серпики.

// 12258
//The Defense Professor turned and walked away without another word.
На цьому професор із захисту розвернувся і пішов, без жодного більше слова.

// 12259
//“I thought I was going to faint!” gasped Hannah after his footsteps had faded,
//and she heard some of the other girls letting out their breath or putting down
//their signs for a moment.
-- Я гадала -- от-от зомлію! -- різко видихнула Анна, коли звук його кроків
загубився в лабіринті коридорів, і вона почула, як інші дівчатка випускають
затамований подих і на секундочку опускають свої плакати.

// 12260
//“I do __too __have an ambition!” said Tracey, who seemed to be almost on
//the verge of tears. “I’m - I’m - I’ll figure out what it is by tomorrow, but I
//have one, I’m sure!”
-- У мене __теж__ є велика мета! -- сказала Трейсі, яка, здавалося,
ось-ось розридається. -- Я... я... я розберусь, яка саме, до завтра, але вона в
мене є, точно!

// 12261
//“If you really can’t think of anything,” Daphne said, giving Tracey a
//comforting pat on the shoulder, “just go with the oldie but goodie and try to
//take over the world.”
-- Якщо зовсім нічого не придумаєш, -- Дафна заспокійливо поплескала Трейсі по
плечу, -- бери стару добру мету -- спробуй захопити світ.

// 12262
//“Hey!” said Susan sharply. “You’re supposed to be heroes now! That means you
//have to be __good!__”
-- Гей! -- застерегла їх Сьюзен. -- Ми ж тепер ніби герої! Це означає, що ми
маємо бути __хорошими__!

// 12263
//“No, it’s all right,” said Lavender, “I’m pretty sure General Chaos wants to
//take over the world and __he’s__ sort of a good guy.”
-- Та ні, це можна, -- сказала Лаванда, -- Я впевнена, що генерал Хаосу хоче
захопити світ, і __він__ -- типу хороший персонаж.

// 12264
//More conversation was going on behind the picket line. “My goodness,” said
//Penelope Clearwater. “I think that’s the most __overtly__ evil Defense
//Professor we’ve ever had.”
Серед пікетників продовжилося жваве обговорення.

-- Господи, -- сказала Пенелопа Клірвотер, -- гадаю, це найбільш __відверто__
лихий професор із захисту, що в нас колись був.

// 12265
//Professor McGonagall coughed warningly, and the Head Boy said, “You weren’t
//around for Professor Barney,” which made several people twitch.
Професорка Макґонеґел застережливо кахикнула, а староста школи сказав:

-- Ви не застали часів професора Барні.

Ремарка змусила декількох із присутніх здригнутися.

// 12266
//“Professor Quirrell just __talks__ like that,” said Harry Potter, though
//he sounded less certain than before. “I mean, think about it, he doesn’t
//__do__ anything like what Professor Snape does -”
-- Професор Квірел просто __розмовляє__ так, -- сказав Гаррі Поттер, хоча голос
його звучав тепер менш впевнено. -- Я хочу сказати, подумайте, він же не
__робить__ нічого такого, як наприклад професор Снейп...

// 12267
//“Mr. Potter,” squeaked Professor Flitwick, voice polite and face stern, “why
//did you ask me to stay silent?”
-- Містере Поттер, -- пискнув професор Флитвік ввічливо й суворо, -- Чому ви
попросили мене промовчати?

// 12268
//“Professor Quirrell was testing Hermione to see if he wanted to be her
//mysterious old wizard,” Harry said. “Which totally would not have worked out in
//any way, shape, or form, but she had to answer for herself.”
-- Професор Квірел перевіряв Герміону, щоб дізнатися, чи хоче він бути її
таємничим старим чарівником, -- пояснив Гаррі. -- Ці стосунки були б цілковито й
остаточно приречені і взагалі неможливі у будь-якому вигляді, формі
чи точці всесвіту, та вона мала дати власну відповідь на це питання.

// 12269
//Hermione blinked.
Герміона кліпнула очима.

// 12270
//Then Hermione blinked again, as she realized that it was Professor Quirrell who
//was Harry Potter’s mysterious old wizard, and not Dumbledore at all, and that
//__really wasn’t a good sign -__
Потому Герміона знову блимнула -- коли второпала, що саме професор Квірел, а
зовсім не Дамблдор, був таємничим старим чарівником Гаррі Поттера, і що це
__вкрай, вкрай недобре__...

// 12271
//A rumbling noise filled the small stone vestibule, and Hermione, her nerves
//already on edge, spun rapidly around, almost dropping her protest sign as her
//other hand darted toward her wand.
Маленький кам'яний вестибюль сповнився гуркітливого шуму, і Герміона, чиї нерви
вже були на межі, стрімко розвернулася і майже впустила на підлогу свій
протестний плакат, коли потяглася іншою рукою по паличку.

// 12272
//The gargoyles were stepping aside, the Flowing Stone rumbling like rock as it
//moved like flesh. The huge ugly figures waited only briefly, dead gray eyes
//staring out in silent vigil. Then the great gargoyles folded their wings back
//into place and stepped back into their former positions, the Flowing Stone not
//changing its outward appearance at all as it returned from flexibility to
//motionlessness, and the brief gap in the stone of Hogwarts was solid once more.
Гаргуйлі відійшли в сторону, рідкий камінь гуркотів, мов обвал, і рухався, як
створіння з плоті. Великі потворні постаті лише трохи почекали, пильнуючи
довкола мертвими сірими очиськами. Тоді великі гаргуйлі знову поскладали крила
і відступили назад, звідки зійшли, рідкий камінь повернувся до зовнішньої
непорушності, і невеличкий отвір в камені Гоґвортсу знову загоївся.

// 12273
//And before them all, wearing robes of bright purple that probably only looked
//hideous if you were Muggleborn, stood the towering form of Albus Percival
//Wulfric Brian Dumbledore, the Headmaster of Hogwarts, the Chief Warlock of the
//Wizengamot, the Supreme Mugwump of the International Confederation of Wizards,
//the vanquisher of the Dark Lord Grindelwald and protector of Britain, the
//rediscoverer of the fabled Twelve Uses of Dragon’s Blood, the most powerful
//wizard alive; and he was looking at __her,__ Hermione Jean Granger,
//General of the recently expanded Sunshine Regiment, who was getting the best
//grades in the first year of Hogwarts classes, and who had declared herself a
//heroine.
І перед ними усіма, одягнена у яскраву пурпурову мантію, що, либонь, видавалася
вкрай відразливою всім чаклунам маґлівського роду, зʼявилася височенна постать
Албуса Персіваля Вулфрика Браяна Дамблдора, директора Гоґвортсу,
головного мага Чарверсуду, Верховного речника Міжнародної конфедерації чаклунів,
переможця темного лорда Ґріндельвальда й захисника Британії, перевинахідника
славетних дванадцяти способів використання драконячої крові,
наймогутнішого з нині живих чарівників; і він дивився на __неї__, Герміону
Джін Ґрейнджер, генерала нещодавно розширеного Полку "`Сонечко`", яка мала
найкращі оцінки серед усіх першокласників Гоґвортсу, і яка оголосила себе
героїнею.

// 12274
//Even her __name__ was shorter than his.
Навіть її __ім'я__ було коротшим за його.

// 12275
//The Headmaster smiled benevolently at her, his wrinkle-lined eyes twinkling
//cheerfully beneath their half-circles of glass, and said, “Hello, Miss
//Granger.”
Директор поблажливо всміхнувся до неї, його очі у павутинні зморшок
життєрадісно мерехтіли під серпастим склом, і сказав:

-- Добридень, міс Ґрейнджер.


// 12276
//The odd thing was that it wasn’t nearly as scary as talking to Professor
//Quirrell. “Hello, Headmaster Dumbledore,” Hermione said with only a slight
//quaver in her voice.
Найдивніше було те, що це було зовсім не так страшно, як розмовляти з
професором Квірелом.

-- Добридень, директоре Дамблдор, -- сказала Герміона, хіба з легеньким
тремтінням у голосі.

// 12277
//“Miss Granger,” said Dumbledore, now looking more serious, “I think you and I
//may have had a bit of a misunderstanding. I did not mean to imply that you
//could not, or should not be a hero. I certainly did not mean to imply that
//witches in general should not be heroes. Only that you were… a bit young, to be
//thinking of such things.”
-- Міс Ґрейнджер, -- тепер Дамблдор посерйознішав. -- Я гадаю, між нами
виникло якесь непорозуміння. Я не мав на увазі сказати, що ти не можеш, чи
що тобі не можна стати героєм. І я точно не мав на увазі, що відьми загалом не
мають бути героями. Я лише хотів сказати, що ти... дещо замолода, щоб
замислюватися про таке.

// 12278
//Hermione, unable to help herself, glanced at Professor McGonagall and saw that
//Professor McGonagall was giving her an encouraging smile - or she was giving
//the two of them __some__ kind of smile, anyway - so Hermione looked back
//at the Headmaster and said, the small quaver in her voice a little larger now,
//“Since you became Headmaster forty years ago, there’ve been eleven students to
//graduate Hogwarts who became heroes, I mean people like Lupe Cazaril and so on,
//and __ten__ of those were boys. Cimorene Linderwall was the only witch.”
Герміона, не в змозі втриматись, покосилася на професорку Макґонеґел і побачила,
що та їй підбадьорливо посміхається, -- чи, принаймні, що вона їм обом __якось
так__ посміхається... тож Герміона повернулася назад до директора, і тепер
голос її затремтів трохи сильніше:

// hedrok: @ Cimorene Linderwall, Lupe Cazaril
-- Відколи сорок років тому ви стали директором, одинадцять випускників
Гоґвортсу стали героями, я маю на увазі таких людей як Люп Казарил і інших, і
__десять__ із них були хлопчиками. Єдиною відьмою була Ціморен Ліндервол.

// 12279
//“Hm,” said the Headmaster. There was a thoughtful expression on his face; he at
//least __seemed__ to be thinking about it. “Miss Granger, I have never been
//one for tallying such numbers. Often it is too much easier to count than to
//understand. Many good people have come out of Hogwarts, witches and wizards
//both; those famed as heroes are only one kind of good person, and perhaps not
//the highest. You did not include Alice Longbottom or Lily Potter in your
//reckoning… But leave that aside. Tell me, Miss Granger, did you tally how many
//heroes came out of Hogwarts in the forty years before me? For in that time I
//can recall only three now called heroes; and among those three, no witches at
//all.”
-- Гм, -- відповів директор. На його обличчі читався задум; принаймні
__виглядало__ так, ніби він замислився про це. -- Міс Ґрейнджер, я не з тих,
хто заглиблюється в такі підрахунки. Іноді значно простіше підрахувати, ніж
зрозуміти. Багато хороших людей випустилося з Гоґвортсу, і відьом, і
чарівників; ті, хто прославився як герої, -- це лише один різновид хорошої людини, і,
мабуть, не найкращий різновид. Ти не включила Алісу Лонґботом і Лілі Поттер до
свого переліку... Та облишмо це. Скажи мені, міс Ґрейнджер, чи ти звернула
увагу, скільки героїв було виховано в Гоґвортсі протягом сорока років до мого
директорства? Бо за цей період я можу пригадати лише трьох, що їх зараз
називають героями; і з тих трьох взагалі жодної відьми.

// 12280
//“I’m not trying to say it’s __just__ you!” Hermione said. “Only I think
//maybe a __lot__ of people, like the Headmasters before you too, maybe even
//your whole society and everything, might be discouraging girls.”
-- Я не намагаюся довести, що справа __лише__ у вас! -- заперечила Герміона. -- Я
лише вважаю, що __багато__ хто, і директори до вас також, а може навіть ваше
суспільство загалом, імовірно, певним чином знеохочує дівчат.

// 12281
//The old wizard sighed. His half-glasses eyes looked only at her, as though they
//were the only two people present. “Miss Granger, it might be possible to
//discourage witches from becoming Charms Mistresses, or Quidditch players, or
//even Aurors. But not heroes. If someone is meant to be a hero then a hero they
//will be. They will walk through fire and swim through ice. Dementors will not
//stop them, nor the deaths of friends, and not discouragement either.”
Старий чарівник зітхнув. Його очі в серпастих окулярах дивилися лише на неї,
ніби тут були тільки вони вдвох.

-- Міс Ґрейнджер, можна знеохотити відьом ставати викладачами замовлянь, чи
гравцями в квідич, чи навіть аврорами. Але не героями. Якщо комусь судилося
бути героєм, то героєм цей хтось буде. Вони пройдуть крізь вогонь, пропливуть
крізь кригу. Дементори не зупинять їх, і не зупинять їх смерті друзів, і
знеохочення не зупинить також.

// 12282
//“Well,” Hermione said, and paused, struggling with the words. “Well, I mean…
//what if that’s not __actually__ true? I mean, to __me__ it seems that
//if you want more witches to be heroes, you ought to teach them heroing.”
-- Ну, -- затнулась Герміона, намагаючись добрати слів. -- Ну, я хочу
сказати... а раптом це не __зовсім__ правда? Тобто, __мені__ здається, що якщо
ви хочете, щоб більше відьом ставало героями, ви маєте навчати їх героюванню.

// 12283
//“Many boys and girls are heroes in their dreams,” Dumbledore said quietly. He
//did not look at any of the other girls, only at her. “Fewer in the waking
//world. Many have stood their ground and faced the darkness when it comes for
//them. Fewer come for the darkness and force it to face them. It is a hard life,
//sometimes lonely, often short. I have told none to refuse that calling, but
//neither would I wish to increase their number.”
-- Багато хлопчиків і дівчаток у своїх мріях -- герої, -- тихо сказав Дамблдор. Він
не дивився ні на кого з інших дівчат, лише на неї, --
Багато є тих, хто не поступаються своїм і виходять назустріч
тій темряві, що по них прийшла. Значно менше тих, хто переслідують темряву і
змушують її вийти з ними на бій. Це -- важке життя, іноді самотнє, часто коротке.
Я нікому не радив відмовитись від цього покликання, та я ніколи не жадав, щоб
таких покликаних стало більше.

// 12284
//Hermione hesitated; there was something in the lined face that stopped her,
//like a hint to all the emotion that wasn’t being displayed, years and years of
//it…
Герміона засумнівалася; щось у цьому зморшкуватому обличчі зупиняло її, якийсь
натяк на невиражене відчуття, що приховувалося роками...

// 12285
//__Maybe if there were more heroes, their lives wouldn’t be so lonely, or
//so short.__
__Можливо, якби героїв було більше, їхні життя не були б такі самотні, чи такі
короткі.__

// 12286
//She couldn’t bring herself to say that, though, not to him.
Вона не наважилася це сказати -- не йому.

// 12287
//“But the point is moot,” said the old wizard. He smiled, a bit ruefully she
//thought. “Miss Granger, you cannot teach heroism like you would teach Charms.
//You cannot assign twelve inches on how to carry on when all hope seems lost.
//You cannot rehearse students on when to stand up and tell the Headmaster he has
//done wrong. Heroes are born, not taught. And for whatever reason, more of them
//are born boys than girls.” The Headmaster shrugged, as if to say that
//__he__ was helpless to do anything about that.
-- Втім, це спірне питання, -- продовжив старий чарівник. Він посміхнувся, як
їй здалося, скорботно. -- Міс Ґрейнджер, героїзму не навчиш, як навчаєш чарам.
Не можна задати реферат на дванадцять дюймів про те, як правити своє, коли
останню надію втрачено. Не можна відрепетирувати з учнями, коли варто не мовчати
та сказати директору, що він помиляється. Героями народжуються, ними не стають. І з якоїсь
причини більше їх народжується хлопчиками, а не дівчатками, -- директор знизав
плечима, ніби показував -- __він__ не здатен тут нічого вдіяти.

// 12288
//“Um,” Hermione said. She couldn’t help it, she glanced behind her.
-- Гм, -- сказала Герміона. Вона нічого не могла з собою зробити, вона
озирнулася назад.

// 12289
//Professor Sinistra was looking a bit indignant. And it __wasn’t__ true
//that everyone was staring at her like she’d just been silly, the way she’d
//started to imagine while she was listening to Dumbledore.
Професорка Сіністра виглядала дещо обуреною. І __не всі__ дивилися на неї так,
мов вона остання дурепа, як їй вже науявлялося під час монологу Дамблдора.

// 12290
//Hermione turned back to face Dumbledore again, took a deep breath, and said,
//“Well, maybe people who are going to be heroes, will be heroes no matter what.
//But I don’t see how anyone could really __know__ that, aside from just
//saying it afterward. And when __I__ told you that I wanted to be a hero,
//you weren’t very encouraging.”
Герміона знов подивилася на нього, глибоко вдихнула і сказала:

-- Що ж, можливо, ті, хто мають стати героями, стануть ними, хай там що. Та я
не знаю, як хтось може дійсно __знати__ про таке, хіба тільки заднім числом. А
коли __я__ сказала вам, що хочу бути героєм, ви діяли не надто заохочувально.

// 12291
//“Mr. Potter,” the Headmaster said mildly. His eyes didn’t leave hers. “Please
//tell Miss Granger your impression of our own first meeting. Would you say that
//I was encouraging? Speak the truth.”
-- Містере Поттер, -- м'яко звернувся директор до хлопця. Його очі, втім, не
лишали її обличчя. -- Будьте ласкаві, скажіть міс Ґрейнджер, якої думки ви були
про мене після нашої першої зустрічі. Чи можна сказати, що я був заохочувальним?
Кажіть правду.

// 12292
//There was a pause.
Запала тиша.

// 12293
//“Mr. Potter?” said Professor Vector’s voice from behind her, sounding puzzled.
-- Містере Поттер? -- позаду Герміони спантеличено озвалася професорка Вектор.

// 12294
//“Um,” Harry’s voice said from further back, sounding extremely reluctant. “Um…
//well, actually in my case the Headmaster set fire to a chicken.”
-- Ее, -- звідкись ззаду заговорив Гаррі, дуже, дуже неохоче, --
Тойво... Ну, якщо чесно, в моєму випадку директор підпалив курча.

// 12295
//“He __what?__” Hermione blurted, only there were several other people
//exclaiming things at around the same time so she wasn’t sure anyone heard her.
-- Він __що__? -- вирвалося в Герміони, лише в декількох інших одночасно щось
вирвалося, тож вона не була певна, чи її хтось почув.

// 12296
//Dumbledore went on gazing at her, looking perfectly serious.
Дамблдор продовжував вдивлятися в неї з абсолютно серйозним виглядом.

// 12297
//“I didn’t know about Fawkes,” Harry’s voice said rapidly, “so he told me that
//Fawkes was a phoenix, while he was pointing to a chicken on Fawkes’s stand so
//I’d think __that__ was Fawkes, and then he set the chicken on fire - and
//also he gave me this big rock and told me it had belonged to my father and I
//ought to carry it everywhere -”
// hedrok: "Fawkes was a phoenix" копія з 017:2910
-- Я не знав про Фоукса, -- поквапом заторочив Гаррі, -- тож він мені сказав,
що Фоукс -- фенікс, показуючи на курча у Фоукса на жердинці, тож я подумав що
__це__ і є Фоукс, а тоді він підпалив те курча... А ще він дав мені велику
каменюку і сказав, що вона належала моєму батькові, і я маю всюди її з собою
тягати...

// 12298
//“But that’s __crazy!__” Susan blurted out.
-- Та це ж __божевілля!__ -- випалила Сьюзен.

// 12299
//There was a sudden hush.
Всі якось принишкли.

// 12300
//The Headmaster slowly turned his head to stare at Susan.
Директор повільно обернувся до Сьюзен.

// 12301
//“I -” said Susan. “I mean - I -”
-- Я... -- вичавила з себе Сьюзен, -- себто, я хотіла... я...

// 12302
//The Headmaster leaned down until he was face-to-face with the young girl.
Директор нахилився до неї так, що їхні очі опинилися на одному рівні.

// 12303
//“I didn’t -” said Susan.
-- Я не те... -- затиналася Сьюзен.

// 12304
//Dumbledore put a finger to his lips and twiddled them, making a
//__bweeble-bweeble-bweeble__ sound.
Дамблдор приклав пальця до вуст і посмикав їх, видаючи звук на кшталт
"`бвіблі-бвіблі-бвіблі`".

// 12305
//The Headmaster straightened up again and said, “Well, my good heroines, it has
//been pleasant speaking to you, but alas, much else remains to do this day.
//Still, rest assured that I am inscrutable at everyone, not just witches.”
Тоді директор знову випростався і сказав:

-- Ну що ж, дорогі мої героїні, було приємно з вами поспілкуватися, та, на жаль,
маю на сьогодні ще багато роботи. Втім, будьте певні, що я незбагненний до
всіх, а не лише до відьом.

// 12306
//The gargoyles stepped aside, the Flowing Stone rumbling like rock as it moved
//like flesh.
Гаргуйлі розступилися, рідкий камінь загуркотів мов обвал і рухався як
плоть.

// 12307
//The huge ugly figures waited briefly with dead gray eyes staring out in silent
//vigil, as Albus Percival Wulfric Brian Dumbledore, smiling as benevolently as
//when he’d first emerged from his office, stepped back into the Enchantment of
//the Endless Stair.
Великі потворні постаті якусь мить чекали, пильнуючи довкола мертвими сірими
очиськами, а Албус Персіваль Вульфрик Браян Дамблдор, посміхаючись так само
поблажливо, як коли він тільки вийшов із кабінету, відступив назад, до
чаклунства нескінченних сходів.

// 12308
//Then the great gargoyles folded their wings back into place and stepped back
//into their former positions, only one last brief “Bwa-ha-ha!” echoing out
//before the gap closed.
Величні гаргуйлі знову склали крила, повернулися на свої місця, а до глядачів
долинуло лише одне останнє "`Ва-ха-ха`", перш ніж отвір зачинився.

// 12309
//There was a long silence.
Мовчання було довгим.

// 12310
//“He __really__ set a chicken on fire?” said Hannah.
-- Він __справді__ підпалив курча? -- спитала Анна.

***

// 12311
//The eight of them had continued protesting even after that, but to be honest
//their heart had gone out of it.
Вісім із них залишилися протестувати далі, але, якщо чесно, настрій вже був не
той.

// 12312
//It __had__ been established, after some careful questions from Professor
//Flitwick, that Harry Potter hadn’t smelled the chicken burning. Which meant
//that it had probably been a pebble or something, Transfigured into a chicken
//and then enclosed in a Boundary Charm to make sure that no smoke escaped into
//the air - both Professor Flitwick and Professor McGonagall had been very
//emphatic about nobody trying that without their supervision.
В результаті прискіпливого допиту з боку професора Флитвіка таки __було__
встановлено, що Гаррі Поттер не відчував був запаху палаючого курчати. Що
означало, що це скоріш за все був камінчик чи щось таке, трансфігурований у
курча і замкнений в обмежувальні чари, щоб дим не потрапляв у повітря. І професор
Флитвік, і професорка Макґонеґел дуже переконливо радили нікому не намагатися
відтворити цей трюк без їхнього нагляду.

// 12313
//But still…
І все ж таки...

// 12314
//But still… what?
І все ж таки... що?

// 12315
//Hermione didn’t even __know__ but still what.
Герміона навіть не __знала__ що все ж таки.

// 12316
//But __still__.
І __все ж таки__.

// 12317
//After a lot of glances exchanged between girls none of whom had wanted to be
//first to say it, Hermione had declared the protest over, and the adults and
//boys had drifted off.
Після чисельного обміну поглядами між дівчатами, що з них жодна не хотіла
казати це першою, Герміона оголосила, що протест завершено;
дорослі та хлопчики поступово розійшлися.

// 12318
//“You don’t think we were being unfair to Dumbledore, do you?” said Susan as the
//heroines walked away to the sound of eight pairs of feet trodding on the stone
//paving of Hogwarts’s corridors. “I mean, if he __is__ crazy at everyone
//and not just at witches then it’s not discrimination, right?”
-- Ти ж не думаєш, що ми несправедливі до Дамблдора, правда ж? -- спитала
Сьюзен, коли героїні пішли, і вісім пар ніг затупцяло кам'яною підлогою
коридору. -- Я хочу сказати, якщо він __справді__ божевільний до всіх, а не
лише до відьом, тоді це аж ніяк не дискримінація, еге ж?

// 12319
//“I don’t want to protest against the Headmaster any more,” Hannah said weakly.
//The Hufflepuff girl seemed a bit unsteady on her feet. “I don’t care what
//Professor McGonagall says about him not holding it against us, it’s just too
//much for my nerves.”
-- Я не хочу більше протестувати проти директора, -- промимрила Анна. Гафелпафка
непевно трималася на ногах. -- Мені байдуже, що професорка Макґонеґел каже,
буцімто він нічого проти нас не матиме, це все занадто для моїх нервів.

// 12320
//Lavender snorted. “I guess __you__ won’t be slaying armies of Inferi
//anytime soon -”
Лаванда рохкнула.

-- Здається, __ти__ найближчим часом не вийдеш проти армії інферіїв.

// 12321
//“Stop that!” Hermione said sharply. “Look, all of us have got to __learn__
//to be heroines, right? It’s okay if someone doesn’t know right away.”
-- Припиніть! -- різко обірвала їх Герміона. -- Слухайте, всі ми маємо
__навчитися__ бути героїнями, так? Не страшно, якщо в когось не виходить
одразу.

// 12322
//“The Headmaster doesn’t think it __can__ be learned,” Padma said. The
//Ravenclaw girl’s face was thoughtful, her steps measured as she strode through
//the corridor. “The Headmaster doesn’t even think that’s a good idea.”
-- Директор не вважає, що цьому __можна__ навчитися, -- зауважила Падма.
Обличчя рейвенкловка мала замислене, вона поважно крокувала коридором. --
Директор навіть не вважає, що це вдала ідея.

// 12323
//Daphne was striding with her back straight and her head held bolt upright,
//looking more like a Proper Young Lady in her Hogwarts robes than Hermione could
//have done with her best formal dress. “The Headmaster,” Daphne said in a
//precise voice, her shoes making hard, sharp tacking sounds on the stone,
//“thinks the lot of us are a bunch of silly girls playing games, and that
//someday Hermione might make a good sidekick but the rest of us are hopeless.”
Дафна викроковувала з прямою спиною, підборіддям уперед; вона була більше схожа
на Правильну Молоду Панянку в своїй шкільній уніформі, ніж Герміона -- у своїй
найкращій вечірній сукні.

-- Директор гадає, -- сказала Дафна виважено, під гострий стукіт своїх підборів по
каменю, -- що ми лише купка дурненьких дівчисьок, що грають в ігри, і що
одного дня з Герміони вийде гарний Робін, а решта з нас взагалі безнадійна.

// 12324
//“Is he __right?__” said Parvati. The Gryffindor girl’s face was very
//serious, making her look much more like her twin than she usually did. “I mean
//it has to be asked -”
-- Чи __має він рацію?__ -- запиталася Парваті. Дівчинка з Ґрифіндору була
серйозна, і більш ніж коли-небудь скидалася на свою близнючку. -- Я хочу
сказати, варто спитати себе...

// 12325
//“__No!__” spat Tracey. The Slytherin girl was stalking through the hallway
//looking ready to __kill__ someone, like a miniature female Snape. Of all
//the girls, Tracey was the one who Hermione knew least. Hermione had talked to
//Lavender once before, but she’d never really __seen__ Tracey except at
//wandpoint during a battle, until the Slytherin had jumped up from her sofa to
//volunteer. “We’ll show him! We’ll show them __all!__”
-- __Ні!__ -- сплюнула Трейсі. Слизеринка рушила коридором так, ніби ладна
була __вбити__ когось, ніби міні-Снейпиха. З усіх дівчат Герміона знала
її найгірше. Герміона розмовляла була з Лавандою до того, а ось Трейсі ніколи
справді не __бачила__, хіба на вістрі палички під час бою, аж раптом слизеринка
підхопилася з дивану і зголосилася в добровольці. -- Ми йому покажемо! Ми їм
__усім__ покажемо!

// 12326
//“Okay,” said Susan, “that was __definitely__ evil -”
-- Ну годі, -- сказала Сьюзен, -- ось це вже __точно__ було по-лихому...

// 12327
//“No,” said Lavender, “that’s a Chaos Legion motto, actually. Only she didn’t do
//the insane laughter.”
//! hedrok: мається на увазі, що в девізі Легіону Хаосу є зловісний сміх, але
//!         Трейсі його пропустила, не виконала тощо.
-- Ні, -- сказала Лаванда, -- насправді, це девіз Легіону Хаосу. Тільки вона
пропустила зловісний сміх.

// 12328
//“That’s right,” Tracey said, her voice low and grim. “This time I’m not
//laughing.” The girl went on stalking through the corridor, like she had
//dramatic music accompanying her that only she could hear.
-- Саме так, -- підтвердила Трейсі, тихо і рішуче. -- Цього разу я не сміюсь.

Дівчина попростувала далі коридором, так, ніби її супроводжувала драматична
музика, чутна лише для неї.


// 12329
//(Hermione was starting to worry about what __exactly __the impressionable
//youths of the Chaos Legion were learning from Harry Potter.)
(Герміона почала непокоїтись, чому __саме__ вчить Гаррі Поттер сприйнятливу
молодь з Легіону Хаосу.)

// 12330
//“But - I mean -” Parvati said. She still had a contemplative look on her face.
//“I mean, you can see __why__ the Headmaster would think we were just silly
//girls, right? What does protesting outside the Headmaster’s office have to do
//with becoming heroines?”
-- Але... Я хочу сказати... -- почала Парваті. Вона зберегла задумливий вираз
обличчя. -- Себто, ви ж розумієте, __чому__ директор міг подумати, що ми лише
дурні дівчиська, хіба ні? Який стосунок протест під кабінетом директора
зрештою має до перетворення на героїнь?

// 12331
//“Huh,” Lavender said, now looking thoughtful herself. “That’s true. We should
//do something heroic. I mean heroinic.”
-- Ха, -- мугикнула Лаванда, і собі замислившись. -- Це правда. Ми мусимо
зробити щось героїчне. Себто героїнське.

// 12332
//“Um -” said Hannah, which very much expressed Hermione’s own feelings on the
//subject.
-- Гммм, -- сказала Анна. Ця репліка більш-менш виражала і почуття Герміони з
цього приводу.

// 12333
//“Well,” said Parvati, “has everyone already been through Dumbledore’s
//third-floor forbidden corridor? I mean everyone in Gryffindor’s been through it
//by now -”
-- Ну, -- запропонувала Парваті. -- Всі вже ходили до забороненого коридору
Дамблдора на третьому поверсі? Я гадаю, в Ґрифіндорі вже всі були...

// 12334
//“Hold __on!__” Hermione said desperately. “I don’t want you doing anything
//__dangerous!__”
-- __Постривай__-но! -- розпачливо вигукнула Герміона. -- Я не хочу, щоб ви
робили щось __небезпечне!__

// 12335
//There was a pause while everyone looked at Hermione, who was realizing, much
//too late, why Dumbledore hadn’t wanted anyone __else __to be a hero.
Впродовж паузи всі вони дивилися на Герміону, а вона поступово усвідомлювала,
та надто запізно, чому Дамблдор не хотів був, щоб хтось __інший__ ставав героєм.

// 12336
//“I don’t think you can become a heroine if you never do anything dangerous,”
//Lavender observed reasonably.
-- Я не думаю, що можна стати героїнею, не зробивши нічого небезпечного, --
розсудливо зауважила Лаванда.

// 12337
//“Besides,” said Padma, a considering look on her face. “Everyone knows that
//nothing __really__ bad ever happens in Hogwarts, right? To students, I
//mean, not to the Defense Professors. We’ve got all these ancient wards and so
//on.”
-- До того ж, -- продовжила Падма, ніби щось зважуючи, -- всі знають, що в
Гоґвортсі майже не трапляється нічого __справді__ поганого, еге ж? З учнями, я
маю на увазі, не з професорами із захисту. Через усі ці древні запобіжні закляття, і
все таке інше.

// 12338
//“Um -” Hannah said again.
-- Гм... -- знову висловилася Анна.

// 12339
//“Yeah,” said Parvati, “the worst that can happen is that we’ll lose a few dozen
//House points or something, and there’s two of us from each House so
//__that’ll __all come out even.”
-- Еге ж, -- підтвердила Парваті. -- У найгіршому випадку втратимо
двадцять-тридцять балів гуртожитку, чи щось таке, а нас по двоє з кожного
гуртожитку, тож __зрештою__ все врівноважиться.

// 12340
//“Why, that’s __brilliant,__ Hermione!” said Daphne in a tone of great
//amazement. “The way you set it up means we can get away with __anything!__
//And I didn’t even notice your cunning plan until now!”
-- Та це __блискуча__ ідея, Герміоно! -- враженим голосом вигукнула Дафна. --
Ти все так облаштувала, що нам __будь-що__ зійде з рук! А я навіть не помітила
твого хитрого плану, аж ось досі!

// 12341
//“__UM__ -” said Hermione, Hannah, and Susan.
-- __ГММ__, -- сказали Герміона, Анна та Сьюзен.

// 12342
//“Right!” said Parvati. “So now it’s time for us to become real heroines. We’ll
//come for the darkness -”
-- Правильно! -- сказала Парваті. -- Настав час ставати справжніми героїнями.
Ми переслідуватимемо темряву...

// 12343
//“And make __it__ face __us __-” said Lavender.
-- І змусимо __її__ вийти на бій з __нами__, -- сказала Лаванда.

// 12344
//“And teach it to be afraid,” Tracey Davis said grimly.
-- І навчимо її боятися, -- зловісно завершила Трейсі Девіс.
