// 14646
//== Taboo Tradeoffs, Final
== Розділ 82. Неприпустимі поступки, фінал

// 14647
//Phoenix travel was a sensation entirely unlike Apparition or portkeys. You
//caught on fire - you definitely felt yourself catching on fire, even though
//there was no pain - and instead of burning to ashes, the fire burned all the
//way through you and you __became__ fire, and then you went out in one
//place and blazed up in another. It didn’t sicken the stomach like portkeys or
//Apparition, but it was a rather unnerving experience nonetheless. If the
//underlying truth of phoenix travel really was becoming a specific instantiation
//of a more general Fire, then that seemed to hint you could potentially burn
//__anywhere -__ even in the distant past, or in another universe, or in two
//places at once. You might go out in one place and blaze up in a hundred others,
//and the you who arrived at Hogwarts would never know the difference. Though
//Harry had read what he could about phoenixes, trying to figure out how to get
//one of his own, and there’d been no hint of anything remotely like
//__that__ capability.
Подорож з феніксом була зовсім не схожою на явлення чи летиключі. Вас охоплювало полумʼя,
і ви почувалися саме так, наче вас охопило полумʼя, хоча болю й не було. І замість того,
щоб спалити вщент, вогонь горів крізь вас, і ви __ставали__ вогнем. А тоді ви
згасали в одному
місці і розгоралися вже в іншому. Шлунок не крутило, як при подорожі за
допомогою летиключа чи явлення, однак відчуття було не з приємних. Якщо
основою подорожей фенікса й справді було перетворення на окрему сутність вогню як явища,
то це натякало, що ви потенційно можете горіти __будь-де__, навіть у далекому минулому,
чи іншому всесвіті, чи у двох місцях одночасно. Ви можете згаснути в одному місці й
одночасно спалахнути у сотні інших, а той ви, хто прибув у Гоґвортс, навіть не дізнається.
Хоча Гаррі й прочитав про феніксів усе, що міг, намагаючись зрозуміти, як дістати такого
й собі, але не натрапив навіть на натяк про __таку__ здібність феніксів.

// 14648
//Harry caught fire and went out and blazed up somewhere else; and just like that
//he, and the Headmaster, and the unconscious form of Hermione Granger held in
//the Headmaster’s arms, were occupying another place; with Fawkes above them
//all. A calm, warm room of bright stone columns, skylit on all four sides,
//populated by white beds in long rows, four of which had silencing veils drawn
//around them, and the rest empty.
Гаррі охопило полумʼя, тоді він затух і спалахнув у іншому місці. І ось
він, директор, непритомне тіло Герміони Ґрейнджер у руках директора, опинилися
зовсім в іншому просторі, а Фоукс висів над ними. Спокійна, тепла кімната з
яскравими камʼяними
колонами, великими вікнами у всіх чотирьох стінах, заповнена рядами білих ліжок,
навколо чотирьох
з яких звукоізольовані завіси були запнуті, а решта ліжок були вільні.

// 14649
//In one corner of Harry’s vision, a surprised-looking Madam Pomfrey was turning
//toward them. Dumbledore seemed to pay the senior healer no heed, as he
//carefully laid down Hermione on an unoccupied white bed.
Краєм ока Гаррі побачив, як здивована мадам Помфрі повернулася в їхній бік. Не
звертаючи на неї уваги, Дамблдор обережно поклав Герміону на одне з білих ліжок.

// 14650
//From a distant corner there was a flash of green, and from out of a fireplace
//strode Professor McGonagall, brushing herself off slightly from the Floo ashes.
У дальньому кутку спалахнуло зелене світло, і з каміну, обтрушуючи з себе залишки
порошку флу, вийшла професорка Макґонеґел.

// 14651
//The old wizard turned from the bed and reached one of his arms around Harry
//again; and then the Boy-Who-Lived and his wizard vanished in another burst of
//fire.
Старий чарівник відвернувся від ліжка й однією рукою знову обійняв Гаррі. І тоді
Хлопчик-Що-Вижив і його чарівник зникли в новому спалаху вогню.

***

// 14652
//When Harry had fully lit up again he was standing in the Headmaster’s office,
//amid the noises of a dozen dozen inexplicable gidgets.
Коли Гаррі повністю розгорівся, то вже стояв у кабінеті директора, оточений звуками
десятків незрозумілих пристроїв.

// 14653
//The young boy took a step away from the old wizard and then turned on him,
//emerald and sapphire eyes meeting.
Хлопчик відступив на крок від старого чарівника, а тоді подивився на нього.
Смарагдові й сапфірові очі зустрілися.

// 14654
//The two of them did not speak for a time, looking at each other; as though all
//they had to speak could be said only by stares, and not said in any other way.
Деякий час вони не казали нічого, а просто дивилися один на одного, наче все, про що
треба було поговорити, могло бути сказане самими поглядами, і жодним іншим чином.

// 14655
//In time the boy enunciated words slowly and precisely.
З часом хлопець сформулював свої слова, повільно і точно.

// 14656
//“I cannot believe that a phoenix is still upon your shoulder.”
-- Не можу повірити, що фенікс і досі на вашому плечі.

// 14657
//“The phoenix chooses but once,” said the old wizard. “They might perhaps leave
//a master who chooses evil over good; they will not leave a master forced to
//choose between one good and another. Phoenixes are not arrogant. They know the
//limits of their own wisdom.” Stern indeed, that ancient gaze. “Unlike you,
//Harry.”
-- Фенікс обирає лише раз, -- сказав старий чарівник. -- Вони можуть покинути
господаря,
що обрав зло замість добра, але вони не облишать господаря, що змушений обирати між одним
добром і іншим. Фенікси не зарозумілі. Вони усвідомлюють межі своєї мудрості.

Його давній погляд був суворим:

-- На відміну від тебе, Гаррі.

// 14658
//“Choose between one good and another,” Harry echoed flatly. “Like Hermione
//Granger’s life, versus a hundred thousand Galleons.” The rage and indignation
//Harry wanted to put into his voice wasn’t quite there, for some reason, maybe
//because -
-- Обирати між одним добром і іншим? Як між життям Герміони Ґрейнджер і ста тисячами
ґалеонів? -- злоба й обурення, які він намагався вкласти у свій голос чомусь не
проявилися. Може, через те, що...

// 14659
//“You are hardly in a position to speak to me of that, Harry Potter.” The
//Headmaster’s voice was deceptively soft. “Or what was that look of reluctance
//that I saw upon your face, there in the Most Ancient Hall?”
-- Ти не в тому становищі, щоб мені цим дорікати, Гаррі Поттере, -- голос
директора був мʼяким і проникливим. -- Твоє небажання робити те, що довелося,
було написане на твоєму обличчі там, у Найдавнішій Залі.

// 14660
//The sense of inward hollowness grew worse. “I was looking for other
//alternatives,” Harry bit out. “Some way to save her that __didn’t__ lose
//the money.”
Відчуття внутрішньої порожнечі зросло.

-- Я шукав інші альтернативи, -- процідив Гаррі. -- Якийсь спосіб врятувати її,
__не втративши__ всі мої гроші.

// 14661
//__Wow,__ said Ravenclaw. __You just told an outright lie. Not only
//that, I think you actually __believed__ it for the seconds it took to say
//it. That’s kinda scary.__
__Ого__, сказав рейвенкловець. __Ти щойно сказав відверту брехню.
До того ж, гадаю, ти навіть __повірив__ у неї на ті кілька секунд, доки її
промовляв. Це трохи лячно.__

// 14662
//“__Is__ that what you were thinking, Harry?” The blue eyes were keen, and
//there was a terrifying moment when Harry wondered if the world’s most powerful
//wizard could see right past his Occlumency barriers.
-- Чи ти справді думав про __це__, Гаррі? -- блакитні очі були пронизливими, і
на одну жахливу мить Гаррі задумався, чи не міг наймогутніший чарівник у світі
бачити прямо крізь його блокологічні барʼєри.

// 14663
//“__Yes,__” Harry said, “I flinched away from the pain of losing all the
//money in my vault. But I __did__ it! __That’s__ what counts! And
//__you__ -” The indignation that had faltered out of Harry’s voice
//returned. “You __actually__ put a price on Hermione Granger’s life, and
//you put it below a hundred thousand Galleons!”
-- __Так__, -- сказав Гаррі, -- мене сіпало від болю перед втратою усіх грошей,
наявних у моєму сховищі. Але я це __зробив__! __От__ що важилво! А __ви__...

Голос Гаррі знову наповнило обурення.

-- Ви поставили ціну життю Герміони Ґрейнджер, і ця ціна була нижчою за сто тисяч
ґалеонів!

// 14664
//“Oh?” the old wizard said softly. “And what price do you put on her life, then?
//A million Galleons?”
-- Он як? -- мʼяко сказав старий чарівник. -- І в яку ж ціну ти оцінюєш її життя?
Мільйон ґалеонів?

// 14665
//“Are you familiar with the economic concept of ‘replacement value’?” The words
//were spilling from Harry’s lips almost faster than he could consider them.
//“Hermione’s replacement value is __infinite! __There’s nowhere I can go to
//buy another one!”
-- Чи ви не знайомі з економічною концепцією відновної вартості? -- слова сипалися
з губ Гаррі ледь не швидше, ніж він міг їх обдумати. -- Відновна вартість Герміони
__нескінченна__! __Не існує можливості купити іншу!__

// 14666
//__Now you’re just talking mathematical nonsense,__ said Slytherin.
//__Ravenclaw, back me up here?__
__З точки зору математики ти верзеш нісенітницю__, сказав слизеринець.
__Підтримаєш мене, рейвенкловцю?__

// 14667
//“Is Minerva’s life also of infinite worth?” the old wizard said harshly. “Would
//you sacrifice Minerva to save Hermione?”
-- Чи життя Мінерви також коштує нескінченність? -- різко спитав старий чарівник. --
Чи пожертвував би ти нею, щоб врятувати Герміону?

// 14668
//“Yes and yes,” Harry snapped. “That’s part of Professor McGonagall’s job and
//she knows it.”
-- Так і так, -- швидко відповів Гаррі. -- Це є одним з обовʼзків професорки Макґонеґел,
і вона про це знає.

// 14669
//“Then Minerva’s value is not infinite,” said the old wizard, “for all that she
//is loved. There can only be one king upon a chessboard, Harry Potter, only one
//piece that you will sacrifice any other piece to save. And Hermione Granger is
//not that piece. Make no mistake, Harry Potter, this day you may well have lost
//your war.”
-- Тоді ціна Мінерви не безкінечна, -- сказав старий чарівник. -- Хай як її люблять.
На дошці може бути лише один король, Гаррі Поттере, лише одна фігура, заради якої
ти готовий пожертвувати будь-якою іншою. І Герміона Ґрейнджер не є тією фігурою.
Усвідом це, Гаррі Поттере, сьогодні, цілком можливо, ти програв свою війну.

// 14670
//And if the old wizard’s words hadn’t hit quite so hard, and quite so close to
//home, Harry might not have said what he said then.
Якби слова старого чарівника не були такими точними і такими сильними, то Гаррі б
може і не сказав того, що сказав.

// 14671
//“Lucius was right,” Harry ground out. “You never had a wife, you never had a
//daughter, you’ve never had anything but war -”
-- Луціус мав рацію, -- парував Гаррі. -- У вас ніколи не було дружини, ніколи не
було доньки, у вас ніколи не було нічого, окрім війни...

// 14672
//The old wizard’s left hand closed hard upon Harry’s wrist, bony fingers digging
//into the still-developing muscle of Harry’s arm, and for a moment Harry was
//paralyzed with the shock of it, he had forgotten what it meant that adults were
//stronger.
Лівиця старого чарівника замкнулася на запʼястку Гаррі, кістляві пальці впилися
у ще не повністю сформовані мʼязи на руці Гаррі. На мить Гаррі паралізувало від
подиву, він вже й забув відчуття того, що дорослі були сильніші.

// 14673
//Albus Dumbledore did not seem to notice. He only turned, dragging Harry with
//him, and moved forward in hard steps toward the wall of the room.
Албус Дамблдор, видавалося, і не помітив. Він повернувся, і важкими кроками попрямував
до стіни, тягнучи Гаррі за собою.

// 14674
//“__Phoenix’s price.__”
-- __Ціна фенікса.__

// 14675
//Harry was pulled up along the black stairs.
Він потягнув Гаррі на чорні сходи.

// 14676
//“__Phoenix’s fate.__”
-- __Доля фенікса.__

// 14677
//The room of black pedestals, silver light falling on shattered wands.
Кімната, заповнена чорними пʼєдесталами. Срібне світло падає на розтрощені
палички.

// 14678
//“You think,” yelled Harry, after his lips unlocked, “that you can win any
//argument, just by standing here?”
-- Гадаєте, -- крикнув Гаррі, коли зміг розтулити рота, -- що можете перемогти
в будь-якій суперечці, просто прийшовши сюди?

// 14679
//The old wizard ignored him, dragging Harry across the room. His right hand, no
//longer holding his wand, grabbed up a vial of silver fluid -
Старий чарівник проігнорував його, і потягнув крізь кімнату. Його права рука, яка
тепер вже не тримала паличку, схопила флакон зі срібною рідиною...

// 14680
//Harry blinked in shock; the vial of silver fluid had been standing next to a
//picture of __Dumbledore,__ or so it had appeared to Harry in the brief
//moment before he was dragged past.
Гаррі кліпнув від подиву. Флакон срібної рідини стояв поряд з портретом __Дамблдора__,
чи, принаймні, так Гаррі здалося на коротку мить, доки його тягли повз.

// 14681
//Past the end of all the pedestals, at the farthest part of the room, rose a
//great stone basin with runes carved into it that Harry didn’t recognize. The
//center was a shallow depression filled with transparent liquid, and into this
//the old wizard dumped the canister of silver fluid, which at once began to
//spread out, to swirl, to set the entire basin glowing eerie white.
За всіма пʼєдесталами, у дальній частині кімнати, височіла велика камʼяна чаша.
У ній були вирізьблені руни, яких Гаррі не впізнав. Центр чаші мав вузьку заглибину,
заповнену прозорою рідиною, у яку старий чарівник вилив з ємності срібну речовину.
Вона одразу почала поширюватися, кружляти, і залила усю чашу моторошним білим світлом.

// 14682
//The old wizard’s hand let go of Harry’s arm and gestured to the glowing basin,
//commanding harshly, “Look!”
Старий чарівник відпустив Гаррі і показав убік чаші.

-- Дивися! -- різко наказав він.

// 14683
//As requested, Harry stared at the glowing water.
Гаррі подивився у сяйливу воду, як його й просили.

// 14684
//“Put your head into the Pensieve, Harry Potter.” The old wizard’s voice was
//stern.
-- Опусти голову у сито спогадів, Гаррі Поттере, -- голос старого чарівника був суворим.

// 14685
//Harry had heard that word before, but he couldn’t remember where . “What - does
//this do -”
Гаррі вже чув цю назву раніше, але не міг пригадати де саме.

-- Що саме... воно робить...

// 14686
//“Memories,” the old wizard said. “You will see my memory. My oath that it is
//safe. Now look into the Pensieve, Ravenclaw, if you still care anything at all
//for your precious truth!”
-- Спогади, -- сказав старий чарівник. -- Ти побачиш мій спогад. Даю слово, що це
безпечно. а тепер подивися у сито спогадів, рейвенкловцю, якщо тобі досі не
начхати на твою дорогоцінну правду!

// 14687
//That was a request that Harry could not deny, and he stepped forward and thrust
//his head into the glowing water.
Такого запиту Гаррі не міг відхилити. Він зробив крок уперед і опустив голову у
сяйливу воду.

***

// 14688
//__Harry was sitting behind the desk in the Headmaster’s office of
//Hogwarts, and his wrinkled hands that clutched at his head were spotted with
//age and white hairs.__
__Гаррі сидів за столом, у кабінеті директора Гоґвортсу, його старі, зморщені,
криті білим волоссям руки, вчепилися у його голову.__

// 14689
//__“He is all that I have!” wept a voice, very strange was Dumbledore’s
//voice as Dumbledore himself remembered it, from the inside it seemed far less
//stern and wise. “The last of my family! All that I have left!”__
-- __Він -- це все, що я маю! -- заплакав Дамблдорів голос. Дивним був цей
голос у спогадах самого Дамблдора. Зсередини він був далеко не таким суворим і
мудрим. -- Все, що лишилося від моєї родини! Все, що лишилося в мене!__

// 14690
//__No emotion had been allowed to pass through the Pensieve, only the
//physical sensation of seeming to speak the words. Harry heard the utter
//desolation in Dumbledore’s words, the sounds that seemed to come from Harry’s
//own throat, but Harry did not feel it beyond the hearing.__
__Емоції не передавалися ситом спогадів -- тільки фізичне відчуття нібито промовляння слів.
Гаррі чув цілковиту спустошеність Дамблдорових слів, звуки наче надходили з рота Гаррі,
але Гаррі не відчував їх, тільки чув.__

// 14691
//__“You’ve got no choice,” said a harsh voice.__
-- __В тебе немає іншого вибору, -- сказав різкий голос.__

// 14692
//__The eyes moved, the field of vision jumped to a man that Harry didn’t
//recognize, in clothing tinged with Auror crimson but made of solid leather with
//many pockets.__
__Погляд перемістився, і поле зору стрибнуло до чоловіка, що його Гаррі не впізнав.
Його одяг червоного аврорівського кольору був повністю зроблений зі шкіри і мав
чимало кишень.__

// 14693
//__His right eye was overlarge, with an electric-blue pupil that
//constantly darted and moved.__
__Його праве око було надвелике, із ядуче-блакитною зіницею, яка постійно
крутилася і рухалася.__

// 14694
//__“You cannot ask this of me, Alastor!” Dumbledore’s voice was wild. “Not
//this! Anything but this!”__
-- __Ти не можеш вимагати цього від мене, Аласторе! -- голос Дамблдора був диким.
-- Тільки не цього! Що завгодно, але не це!__

// 14695
//__“I’m not asking,” growled the man. “Voldie’s the one who’s asking, and
//you’re going to tell him no.”__
-- __Вимагаю тут не я, -- прогарчав чоловік, -- а Волді. І ти йому відмовиш.__

// 14696
//__“For money, Alastor?” Dumbledore’s voice was begging. “Only for
//money?”__
-- __Через гроші, Аласторе? -- голос Дамблдора благав. -- Лише через гроші?__

// 14697
//__“You ransom Aberforth, you lose the war,” the man said sharply. “That
//simple. One hundred thousand Galleons is nearly all we’ve got in the war-chest,
//and if you use it like this, it won’t be refilled. What’ll you do, try to
//convince the Potters to empty their vault like the Longbottoms already did?
//Voldie’s just going to kidnap someone else and make another demand. Alice,
//Minerva, anyone you care about, they’ll all be targets if you pay off the Death
//Eaters. That’s not the lesson you should be trying to teach them.”__
-- __Якщо ти викупиш Аберфорта, ти програєш війну, -- різко сказав чоловік. --
Все просто. Сто тисяч ґалеонів -- це майже все, що є в нашій військовій скриньці.
І якщо ти використовуватимеш їх так, то вона й не поповнюватиметься. Що ти робитимеш,
спробуєш вмовити Поттерів віддати все, що є у їхньому сховищі, як це вже зробили
Лонґботоми? Волді просто викраде когось іншого й вимагатиме знову. Алісу, Мінерву,
будь кого, хто тобі дорогий. Вони всі стануть мішенями, якщо ти заплатиш смертежерам.
Це не той урок, якому тобі варто старатися їх навчити.__

// 14698
//__“If I do this I will have no one. No one.” Dumbledore’s voice broke,
//the world tilted as the outlooking head fell down into the ancient hands, and
//awful sounds came from not-Harry’s throat as he began to sob like a child.__
-- __Якщо я зроблю це, у мене не лишиться нікого. Нікого. -- голос Дамблдора
змінився, світ нахилився, коли голова, з очей якої дивився Гаррі, впала на
старечі руки, і жахливі звуки почали долинати із не-Гарріного горла. Дамблдор
ридав, наче дитина.__

// 14699
//__“Shall I tell Voldie’s messenger no?” said Alastor’s voice, now
//strangely gentle. “You don’t have to do it yourself, old friend.”__
-- __Мені сказати посланцю Волді "`ні`"? -- голос Аластора став на диво ніжним.
-- Тобі не обовʼязково робити це самому, старий друже.__

// 14700
//__“No - I will say it myself - I must -”__
-- __Ні... Я скажу це сам. Я повинен...__

***

// 14701
//The memory ended with a shock and Harry ripped his head out of the glowing
//water, gasping as though he’d been deprived of air.
Спогад обірвався, і Гаррі, шокований, швидко витяг голову з сяючої води. Він хапав
ротом повітря, наче задихався.

// 14702
//The transition between scenes, between decade-old reality and present moment,
//was another jolt to Harry’s mind; in some fashion his immersion in the past had
//unanchored him. The broken old man sobbing in his office had been another
//person in another era, Harry had understood that much; someone softer -
Перехід між сценами, між дійсністю десятирічної давності і теперішньою миттю, ще раз
струснув розум Гаррі. У якомусь сенсі занурення в минуле лишило Гаррі незахищеним.
Розбитий, ридаючий у своєму кабінеті старий чоловік був іншою людиною, в інший час,
Гаррі це розумів. Хтось мʼякший...

// 14703
//Before it had all vanished like dissipating smoke, returning the __now,__
//the present day.
До того, як все це зникло наче дим у повітрі. І повернулося
__тепер__, сьогодні.

// 14704
//Terrible and stern stood the ancient wizard, like he was carven from stone;
//beard woven of thread like iron, half-moon glasses like mirrors, and the pupils
//behind as sharp and unyielding as black diamond.
Давній чарівник стояв жахаючий і суровий, наче вирізьблений з каменю: борода, ніби
сплетена з залізних ниток, окуляри-півмісяці, мов дзеркала, а зіниці поза ними гострі
й непохитні, як чорний діамант.

// 14705
//“Do you also wish to see my brother as he died under the Cruciatus?” said Albus
//Dumbledore. “Voldemort sent me that memory as well!”
-- Чи хочеш ти також побачити, як мій брат помер під закляттям Круціатус? --
спитав Албус Дамблдор. -- Волдеморт надіслав мені цей спогад!

// 14706
//“And that - ” Harry was having trouble producing a voice, for the growing
//sickness in his chest. ”__That__ was when -” The words seemed to burn in
//his throat, as the awful knowledge dawned on him, the horrible understanding.
//“That was when you burned Narcissa Malfoy alive in her own bedroom.”
-- То це тоді... -- Гаррі було складно промовляти слова через зростаюче почуття
нудоти. -- Це __тоді...__

Слова наче пропалювали йому горло, на нього опустилося жахливе знання, кошмарне
розуміння:

-- Це тоді ви спалили Нарцису Мелфой живцем у її власній спальні.

// 14707
//Albus Dumbledore’s gaze was cold as he answered. “To that question only a fool
//would say yea or nay. What matters is that the Death Eaters believe I killed
//her, and that belief kept safe the families of all who served the Order of the
//Phoenix - until this day. Now do you understand what you have done? What you
//have done to your __friends,__ Harry Potter, and to any that stand with
//you?” The old wizard seemed to grow still taller and more terrible, as his
//voice rose louder. “You have made them all targets, and targets they will
//remain! Until you prove, the only way it can be proven, that you are no longer
//willing to pay such prices!”
Погляд Албуса Дамблдора був холодним, коли він відповів:

-- Тільки дурень скаже "`ага`" чи "`а-а`" на таке питання. Що має значення, то це те,
що смертежери вірять, що я її вбив. І ця віра убезпечила родини всіх,
хто служив Ордену Фенікса, -- аж до сьогодні. Тепер ти розумієш, що накоїв? Як ти
вчинив зі своїми __друзями__, Гаррі Поттере, і з будь-ким, хто стане на твій бік? --
видавалося, що разом з тим, як голос старого чарівника ставав гучнішим, і сам він
ставав ще вищим і більш жахаючим. -- Ти перетворив їх усіх на мішені, і мішенями
вони й залишаться! Доки ти не доведеш, єдиним можливим чином, що більше не
збираєшся платити такі ціни!

// 14708
//“And is it true?” Harry said. There was a buzzing sensation filling him, his
//body growing more distant. “What Draco said, that Narcissa Malfoy never got her
//hands dirty, that she was only Lucius’s wife? She was an enabler, I get that,
//but I can’t back that deserving being __burned alive__.”
-- То це правда? -- Гаррі наче гудів всередині, тіло, видавалося, ставало дедалі
відстороненішим. -- Те, що сказав Драко. Що Нарциса Мелфой не бруднила руки, що
вона тільки була дружиною Луціуса? Я розумію, що вона сприяла злочинам, але не
думаю, що за це вона заслуговувала на __спалення живцем__.

// 14709
//“Nothing less would have convinced them that I was done with hesitation.” The
//old wizard’s voice brooked no question and no refusal. “Always I was too
//reluctant to do as I must, always it was others who paid the cost of my mercy.
//So Alastor told me from the beginning, but I did not listen to him. You, I
//expect, shall prove better at such decisions than I.”
-- Менш жорстокий вчинок не переконав би їх у тому, що я більше не вагатимусь,
-- голос старого чарівника не припускав жодних питань чи відмов. -- Я завжди
робив те, що повинен, з надмірним небажанням, і ціну за моє милосердя завжди
платили інші. Аластор казав мені це від початку, але я не дослухався до нього.
Я очікую, що ти такі рішення прийматимеш ліпше за мене.

// 14710
//“I’m surprised,” Harry said, amazed that his voice was almost steady. “I would
//have expected the Death Eaters to go after another Light family and start a
//cycle of escalating retaliation, if you didn’t get them all with your first
//strike.”
-- Я здивований, -- на диво рівним голосом сказав Гаррі. -- Я б
очікував, що смертежери помстяться якійсь іншій сімʼї світла, і цикл помсти
поширюватиметься, якщо не дістати усіх одним ударом.

// 14711
//“If my opponent had been Lucius, perhaps.” Dumbledore’s eyes were like stones.
//“I am told that Voldemort laughed at the news, and proclaimed to his Death
//Eaters that I had finally grown, and was at last a worthy opponent. Perhaps he
//was right. After the day I condemned my brother to his death, I began to weigh
//those who followed me, balancing them one against another, asking who I would
//risk, and who I would sacrifice, to what end. It was strange how many fewer
//pieces I lost, once I knew what they were worth.”
-- Якби моїм опонентом був Луціус, то, можливо, так і було б, -- очі Дамблдора
були наче кам'яні. -- Мені розповіли, що Волдеморт розсміявся і проголосив своїм
смертежерам, що я нарешті подорослішав і став гідним суперником. Можливо, він
мав рацію.
Після того дня, коли я прирік свого брата на смерть, я почав оцінювати своїх послідовників
відносно одне одного, оцінював, ким я можу ризикнути, кого принести в жертву
і заради чого. Дивно, але я втратив набагато менше фігур, коли усвідомив ціну кожної з них.

// 14712
//Harry’s jaw seemed locked, like it took a massive effort to make his lips move.
//“But then it’s not like Lucius was deliberately taking Hermione for ransom,”
//Harry’s voice said thinly. “From Lucius’s perspective, someone else broke the
//truce first. So with that in mind, how many Galleons __was__ Hermione
//worth, exactly? Leaving aside the Danegeld thing, if it was just some ordinary
//threat to her life, how much should I have paid to save her? Ten thousand
//Galleons? Five thousand?”
Вуста Гаррі були наче сковані, видавалося, йому довелося докласти
чимало зусиль, щоб заговорити.

-- Але Луціус не забрав Герміону навмисно заради того, щоб вимагати викуп. З його
точки зору хтось інший порушив перемирʼя. Зважаючи на це, скільки саме
ґалеонів
__коштує__ Герміона? Якщо забути про цей ваш данегельд, якщо це звичайна загроза її життю,
скільки мені варто було заплатити, щоб її врятувати? Десять тисяч ґалеонів? Пʼять?

// 14713
//The old wizard did not answer.
Старий чарівник не відповів.

// 14714
//“It’s a funny thing,” Harry said, his voice wavering like something seen
//through water. “Do you know, the day I went in front of the Dementor, what my
//worst memory was? It was my parents dying. I heard their voices and
//everything.”
-- Кумедно, -- голос Гаррі йшов хвилями, наче щось, на що дивилися крізь воду.
-- Того дня, коли я вперше зустрів дементора, знаєте, яким був мій найгірший спогад?
Це була смерть моїх батьків. Я чув їхні голоси і все інше.

// 14715
//The old wizard’s eyes widened behind the half-moon glasses.
Очі Дамблдора розширилися за серпастими окулярами.

// 14716
//“And here’s the thing,” Harry said, “here’s the thing I’ve been thinking about
//over and over. The Dark Lord gave Lily Potter the chance to walk away. He said
//that she could flee. He __told__ her that dying in front of the crib
//wouldn’t save her baby. ‘Step aside, foolish woman, if you have any sense in
//you at all -’” An awful chill came over Harry as he spoke those words from his
//own lips, but he shook it off and continued. “And afterward I kept thinking, I
//couldn’t seem to stop myself from thinking, wasn’t the Dark Lord
//__right?__ If only Mother had stepped away. She tried to curse the Dark
//Lord but it was suicide, she had to have __known __that it was suicide.
//Her choice wasn’t between her life and mine, her choice was for herself to live
//or for both of us to die! If she’d only done the logical thing and walked away,
//I mean, I love Mum too, but Lily Potter would be alive right now and she would
//be my mother!” Tears were blurring Harry’s eyes. “Only now I understand, I know
//what Mother must have felt. She __couldn’t__ step aside from the crib. She
//couldn’t! Love doesn’t walk away!”
// hedrok: "Step aside, foolish woman, if you..." 043:8120
-- І є одна річ, -- сказав Гаррі. -- Є одна річ, про яку я думаю знову і знову.
Темний Лорд дав Лілі Поттер можливість просто піти. Він сказав, що вона вільна
утекти. Він __сказав__, що її смерть перед колискою не врятує її дитину.
"`Відійди, дурна жінко, якщо в тебе є бодай крапля розуму...`"

Гаррі охопив жахливий озноб, коли його власні губи промовили ці слова, але він все одно
говорив далі:

-- І після того я не припиняв замислюватися, я не міг змусити себе про це не думати,
чи не мав Темний Лорд __рацію__? Якби тільки мати відступила. Вона спробувала проклясти
Темного Лорда, але це було самогубством, вона мала __знати__, що це було самогубство.
Вона не обирала між своїм життям і моїм, вона обирала між тим, чи житиме вона, чи ми обидва
загинемо! Якби тільки вона вчинила логічно і пішла геть, не зрозумійте неправильно, я люблю
маму, але, Лілі Поттер була б досі жива й була б моєю матірʼю! -- очі гаррі заливали сльози.
-- Тільки тепер я зрозумів, я знаю, що мати відчувала. Вона __не могла__ відступити від
колиски. Вона не могла! Любов не може просто піти!

// 14717
//It was like the old wizard had been struck, struck by a chisel that shattered
//him straight down the middle.
Старого чарівника наче вдарили, вдарили зубилом, яке розбило його прямо посередині.

// 14718
//“What have I said?” the old wizard whispered. “What have I said to you?”
-- Що я наговорив? -- прошепотів старий чарівник. -- Що я тобі наговорив?

// 14719
//“I don’t know!” shouted Harry. “I wasn’t listening either!”
-- Я не знаю! -- прокричав Гаррі. -- Я також не слухав!

// 14720
//“I - I’m sorry, Harry - I -” The old wizard pressed his hands to his face, and
//Harry saw that Albus Dumbledore was weeping. “I should not have said, such
//things to you - I should not, have resented, your innocence -”
// hedrok: "resented your innocence" - копія в 084:14860
-- Мені... Мені шкода, Гаррі... я... -- старий чарівник притиснув руки до обличчя й
Гаррі помітив, що Албус Дамблдор плакав. -- Я не мав казати тобі такі речі. Я не мав...
обурюватися... через невинність твоїх поглядів...

// 14721
//Harry stared at the wizard for another second, and then Harry turned and
//marched out of the black room, down the stairs, through the office -
Гаррі ще якусь мить дивився на старого чарівника, а тоді розвернувся й пішов геть
із чорної кімнати, униз сходами, через кабінет...

// 14722
//“I really don’t know why you’re still on his shoulder,” Harry said to Fawkes.
-- Я й справді не розумію, чому ти й досі на його плечі, -- сказав Гаррі Фоуксові.

// 14723
//- out the oaken door and into the endlessly turning spiral.
...за дубові двері і на спіраль, що нескінченно оберталася.

***

// 14724
//Harry had arrived in the Transfiguration classroom before anyone else, before
//even Professor McGonagall. There was Charms class earlier, for his year, but
//that he hadn’t even bothered trying to attend. Whether Professor McGonagall
//would make today’s class he didn’t know. There was something ominous about all
//the empty desks beside him, the absence at the board. As if he stood alone in
//Hogwarts, with all his friends departed.
Гаррі дістався кабінету трансфігурації раніше за інших, раніше навіть за професорку
Макґонегел. Перед тим у нього мав бути урок заклинань, але він навіть не намагався
його відвідати. Він не знав, чи проведе професорка Макґонеґел сьогоднішній урок. Було
щось лиховісне у всіх цих порожніх столах навколо нього, відсутності когось перед дошкою.
Наче він стоїть один у всьому Гоґвортсі, і його друзів більше немає.

// 14725
//According to the class schedule, today’s lesson was on sustained
//Transfigurations, all the rules of which Harry had learned by heart back when
//he was Transfiguring a huge rock into the small diamond that shone on his pinky
//finger. It would be a theoretical subject, rather than practical, for the rest
//of the class; which was a pity, because he could have used a dose of
//Transfiguration’s trance.
Відповідно з розкладом занять, сьогоднішній урок має бути присвячено підтримуваній
трансфігурації, що її правила Гаррі вивчив напамʼять ще коли вчився перетворювати
величезний камінь на крихітний діамант, що сяяв на його мізинці. Для решти класу це
буде більш теоретична тема, без практики. Шкода, бо він зараз з радістю отримав би
дозу трансфігураційного трансу.

// 14726
//Harry noted distantly that his hand was trembling, to the point where he had
//trouble undoing the pouch’s drawstring as he drew forth the Transfiguration
//textbook.
Гаррі помітив, що його рука тремтіла доволі сильно, так, що йому складно було розвʼязати
капшучок і дістати підручник з трансфігурації.

// 14727
//__You were monstrously unfair to Dumbledore,__ said the voice Harry had
//been calling Slytherin, only now it also seemed to be the Voice of Economic
//Sensibility and maybe also Conscience.
__Ти був страшенно несправедливий із Дамблдором__, сказав голос, який Гаррі
називав слизеринцем. Тільки тепер це був ще й голос Економічного Чуття і, можливо,
Сумління.

// 14728
//Harry’s eyes dropped down to his textbook, but the section was so familiar it
//might as well have been a blank parchment.
Гаррі опустив очі на підручник, але розділ був надто знайомим. Наче дивишся на
порожні сторінки.

// 14729
//__Dumbledore fought a war against a Dark Lord who deliberately set out to
//break him in the cruelest possible way. He had to choose between losing his war
//and his brother. Albus Dumbledore knows, he learned in the worst possible way,
//that there are limits to the value of one life; and it almost broke his sanity
//to admit it. But you, Harry Potter - __you__ already knew better.__
__Дамблдор вів війну проти Темного Лорда, що він навмисно намагався зламати його,
найжорстокішими способами. Дамблдорові довелося обирати між тим, щоб програти у війні,
і втратою брата. Албус Дамблдор знає, і він дізнався про це найстрашнішим чином, що
у ціни одного життя є межа. І він майже збожеволів, намагаючись це прийняти. Але ти,
Гаррі Поттере, __ти__ і так це знав.__

// 14730
//“Shut up,” the boy whispered to the empty Transfiguration classroom, though
//there was nobody there to hear it.
-- Замовкни, -- прошепотів хлопчик порожньому кабінетові, у якому не було нікого,
хто міг би почути.

// 14731
//__You’d already read about Philip Tetlock’s experiments on people asked
//to trade off a sacred value against a secular one, like a hospital
//administrator who has to choose between spending a million dollars on a liver
//to save a five-year-old, and spending the million dollars to buy other hospital
//equipment or pay physician salaries. And the subjects in the experiment became
//indignant and wanted to punish the hospital administrator for even thinking
//about the choice. Do you remember reading about that, Harry Potter? Do you
//remember thinking how very stupid that was, since if hospital equipment and
//doctor salaries didn’t also save lives, there would be no point in having
//hospitals or doctors? Should the hospital administrator have paid a billion
//pounds for that liver, even if it meant the hospital going bankrupt the next
//day?__
__Ти ж вже читав був про експерименти Філіпа Тетлока, у яких людям пропонували проміняти
священну цінність на мирську. Наприклад, адміністратор лікарні, якому треба було обрати,
на що витратити один мільйон доларів: на печінку, яка врятує пʼятирічну дитину, чи на
купівлю іншого медичного устаткування чи на платню лікарям. І учасники експерименту
обурювалися й вимагали покарати адміністратора лікарні за те, що він навіть замислився про
вибір. Чи ти памʼятаєш, як читав про це, Гаррі Поттере? Памʼятаєш, як вважав тих людей
дурними? Бо ж якби медичне устаткування і платня лікарям не рятували життя, то який би
був сенс у існуванні лікарень і докторів? А чи мав адміністратор заплатити мільярд фунтів
за ту печінку, навіть якщо це означатиме, що лікарня збанкрутує наступного ж дня?__

// 14732
//“Shut up!” the boy whispered.
-- Замовкни! -- прошепотів хлопець.

// 14733
//__Every time you spend money in order to save a life with some
//probability, you establish a lower bound on the monetary value of a life. Every
//time you refuse to spend money to save a life with some probability, you
//establish an upper bound on the monetary value of life. If your upper bounds
//and lower bounds are inconsistent, it means you could move money from one place
//to another, and save more lives at the same cost. So if you want to use a
//bounded amount of money to save as many lives as possible, your choices must be
//consistent with __some__ monetary value assigned to a human life; if not
//then you could reshuffle the same money and do better. How very sad, how very
//hollow the indignation, of those who refuse to say that money and life can ever
//be compared, when all they’re doing is forbidding the strategy that saves the
//most people, for the sake of pretentious moral grandstanding…__
__Щоразу, як ти витрачаєш гроші на те, щоб врятувати життя з якоюсь імовірністю,
ти встановлюєш нижню межу грошової цінності життя. Щоразу, як ти відмовляєшся
врятувати життя з якоюсь імовірністю, ти встановлюєш верхню межу грошової цінності
життя. Якщо верхня й нижня межі невідповідні, ти можеш перемістити гроші й
врятувати більше людей за ту саму ціну. Тож якщо ти хочеш витратити обмежену суму
грошей, щоб врятувати якомога більше життів, то кожен твій вибір має бути послідовний
відносно __якоїсь__ грошової цінності людського життя. Якщо ні, то можна перетасувати
ті гроші й витратити їх правильніше. Яким сумним, яким порожнім є обурення тих, хто
відмовляється зізнатися, що гроші і життя можуть порівнюватися. Бо ж все, що вони
роблять -- закривають шлях стратегії, що рятує найбільше людей, заради показного
хизування мораллю...__

// 14734
//__You __knew__ that, and you still said what you did to Dumbledore.__
__Ти __знав__ це, і все одно сказав Дамблдорові те, що сказав.__

// 14735
//__You deliberately __tried__ to hurt Dumbledore’s feelings.__
__Ти __навмисно__ намагався зробити йому боляче.__

// 14736
//He’s__ never tried to hurt __you,__ Harry Potter, not once. __
Він __ніколи не намагався зробити боляче __тобі__, Гаррі Поттере, жодного разу.__

// 14737
//Harry’s head dropped into his hands.
Гаррі опустив голову собі на руки.

// 14738
//Why had Harry said what he’d said, to a sad old ancient wizard who’d fought
//hard and endured more than anyone should ever have to endure? Even if the old
//wizard was wrong, did he deserve to be hurt for it, after all that had happened
//to him? Why was there a part of him that seemed to get angry at the old wizard
//beyond reason, lashing out at him harder than Harry had ever hit anyone,
//without thought of moderation once the rage had been raised, only to quiet as
//soon as Harry left his presence?
Чому Гаррі сказав був те, що він сказав, сумному давньому чарівникові, який тяжко
боровся і пережив більше, ніж будь-хто має колись переживати? Навіть якщо старий чарівник
помилявся, чи заслуговував він на те, щоб за це йому зробили боляче, після всього, що
з ним сталося? Чому якась частина Гаррі нерозсудливо злилася на старого чарівника,
накидаючись на нього сильніше, ніж на будь-кого іншого, без жодної думки про те, щоб
стримати себе? А тоді затихала знову, щойно Дамблдор припиняв бути поряд?

// 14739
//__Is it because you know Dumbledore won’t fight back? That no matter what
//you say to him, however unfair, he’ll never use his own power against you,
//he’ll never treat you the way you treat him? Is this the way you treat people
//when you know they won’t hit back? James Potter’s bullying genes, manifesting
//at last?__
__Чи це тому, що ти знаєш, що Дамблдор не завдасть удару у відповідь? Що, незалежно
від того, що ти йому скажеш, хай як це буде несправедливо, він ніколи не використає
свої сили проти тебе, він ніколи не ставитиметься до тебе так, як ти ставишся до нього?
Оце так ти ставишся до людей, коли знаєш, що вони не завдадуть болю у відповідь? Проявляються
цькувальницькі гени Джеймса Поттера?__

// 14740
//Harry closed his eyes.
Гаррі заплющив очі.

// 14741
//Like the Sorting Hat speaking inside his head -
Наче Сортувальний Капелюх розмовляв у його голові...

// 14742
//__What is the real reason for your anger?__
__Чому ти насправді злишся?__

// 14743
//__What do you fear?__
__Чого ти боїшся?__

// 14744
//A whirlwind of images seemed to flash through Harry’s mind, then, the past
//Dumbledore weeping into his hands; the present form of the old wizard, standing
//tall and terrible; a vision of Hermione screaming in her chains, in the metal
//chair, as Harry abandoned her to the Dementors; and an imagination of a woman
//with long white hair (had she looked like her husband?) falling amid the flames
//of her bedroom, as a wand was held upon her and orange light reflected from
//half-moon glasses.
Вихор зображень промайнув розумом Гаррі. Дамблдор з минулого, що плакав, закривши
обличчя руками. Теперішній старий чарівник, високий і жахаючий. Видіння Герміони,
що кричить у ланцюгах, на металевому стільці, коли Гаррі залишив її дементорам. І
уявлена візія жінки з довгим білим волоссям (чи була вона схожа на свого чоловіка?),
спалена у вогні посеред власної спальні, на неї націлена паличка, і помаранчеве
світло віддзеркалюється у серпастих окулярах.

// 14745
//Albus Dumbledore had seemed to think that Harry would be better at that sort of
//thing than him.
Видавалося, Албус Дамблдор вважав, що Гаррі має бути ліпшим за нього у таких
справах.

// 14746
//And Harry knew that he probably would be. He knew the math, after all.
І Гаррі знав, що, скоріше за все, так і було. Зрештою, він знав математику.

// 14747
//But it was understood, somehow it was understood, that utilitarian ethicists
//didn’t __actually__ rob banks so they could give the money to the poor.
//The end result of throwing away all ethical constraint wouldn’t
//__actually__ be sunshine and roses and happiness for all. The prescription
//of consequentialism was to take the action that led to the best net
//consequences, not actions that had one positive consequence and wrecked
//everything else along the way. Expected utility maximizers were allowed to take
//common sense into account, when they were calculating their expectations.
Але було зрозуміло, якимось чином було зрозуміло, що прибічники утилітарної етики __не
грабували__ банки, щоб роздати гроші бідним. Кінцевим результатом відкидання
усіх етичних норм __не буде__ світ, сповнений сонечка, квіточок і щастя для всіх.
Ідеєю консеквенціалізму було діяти таким чином, щоб це призвело до найкращого
остаточного результату. А не так, щоб це мало один позитивний ефект і заразом зруйнувало
все інше. Максимізатори очікуваної корисності також мають
керуватися здоровим ґлуздом при розрахунках своїх очікувань.

// 14748
//Somehow Harry had understood that, even before anyone else had warned him he’d
//understood. Before he’d read about Vladimir Lenin or the history of the French
//Revolution, he’d known. It might have been his earliest science fiction books
//warning him about people with good intentions, or maybe Harry had just seen the
//logic for himself. Somehow he’d known from the very beginning, that if he
//stepped outside his ethics __whenever there was a reason,__ the end result
//wouldn’t be good.
Якимось чином Гаррі зрозумів це ще до того, як хтось інший попередив його, він
розумів це. Ще до того, як він прочитав був про Володимира Леніна чи історію французької
революції, він вже знав. Можливо про людей з добрими намірами його попередили його перші
науково-фантастичні книжки. А можливо Гаррі сам просто бачив логіку. Якимось чином він
від початку знав, що як він зробить крок за межі своєї етики, __якою б не була причина__,
добре це не закінчиться.

// 14749
//A final image came to him, then: Lily Potter standing in front of her baby’s
//crib and measuring the intervals between outcomes: the final outcome if she
//stayed and tried to curse her enemy (dead Lily, dead Harry), the final outcome
//if she walked away (live Lily, dead Harry), weighing the expected utilities,
//and making the only sensible choice.
А тоді він побачив останнє зображення. Лілі Поттер стояла перед колискою своєї дитини
і зважувала різницю між можливими результатами: якщо вона залишиться й спробує проклясти
свого ворога (мертва Лілі, мертвий Гаррі), якщо вона піде геть (жива Лілі, мертвий Гаррі),
зважувала очікувану корисність і робила єдиний розсудливий вибір.

// 14750
//She would’ve been Harry’s mother if she had.
Вона могла б бути матірʼю Гаррі, якби вона його зробила.

// 14751
//“But human beings can’t live like that,” the boy’s lips whispered to the empty
//classroom. “Human beings can’t live like that.”
-- Але людські істоти не можуть так жити, -- прошепотів хлопець. -- Людські істоти
не можуть так жити.
