// 17687
//== Tests
== Розділ 103. Іспит

// 17688
//__June 4th, 1992.__
__4 липня 1992го року.__

// 17689
//Daphne Greengrass was in the Slytherin common room, writing a letter to her
//Lady Mother (who was surprisingly intransigent about power-sharing, despite not
//even __being__ in Hogwarts to exercise control) when she saw Draco Malfoy
//stagger in through the portrait door carrying what must have been a dozen
//books, Vincent and Gregory behind him each carrying a dozen more. The Auror
//who’d accompanied Malfoy stuck his head in briefly, then withdrew to
//who-knew-where.
Дафна Ґрінґрас сиділа у вітальні Слизерину, пишучи листа своїй леді матері
(яка була на дивовижу безкомпромісною у питаннях передачі влади, попри те, що її
навіть __не було__ у Гоґвортсі, щоб керувати напряму),
коли вона побачила, як Драко Мелфой пройшов крізь двері-портрет, тримаючи десь
з десяток книжок, Вінсент та Ґреґорі позаду нього, кожен несе ще з десяток.
Аврор, що супроводжував Мелфоя, на мить просунув усередину голову, а потім
повернувся хто-знає-куди.

// 17690
//Draco looked around, then seemed to be struck by a bright idea as he staggered
//toward her, Vincent and Gregory following after.
Драко роззирнувся, здалося, що його осяяла якась чудова думка, і він закрокував
у її бік. Вінсент та Ґреґорі йшли слідом.

// 17691
//“Can you help me read these?” said Draco, sounding slightly out of breath as he
//approached.
-- Допоможеш мені перечитати це? -- злегка захекавшись вимовив Драко, коли
підійшов.

// 17692
//“What.” Lessons were over__,__ only the exams were left now, and since
//when did __Malfoys__ ask __Greengrasses__ for help with their
//homework?
-- Що, -- уроків вже не мало бути, залишилися лише екзамени, та й звідколи це
__Мелфої__ просять __Ґрінґрасів__ про допомогу з домашнім завданням?

// 17693
//“These,” Draco Malfoy said importantly, “are all the library books Miss Granger
//borrowed between April 1st and April 16th. I thought I’d go through them in
//case there are any Clues there, only then I thought, maybe __you__ should
//help because you knew Miss Granger better.”
-- Це, -- дуже поважно почав Драко Мелфой, -- всі книги з бібліотеки, що міс
Ґрейнджер брала у період з 1-го по 16-те квітня. Я думав переглянути їх на
випадок, якщо там є якісь підказки, але потім подумав, що ліпше тобі це
зробити, бо ти знала міс Ґрейнджер краще.

// 17694
//Daphne stared at the books. “The General read all that in __two weeks?__”
//A twinge of pain went through her heart, but she suppressed it.
Дафна витріщилася на книжки.

-- Генерал перечитала все це за __два тижні__? -- щось закололо у її серці, але
вона це придушила.

// 17695
//“Well, I don’t know if Miss Granger finished them all,” Draco said. He held up
//a cautioning finger. “In fact, we don’t know if she read any of them, or if she
//really borrowed them, I mean, all we’ve __observed__ is that the library
//ledger says she checked them out -”
-- Ну, я не знаю, чи міс Ґрейнджер закінчила їх усі, -- прокоментував Драко.
Він застережливо підняв догори вказівного пальця. -- Насправді, ми точно
не знаємо, чи вона хоч одну з них читала або ж чи взагалі вона їх брала у
бібліотеці. Тобто, єдине, що ми __спостерігали__, це те, що записи
у бібліотечному журналі стверджують, що вона їх брала...

// 17696
//Daphne suppressed a groan. Malfoy had been talking like this for weeks. There
//were some people who clearly were not meant to be involved with mysterious
//murders because it did __strange things to their minds__. “Mr. Malfoy, I
//couldn’t read all these if I spent my whole summer doing nothing else.”
Дафна стримала стогін. Мелфой розмовляв так уже декілька тижнів. Існують люди,
яким, вочевидь, не варто бути свідками загадкових убивств, бо це __дивним
чином змінює їхній розум__.

-- Містере Мелфой, я б не змогла перечитати все це, навіть якби я присвятила
усе літо цьому і нічому іншому.

// 17697
//“Then just skim through them, please?” Draco said. “Especially if there’s, you
//know, mysterious words scribbled in her handwriting, or a bookmark left inside,
//or -”
-- Тоді може хоч прогортаєш їх, будь ласка? -- попросив Драко. -- На випадок,
якщо там є, ну, знаєш, якісь дивні слова, написані її почерком, чи залишена
всередині закладка, чи...

// 17698
//“I’ve seen those plays too, Mr. Malfoy.” Daphne rolled her eyes. “Don’t we have
//__Aurors__ now for -”
-- Я теж бачила ці вистави, містере Мелфой, -- Дафна закотила очі. -- Хіба тепер
це мають робити не __аврори__...

// 17699
//“__We’re doomed!__” shrieked Millicent Bulstrode, as she burst up from the
//lower chambers into the Slytherin common room.
-- __Ми приречені!__ -- заверещала Мілісент Булстроуд, влітаючи з
нижчих рівнів до вітальні Слизерину.

// 17700
//People paused to look at her.
Усі зупинилися, щоб подивитися на неї.

// 17701
//“__It’s Professor Quirrell!__”
-- __Це професор Квірел!__

// 17702
//A sudden air of attentiveness, as of long-standing disputes about to be
//settled. “Well, finally,” someone said, as Millicent tried to catch her breath.
//“He’s only got, what, ten days left to go bad?”
Усю увагу було прикуто до неї, бо давні суперечки от-от буде вирішено.

-- Ну, нарешті, -- хтось вимовив, поки Мілісент переводила подих. -- У нього
залишилося скільки, днів десять, щоб стати поганцем?

// 17703
//“Eleven days,” said the seventh-year who was running the betting pool.
-- Одинадцять днів, -- уточнив семикласник, який збирав ставки на це.

// 17704
//“__He’s gotten a little better suddenly and he’s going to summon the
//first-years for our Defense final! By surprise! In fifty minutes!__”
-- __Йому раптом стало трохи краще, і він збирає всіх першокласників, щоб
скласти річний іспит із захисту! Раптово! Через пʼятдесят хвилин!__

// 17705
//“A Defense final?” Pansy said blankly. “But Professor Quirrell doesn’t give
//exams.”
-- Річний іспит із захисту? -- байдуже перепитала Пенсі. -- Але професор
Квірел не проводить іспитів.

// 17706
//“The __Ministry__ Defense final!” shrieked Millicent.
-- __Міністерський__ річний іспит із захисту! -- заверещала Мілісент.

// 17707
//“But Professor Quirrell doesn’t teach anything from the Ministry curriculum,”
//objected Pansy.
-- Але ж професор Квірел не викладав нічого з міністерської програми, --
заперечила Пенсі.

// 17708
//Daphne was already fleeing to her room, racing for the first-year Defense
//textbook that she hadn’t touched since September and screaming curses inside
//her mind.
Дафна вже шугонула до кімнати -- вона мчала за підручником із захисту,
якого вона не торкалася з вересня, подумки викрикуючи прокляття.

***

// 17709
//One desk back of her, someone was crying, their soft sobs providing a
//background chant of despair for the classroom. Daphne looked back, expecting to
//see a Hufflepuff and hoping it wasn’t Hannah, and was surprised at first
//(though not on further reflection) to see it was a Ravenclaw.
За партою позаду неї хтось плакав, майстерно підкреслюючи атмосферу
розпачу в класі. Дафна озирнулася, очікуючи побачити когось з Гафелпафу і
сподіваючись, що це не Анна, і була спочатку (але не коли
розмірковувала над цим пізніше) здивована побачити рейвенкловця.

// 17710
//Before them were set the exam parchments, turned over, waiting for the bell.
Перед ними лежали перевернуті екзаменаційні пергаменти, очікуючи дзвінка.

// 17711
//Fifty minutes hadn’t been nearly enough preparation time, but it was something,
//and Daphne was now feeling ashamed that she hadn’t thought to send messengers
//to warn the Hufflepuff, Ravenclaw, and Gryffindor Houses. They’d started giving
//House Points again just three days ago, at the beginning of June, but the
//Auxiliary Protective Special Committee still ought to promote House unity.
Пʼятдесят хвилин було зовсім недостатньо для підготовки, але це вже було щось,
і Дафна наразі відчувала провину, що вона не здогадалася відправити звістку,
щоб попередити гуртожитки Гафелпаф, Рейвенклов та Ґрифіндор. Вони знову почали
давати очки гуртожитків три дні тому, з початком липня, але спеціальний
додатковий комітет захисту досі мав пропагувати єдність гуртожитків.

// 17712
//Another Ravenclaw, sitting four desks to her left, also started to cry. That
//was Katherine Tung of Dragon Army, if she recalled correctly, whom she’d once
//seen take on three Sunshine Soldiers simultaneously without a flinch.
Інший рейвенкловець, сидячи на чотири парти від неї зліва, теж почав плакати.
Це була Катерина Тан з Армії Драконів, що, якщо вона правильно памʼятала,
одного разу знешкодила трьох солдатів Сонечка, не повівши бровою.

// 17713
//Daphne had calmed down after the first couple of minutes of frantic reading. It
//was just a test, not a __murder__ or anything; and if almost all the
//first-year students turned in mostly blank parchments then it stood to reason
//that nobody would be shamed. But Daphne could understand, if not exactly
//sympathize, that Ravenclaws and Hufflepuffs might not see it that way.
Дафна заспокоїлася після декількох перших хвилин читання. Це був всього лиш
іспит, а не __вбивство__ абощо. І якщо майже всі першокласники повернуть
майже порожні пергаменти, то не буде чого соромитися. Але Дафна добре розуміла,
хоч і не зовсім співчувала, що рейвенкловці та гафелпафці могли бути
геть іншої думки з цього приводу.

// 17714
//“He’s evil,” another Ravenclaw witch said in a shaking voice. “One hundred
//percent pure Dark Wizard to the bone. The Dark Lord Grindelwald wouldn’t do
//this, not to children, he’s worse than You-Know-Who.”
-- Він лихий, -- вимовив інший рейвенкловець з тремтінням у голосі. --
Стовідсотковий, відбірний чорний чаклун до самих кісток. Темний лорд Ґріндельвальд
не вчинив би цього, тільки не з дітьми. Він гірший за Відомо-Кого.

// 17715
//Daphne looked reflexively at where Professor Quirrell was sitting, slumped to
//one side but his eyes alert; and she thought she saw the Defense Professor
//smile for one tiny instant. No, that had to be her imagination, there was no
//way the Defense Professor could have heard that.
Дафна рефлекторно подивилася у бік, де сидів професор Квірел, завалившись на
один бік, але очі його були насторожі. Їй здалося, що професор із захисту всміхнувся
на якусь коротку мить. Ні, це напевно її уява -- було неможливо, щоб професор
із захисту розчув це.

// 17716
//The bell rang.
Зазвучав дзвінок.

// 17717
//Daphne flipped the parchment over.
Дафна перевернула пергамент.

// 17718
//The top was stamped with the seals for the Ministry, the Hogwarts Board of
//Governors, and the Department of Magical Education, and runes to detect
//cheating. Below that was a line for her to write her name, and a list of exam
//rules with a picture of Lindsay Gagnon, the Director of the Department of
//Magical Education, shaking an admonishing finger at everyone.
Шапку було проштамповано міністерською печаткою, печаткою ради опікунів
Гоґвортсу, печаткою відділу магічної освіти та рунами для визначення
списування. Нижче було місце, щоб написати її імʼя, та список правил поведінки
на екзамені з зображенням Ліндсі Ґаґнон, директорки відділу магічної освіти,
що застережливо хитала пальцем.

// 17719
//Halfway down the page was the first exam question.
Перше екзаменаційне питання було на пів сторінки нижче.

// 17720
//It was, __Why is it important for children to stay away from strange
//creatures?__
А саме: "`Чому дітям важливо триматися подалі від дивних істот?`"

// 17721
//There was a stunned pause.
Запала приголомшена тиша.

// 17722
//One student began laughing, she thought it was from the Gryffindor section of
//the class. Professor Quirrell made no motion to censor it, and the laughter
//spread.
Один учень почав сміятися. Вона подумала, що це з ґрифіндорської частини
класу. Професор Квірел ніяк не відреагував, і сміх поширився.

// 17723
//Nobody spoke aloud, but the students looked around at each other, exchanging
//glances as the laughter died down, and then as if by some unspoken agreement
//they all looked at Professor Quirrell, who was smiling down at them
//benevolently.
Ніхто не говорив уголос, але учні дивилися одне на одного, переглядаючись,
коли сміх ущух, і потім, наче домовившись, подивилися на професора Квірела, що
доброзичливо посміхався до них.

// 17724
//Daphne bent over her exam, wearing a defiant evil smile that would have done
//proud to either Godric Gryffindor or Grindelwald; and she wrote down,
//__Because my Stunning Hex, my Most Ancient Blade, and my Patronus Charm
//won’t work against everything.__
Дафна нахилилася над завданням із зухвалою злою посмішкою, що була би гідною
Ґодрика Ґрифіндора чи Ґріндельвальда, і написала: "`Бо мій паралітичний проклін,
найдавніше лезо та патронус не спрацюють проти усього`".

***

// 17725
//Harry Potter turned over the last page of his Defense exam.
Гаррі Поттер перегорнув останню сторінку екзаменаційного завдання із
захисту.

// 17726
//Even Harry had needed to quash a small bit of nervousness, some tiny remnant of
//his childhood, upon reading the first real question (‘How can you make a
//Shrieking Eel be silent?’). Professor Quirrell’s lessons had spent roughly zero
//time on the surprising yet useless trivia that some idiot had imagined a
//‘Defense class’ should look like. In principle, Harry could have used his
//Time-Turner to read through the first-year Defense book after being notified of
//the surprise exam; but that might have unfairly skewed the grading curve for
//others. After staring at the question for a couple of seconds, Harry had
//written down ‘Quieting Charm’, and included the casting directions in case the
//Ministry grader didn’t believe that Harry knew it.
// kabakchey: Shrieking Eel -> Посилання на фільм Princess Bride. В українському
//            дубляжі від "Нового" каналу їх переклали просто як "голодних вугрів".
//            Момент згадки у фільмі десь між 00:11:00 і 00:12:30.
Навіть Гаррі довелося придушити невеличке хвилювання, ледь помітні залишки
дитинства, коли він прочитав перше справжнє питання ("`Як примусити верескливого
вугра замовкнути?`"). Уроки професора Квірела включали приблизно нуль годин
вивчення подібного цікавого непотребу, що в уяві якогось ідіота має
складати основу уроків із захисту. Напевно Гаррі міг би скористатися
часоворотом, щоб перечитати весь підручник із захисту для першокласників, щойно
він дізнався про несподіваний іспит, але це б несправедливо перекосило
криву оцінок для інших. Декілька секунд Гаррі витріщався на питання і потім
написав "`чари тиші`" та додав схему накладання чарів на випадок, якщо
міністерський оцінювач не повірить, що Гаррі знає їх.

// 17727
//Once Harry had decided to just answer all the questions __correctly,__ the
//exam had gone by very quickly. The most realistic answer to more than half the
//questions was ‘Stunning Hex’, and many of the other questions had optimal
//solutions along the lines of ‘Turn around and walk in the opposite direction’
//or ‘Throw away the cheese and buy a new pair of shoes.’
Щойно Гаррі вирішив відповісти на всі питання __правильно__, іспит
пролетів дуже швидко. Найбільш реалістичною відповіддю на понад половину
питань був "`паралітичний проклін`", а оптимальним рішенням для багатьох інших
питань було щось на кшталт "`розвернутися та піти в інший бік`" чи "`викинути
сир та придбати нову пару черевиків`".

// 17728
//The last question on the test was “What would you do if you suspected there
//might be a Bogeysnake underneath your bed?” The Ministry-approved answer, Harry
//could in fact recall from his read-through of the textbook at the start of the
//year, was __Tell your parents.__ The problem with this had occurred to
//Harry right away, which was why Harry had remembered it.
Останнім запитанням було "`Що потрібно зробити, якщо ви підозрюєте, що під
вашим ліжком може бути жахозмій?`". Схваленою міністерством відповіддю, що
Гаррі міг пригадати з перечитування підручнику на початку року, було "`сказати
батькам`". Гаррі одразу зрозумів проблему з таким рішенням, тому він і
запамʼятав це.

// 17729
//After some pondering, Harry wrote down:
Після коротких роздумів, Гаррі написав:

// 17730
//__Dear Ministry grader: I’m afraid the real answer to that is a secret,
//but rest assured that a Bogeysnake would present no more trouble to me than a
//mountain troll, a Dementor, or You-Know-Who. Please inform your superiors that
//I find your standard answer prejudicial to Muggleborns, and that I expect this
//failing will be corrected at once without any need for my direct intervention.__
__Шановний міністерський оцінювачу, боюся, що справжня відповідь на це питання
є секретом, але можу вас запевнити, що жахозмій зможе спричинити мені проблем
не більше, ніж гірський троль, дементор чи Відомо-Хто. Будь ласка, повідомте
ваше керівництво, що ваша стандартна відповідь є упередженою щодо маґлородців,
і я очікую, що цю помилку буде виправлено без потреби мого особистого
втручання.__

// 17731
//__Sincerely, the Boy-Who-Lived.__
__Щиро, Хлопчик-Що-Вижив.__

// 17732
//Harry signed the last parchment with a broad flourish, turned it over into his
//stack, put down his quill, and sat up.
Гаррі підписав пергамент розмашистим розчерком, помістив його до стопки з
готовими відповідями, поклав перо та сів струнко.

// 17733
//Looking around, Harry saw that Professor Quirrell seemed to be looking in his
//rough direction, though the Defense Professor’s head had nodded to one side.
//The other students were still writing. Some of them were silently crying, but
//they were still writing. __Continuing to fight__ was also a lesson
//Professor Quirrell had taught.
Роззирнувшись, Гаррі побачив, що професор Квірел дивиться десь у його напрямку,
хоча голова професора із захисту й була нахилена вбік. Інші учні досі писали.
Деякі тихенько плакали, але писали. __Боротися до кінця__ теж було уроком,
якого навчав професор Квірел.

// 17734
//Interminably later, the official exam time was up. A seventh-year student went
//from desk to desk, collecting the exams in Professor Quirrell’s place.
Вічність по тому офіційний час іспиту нарешті закінчився. Семикласниця
пройшлася від парти до парти, збираючи екзаменаційні роботи замість професора
Квірела.

// 17735
//The last exam parchment was collected, and Professor Quirrell sat up straight.
Коли останній пергамент було забрано, професор Квірел сів рівно.

// 17736
//“My young students,” he said softly. The seventh-year student had her wand
//trained on the Defense Professor’s mouth, so that they all heard his voice
//seeming to come from right beside them. “I know… that probably seemed very
//fearsome to some of you… it is a different kind of fear from facing the enemy’s
//wand… you must conquer it separately. So I… shall tell you this now. It is the
//custom of Hogwarts… that grades are given in the second week of June. But for
//my case… they can make an exception, I think.” The Defense Professor smiled his
//familiar dry smile, tinged now as though by a suppressed grimace. “I know you
//are worried… that you were not prepared for this exam… that my lessons have not
//covered this material… and I quite forgot to mention… that it was approaching…
//though you should have known… it would come in time. But I have just now
//magically checked… the answers you have given on that… terribly, terribly
//important final exam… though of course only the Ministry grade is official… and
//assigned your full-year grades taking the results into account… and magically
//written your full grades down on these parchments,” Professor Quirrell tapped a
//stack of parchments on the side of his desk, “which will now be handed out… an
//incredible spell… is it not?”
-- Мої юні учні, -- почав він мʼяко. Семикласниця направляла паличку на рот
професора із захисту так, що всі чули його голос, наче він стояв поряд. --
Я знаю... що ви натерпілися жаху... Цей вид страху відрізняється від зустрічі
з паличкою ворога... його ви маєте долати по-іншому. Тому я... скажу вам
наступне. За звичаєм Гоґвортсу... оцінки повідомляють протягом другого тижня
липня. Але для мого випадку... вони, гадаю, можуть зробити виняток, --
професор із захисту посміхнувся звичайною сухою посмішкою, з відтінком
прихованої гримаси. -- Я знаю, що ви хвилюєтеся... через те, що не були готові
до цього екзамену... що мої уроки не включали цього матеріалу... і я зовсім
забув повідомити... що іспит наближається... щоб ви знали... що він відбудеться
у свій час. Але я щойно магічно перевірив... ваші відповіді до цього... дуже,
дуже важливого заключного екзамену... хоча, звичайно, лише оцінка міністерства
є офіційною... і визначив ваші річні оцінки з урахуванням результатів... і
магічно записав їх на цих пергаментах, -- професор Квірел постукав по стопці
пергаментів на краю його стола, -- які зараз буде роздано... чудове закляття...
чи не так?

// 17737
//A few students on the Ravenclaw side were looking indignant, but for the most
//part the students just looked relieved, and some Slytherins were chuckling.
//Harry would have laughed too, if not for the pain of watching Professor
//Quirrell gasp out the words.
Деякі учні в рейвенкловській частині класу видавалися обуреними, але більшість
відчула полегшення. Лише деякі слизеринці гигикали. Гаррі б теж посміявся,
якби не біль від спостерігання, з яким зусиллям професор Квірел шепотів слова.

// 17738
//The seventh-year student standing beside Professor Quirrell pointed her wand
//and spoke an incantation in magical pseudo-Latin. The parchments rose up and
//started to drift through the air, separating in mid-flow to drift toward each
//student.
Семикласниця поряд з професором Квірелом направила паличку та промовила
заклинання на магічний псевдо-латині. Пергаменти злетіли та задрейфували у
повітрі, розділяючись і звертаючи у напрямку кожного учня.

// 17739
//Harry waited until his parchment had arrived on his desk, and then unfolded it.
Гаррі дочекався, поки його пергамент долетить до його парти, а потім
розгорнув його.

// 17740
//The parchment said EE+, which stood for Exceeds Expectations. It was the
//second-highest grade letter, the highest being Outstanding.
//hedrok: переклад оцінок - Абабагаламага. Це важливо, бо найнижчою має бути
//        "Троль".
На пергаменті було написано "`Д+`", що означало "`Добре`". Це була
друга найвища оцінка, найвищою була "`Відмінно`".

// 17741
//In another world, a distant vanished world, a little boy named Harry would have
//shouted with indignation about receiving only the second-highest grade. This
//Harry sat quietly and thought. Professor Quirrell was making some point, and it
//wasn’t as though the exact grade letter mattered in any other way. Was
//Professor Quirrell saying that Harry had done relatively well, but not lived up
//to his full potential? Or was the grade meant to be read literally, that Harry
//had in fact exceeded the Defense Professor’s expectations?
// hedrok: Квірелморт точно не мав на увазі, що Гаррі перевершив його очікувань.
//         Фактично, як бачимо з 105:18094, насправді він сподівався більшого.
//         Не хотілося відходити від перекладу оцінок Абабагаламаги, тож
//         викрутився так. Мені здається, це еквівалентно
//         нереально-оптимістично-мрійлива версія.
У іншому світі, у далекому, зниклому світі, маленький хлопчик на імʼя Гаррі
обурився би отримавши лише другу найвищу оцінку. А цей Гаррі сидів тихо і думав.
Професор Квірел намагається щось цим сказати, бо ця точна оцінка ні на що інше
не впливала. Чи хоче професор Квірел сказати, що Гаррі упорався досить добре,
але так і не розкрив увесь свій потенціал? Чи варто читати оцінку як "`добро`"
-- і Гаррі насправді впорався залишитися на стороні добра з точки зору професора
Квірела?

// 17742
//“All of you… pass,” Professor Quirrell said, as the students all looked at
//their final grades, as sighs of relief rose from desks and Lavender Brown
//raised her parchment in a clenched fist held high with triumph. “Every student
//in first-year Battle Magic has passed… except for one.”
-- Усі ви... пройшли, -- вимовив професор Квірел, коли всі учні побачили
річні оцінки, коли прозвучали полегшені зітхання, і Лаванда Браун
тріумфально здійняла руку з затисненим у кулаці пергаментом. -- Усі учні
пройшли іспит першого року з бойової магії... усі, крім одного...

// 17743
//A number of students looked up in sudden terror.
Декілька учнів злякано підвели погляд.

// 17744
//Harry sat there silently. He had seen the point immediately, and even if it was
//a wrong point, he knew Professor Quirrell would never, ever be talked out of
//making it.
Гаррі сидів тихо. Він миттєво зрозумів, про що йдеться, і навіть, якщо це й
було неправильним, він знав, що не зміг би відмовити професора Квірела сказати
це.

// 17745
//“All of you in this room… have received grades of at least Acceptable. Neville
//Longbottom… who took this test in the Longbottom home… received a grade of
//Outstanding. But the other student who is not here… has had a Dreadful grade
//entered on her record… for failing the only important test… that was given her
//this year. I would have marked her even lower… but that would have been in poor
//taste.”
-- Усі в цьому класі... отримали оцінки не нижче "`Задовільно`". Невіл
Лонґботом... складав іспит у маєтку Лонґботомів... і отримав оцінку
"`Відмінно`". Але інша учениця, якої зараз тут немає... отримала оцінку
"`Жахливо`"... за те, що завалила єдиний найважливіший іспит... який
звалився на неї цього року. Я би дав оцінку навіть нижчу за цю... але це був би
несмак.

// 17746
//The room was very quiet, though a number of students were staring angrily at
//the Professor.
У класі панувала тиша, хоча деякі учні сердито дивилися на професора.

// 17747
//“You may think that a grade of Dreadful… is not fair. That Miss Granger was
//faced with a test… for which her lessons… had not prepared her. That she was
//not told… that the exam was coming on that day.”
-- Ви можете подумати, що оцінка "`Жахливо`"... є несправедливою. Що
міс Ґрейнджер отримала іспит... до якого її заняття... не могли підготувати.
Що їй не повідомили... що іспит станеться того дня.

// 17748
//The Defense Professor drew in a shaking breath.
Професор із захисту важко вдихнув.

// 17749
//“Such is realism,” said Professor Quirrell. “The only important test… may come
//at any time… be better prepared for it… than she was. As for the rest of you…
//those who have received Exceeds Expectations or above… have received my letters
//of recommendation… to certain organizations beyond Britain’s shores… where your
//training might be completed. They will contact you… when you are old enough… if
//you still appear worthy… and if you have not failed an important test. And
//remember… from this day… you must train yourselves… you cannot rely… on future
//Defense professors. Your first year of Battle Magic is over… you are
//dismissed.”
-- Але таким є життя, -- провадив далі професор Квірел. -- Єдиний важливий іспит...
може статися будь-якої миті... будьте краще підготовлені... ніж була вона. А
решта вас... хто має "`Добре`" та вище... отримали мої
рекомендаційні листи... для певних організацій поза берегами Британії... де вашу
підготовку може бути завершено. Вони звʼяжуться з вами... коли ви будете
достатньо дорослі... якщо ви ще будете гідні... і якщо ви не завалите
важливий іспит. І памʼятайте... з цього дня... ви маєте тренуватися... ви не
можете покладатися... на майбутніх професорів із захисту. Ваш перший рік
навчання бойовій магії завершено... можете розійтися.

// 17750
//Professor Quirrell sat back with his eyes closed, seeming to ignore the excited
//babble that broke out around him.
Професор Квірел відкинувся назад із заплющеними очима, наче й не помічаючи
жвавої балаканини довкола.

// 17751
//In time most of the students had departed, and one remained, staying a
//prescribed distance from the Defense Professor.
З часом більшість учнів розійшлися, і залишився лише один, тримаючись на
певній відстані від професора із захисту.

// 17752
//The Defense Professor opened his eyes.
Професор із захисту розплющив очі.

// 17753
//Harry raised the parchment with its __EE+,__ still silent.
Гаррі підняв догори пергамент з "`Д+`", досі мовчки.

// 17754
//The Defense Professor smiled, and it went all the way to those tired eyes.
Посмішка на обличчі професора із захисту розтягнулася до самих втомлених очей.

// 17755
//“It is the same grade… that I received in my own first year.”
-- Це та ж оцінка... що я отримав у свій перший рік.

// 17756
//“Th, th, th,” Harry couldn’t make the words __thank you__ come out, they
//were stuck in his suddenly closed throat, the Defense Professor tilting his
//head and giving him an inquiring stare, so Harry just bowed jerkily and then
//left the room.
-- Д-д-д, -- Гаррі ніяк не міг вичавити з себе слово __дякую__, воно раптово
стало кілком у його горлі. Професор із захисту нахилив голову і запитально
подивився на нього так, що Гаррі різко кивнув і залишив клас.
