// 19023
//== Final Exam
== Розділ 113. Річний іспит

// 19024
//The gibbous moon riding higher in the cloudless sky, the stars and wash of the
//Milky Way visible in all their majesty within the darkness: All these
//illuminated thirty-seven skull masks gleaming above black robes, and the
//darker-clad Lord Voldemort, whose eyes shone red.
Опуклий місяць здіймався все вище в безхмарному небі, зірки та річку Чумацького
Шляху було видно в повноті їхньої краси посеред темряви. І все це освітлювало
тридцять сім масок-черепів над чорними мантіями, і одягненого в темне лорда
Волдеморта, чиї очі горіли червоним.

// 19025
//“Welcome, my Death Eaters,” spoke Lord Voldemort’s voice, smooth and high and
//terrible. “No, do not look at me, you fools! Eyes upon the Potter child! Ten
//years, it has been, ten years since we last met. Yet you answer my call as
//though it were yesterday…” The Dark Lord Voldemort came near to one hooded
//figure, tapped fingers upon the mask. “In a hastily Transfigured
//__mockery__ of a Death Eater’s true armor, with a childish Charm to
//distort your voice. Explain, Mr. Honor.”
// hedrok: "Ten years ... it were yesterday" - канон (тільки в каноні
//         тринадцять)
-- Вітаю, мої смертежери, -- промовив голос лорда Волдеморта, плавний, високий
та жахливий. -- Ні, не дивіться на мене, ідіоти! Не відводьте очей від малого
Поттера! Десять років... десять років минуло з нашої попередньої зустрічі. Та ви
відгукнулися на мій поклик, ніби це було вчора... -- Темний Лорд Волдеморт
підійшов до однієї з фігур у мантіях та постукав пальцями по масці. -- У
нашвидкуруч трансфігурованій __пародії__ на справжні обладунки смертежера, із
дитячими чарами для спотворення голосу. Розʼясніть, містере Гідність.

// 19026
//“Our old masks and robes…” said the robe whose mask the Dark Lord had tapped.
//Even through the distorting timbre of the mask, the fear in it was audible.
//“We… we were not fighting in them, Master, with you gone… so I did not maintain
//their enchantments… and then you summoned me to appear here, masked, and I… I
//always held faith in you, Master, but I did not know you would return this very
//day… I am truly sorry to have displeased you…”
-- Наші старі маски та мантії, -- сказала мантія, по масці якої постукав Темний
Лорд. Хоч голос і був спотворений, та страх у ньому було добре чути. -- Ми... ми
не билися в них, володарю, коли ви зникли... тож я не підтримував їхні чари...
а тоді ви покликали мене, щоб я зʼявився тут, в масці, і я... я завжди вірив у
вас, володарю, та я не знав, що ви повернетеся саме сьогодні... мені справді
шкода, що я засмутив вас...

// 19027
//“Enough.” The Dark Lord moved on to stand behind another figure, that seemed to
//tremble, though it kept its mask facing the Boy-Who-Lived, and its wand held
//level. “I might think more kindly of such neglect, if you had pursued my agenda
//by other means… Mr. Counsel. Yet I return to find - what? A country conquered
//in my name?” The high voice climbed higher. “No! I find you playing ordinary
//politics in the Wizengamot! I find your brothers still abandoned in Azkaban! It
//is a disappointment to me… I confess myself disappointed… You thought I was
//gone, the Dark Mark dead, and you forsook my purpose. Is that right, Mr.
//Counsel?”
-- Годі, -- Темний Лорд підійшов до наступної фігури, що видавалося, тремтіла,
хоча маска була направлена на Хлопчика-Що-Вижив, паличка трималася рівно. -- Я
може й легше поставився б до такої недбалості, якби ви просували мою мету іншими
засобами... містере Нарад. І втім я бачу... що? Завойовану на мою честь країну?
-- високий голос ще підвищився. -- Ні! Я бачу, що ви граєтеся у звичайну
політику в Чарверсуді! Я бачу, що ваших братів так і полишили в Азкабані! Це
розчарування... мушу визнати, я розчарований... Ви гадали, що зі мною покінчено,
що Чорна мітка зникла, і ви покинули нашу мету. Чи це так, містере Нарад?

// 19028
//“No, Master!” cried that masked figure. “We knew you would return - but, but we
//could not fight Dumbledore without you -”
-- Ні, володарю! -- закричав чоловік. -- Ми знали, що ви повернетеся... але, але
ми не могли боротися з Дамблдором без вас...

// 19029
//“__Crucio.__”
-- __Круціо__.

// 19030
//A horrible scream tore out of the mask, piercing the night, it continued for
//long, long seconds.
Страхітливий крик вирвався з-під маски, пронизав ніч і тривав довго-довго.

// 19031
//“Get up,” the Dark Lord said to the figure that had collapsed upon the ground.
//“Keep your wand on Harry Potter. __Do not lie to me again.__”
-- Вставай, -- сказав Темний Лорд чоловікові, що впав на землю. -- Не відводь
палички від Гаррі Поттера. __Не бреши мені більше.__

// 19032
//“Yes, Master,” sobbed the figure, as it pushed itself to its feet.
-- Так, володарю, -- схлипнув чоловік, підводячись на ноги.

// 19033
//Voldemort resumed pacing behind the black-robed figures. “I suppose you are
//also wondering what Harry Potter is doing here… Why he is a guest at my
//rebirthing party.”
Волдеморт знову почав крокувати за спинами вдягнених у чорні мантії фігур:

-- Гадаю, вам усім цікаво, що тут робить Гаррі Поттер... Чому він став гостем
нашої вечірки з приводу відродження.

// 19034
//“I know, Master!” said one of the robes. “You mean to prove your power by
//killing him, in front of us all, to leave no doubt as to which of you is
//stronger! To show how your Killing Curse can slay even this so-called
//Boy-Who-Lived!”
-- Я знаю, володарю! -- сказала одна з мантій. -- Ви хочете довести свою міць,
вбивши його перед нами всіма, щоб не залишити жодних сумнівів щодо того, хто з
вас сильніший! Щоб показати, що ваше смертельне прокляття може вбити навіть так
званого Хлопчика-Що-Вижив!

// 19035
//There was a pause. None of the cloaked figures dared to speak.
Запала мовчанка. Ніхто з фігур у плащах не наважувався заговорити.

// 19036
//Slowly, the Dark Lord Voldemort, in his high-collared shirt and dark robes,
//turned to face the Death Eater who had spoken.
Темний Лорд Волдеморт у своїй сорочці з високим коміром та темній мантії
повільно обернувся до смертежера, що це сказав.

// 19037
//“That,” whispered Voldemort in a voice chill as death, “is a little too much
//folly for me to credit, Mr. Sallow. You heard that theory of how I died, and
//tried to provoke me into repeating a mistake?” Lord Voldemort was floating,
//rising high off the ground. “I suppose you came to prefer your laziness to my
//mastery, __Macnair?__”
-- Це, -- прошепотів Волдеморт голосом крижаної смерті, -- трохи забагато
дурості для мене, містере Верболіз. Ти ж чув теорію про те, як я помер, і хочеш
спровокувати мене, щоб я повторив цю помилку? -- Лорд Волдеморт здійнявся в
повітря й зависнув високо над землею. -- Гадаю, тобі стала більш до вподоби
власна ледачість, ніж моє володарювання, містере __Макнейр__?

// 19038
//The Death Eater who’d spoken was suddenly surrounded by a blue haze. He spun,
//slashed his wand at the Dark Lord, and cried “__Avada Kedavra!__”
Смертежера, що зробив був пропозицію, раптом охопило синє сяйво. Він крутнувся,
рубанув повітря паличкою, направив її на Темного Лорда й вигукнув: "`__Авада
Кедавра!__`"

// 19039
//Voldemort simply tilted to one side in midair, dodging the green bolt.
Волдеморт просто відлетів вбік, ухилившись від зеленої блискавки.

// 19040
//“__Avada Kedavra!__” cried the Death Eater. His hand that didn’t hold a
//wand was making other gestures, further colors and layers building up in his
//shielding haze with each gesture completed. “Help me, my brothers! If we all -”
-- __Авада Кедавра!__ -- крикнув смертежер. Рукою, що не тримала паличку, він
робив жести, навколо нього вибудовувалися різнокольорові шари щитів, по шару на
жест. -- Допоможіть мені, браття! Якщо ми всі...

// 19041
//The Death Eater fell in seven flaming pieces to the ground, chunks of flesh
//with the cauterized edges still glowing.
Смертежер упав на землю сімома частинами у вогні. Шматки плоті припеченими
краями досі світилися.

// 19042
//“Eyes and wands on Harry Potter, all of you,” Voldemort repeated, his voice low
//and dangerous. “And Macnair acted in sheer stupidity just then, for I command
//your Marks, as I __always__ shall. __I am immortal.__”
-- Усі очі й палички на Гаррі Поттері, -- повторив Волдеморт тихим загрозливим
голосом. -- А Макнейр діяв зі щирої дурості, бо я контролюю ваші мітки, і так
буде __завжди__. __Я безсмертний.__

// 19043
//“Master,” said another robe. “The girl upon the altar - is she to serve us for
//a Dark Revel? She seems unworthy of such a joyous occasion. I could find
//better, Master, if you give me leave for just a short time -”
//! 17%
-- Володорю, -- пролунало від іншої мантії. -- Дівчина на вівтарі... вона
забезпечить нам темні розваги? Вона видається негідною такої радісної події. Я
можу знайти ліпшу, володарю, якщо ви відпустите мене ненадовго...

// 19044
//“No, Mr. Friendly,” said Voldemort, sounding rather amused. “The little witch
//you see upon the altar is none other than Hermione Granger -”
-- Ні, містере Дружність, -- сказав Волдеморт, видавалося, пропозиція його
розвеселила. -- Маленька відьма на вівтарі -- ніхто інша, як Герміона
Ґрейнджер...

// 19045
//“What?” cried one of the black robes, and then, “I’m sorry, Master, I’m sorry,
//I beg your -”
-- Що? -- вигукнув один з чоловіків, а тоді: -- вибачте, володарю, вибачте,
перепрошую...

// 19046
//“__Crucio.__” This screaming only lasted a few seconds, and Voldemort had
//performed it as though it were perfunctory. Afterward Voldemort’s voice
//returned to low amusement. “I have resurrected this mudblood through the
//Darkest of magics, for my own purposes. You shall not offer her the slightest
//trouble, any of you. You are better off dead than if I learn my little
//experiment came to harm at your hands. This order is absolute, regardless of
//other circumstances - even if she escapes, let us say.” A cold high laugh, as
//if at some joke that nobody else understood.
-- __Круціо__, -- цього разу крики тривали лише кілька секунд, Волдеморт наклав
закляття недбало. Потім до голосу Волдеморта повернулася веселість: -- Я
воскресив цю бруднокровку з допомогою найтемнішої магії заради власних цілей.
Вам не можна спричиняти їй найменших проблем, нікому з вас. Для вас ліпше
померти, ніж щоб я довідався, що вона постраждала через вас. Цей наказ
незаперечний, хай які будуть обставини -- скажімо, навіть якщо вона втече.

Холодний високий сміх, ніби це був якийсь жарт, якого ніхто більше не міг
зрозуміти.

// 19047
//“Master,” one of the robes said in a faltering voice distorted by his skull
//mask. “Master, please - I would never defy you, I am obedient as you see - but
//Master, I beg you, let me return, the better to serve you later - I came here
//in haste, forsaking - Master, with so many of us being gone, others will
//wonder, they will mark the absences, who has disappeared. Soon there shall be
//no alibi I can offer.”
-- Володарю, -- сказала одна з мантій нерішучим голосом, що був спотворений
маскою-черепом. -- Володарю, будь ласка... я б ніколи не ослухався вас, як
бачите, я покірний... та володарю, благаю, дозвольте повернутися, щоб пізніше
ліпше вам служити... я прибув сюди поспіхом, покинувши... володарю, враховуючи,
що так багато з нас зникли, інші зацікавляться, помітять нашу відсутність, хто
саме зникнув. Невдовзі в мене не буде вірогідного алібі.

// 19048
//A cold high laugh. “Ah, Mr. White, the most delinquent of my servants. I have
//not yet decided if you will survive your punishment. I have less need of you
//than I once did, Mr. White. In two days’ time the Death Eaters shall walk
//openly. My powers have increased, and I have just this day disposed of
//Dumbledore.” More gasps of shock arose from the Death Eaters, Voldemort paid
//them no heed. “Tomorrow I shall slay Bones, Crouch, Moody, and Scrimgeour, if
//they have not fled. The rest of you shall go into the Ministry and the
//Wizengamot, and cast Imperius Curses as I direct you. We are __finished__
//waiting. By tomorrow’s nightfall I shall have declared myself Lord Ruler of
//Britain!”
Холодний високий сміх.

-- А, містере Білий, найнеслухняніший з моїх послідовників. Я ще не вирішив, чи
переживеш ти своє покарання. Тепер моя потреба в тобі менша, ніж колись, містере
Білий. За два дні смертежери вже не ховатимуться. Мої сили зросли, і сьогодні я
вже позбувся Дамблдора, -- серед смертежерів почулися шоковані зойки, Волдеморт
на це не зважав. -- Завтра я вбʼю Боунз, Кравча, Муді та Скрімджера, якщо вони
не втечуть. Решта з вас піде в міністерство й Чарверсуд та накладе імперіуси
згідно з моїми інструкціями. Наше очікування __скінчено__. До завтрашньої ночі я
проголошу себе лордом правителем Британії!

// 19049
//Intakes of breath rose from the gathered masks, but one figure was laughing.
Багато зі смертежерів гучно набрали повітря, та один з них сміявся.

// 19050
//“You find me amusing, Mr. Grim?”
-- Тобі це видається смішним, містере Ґрим?

// 19051
//“Apologies, Master,” said the robed figure who had laughed, his wand perfectly
//level upon where Harry stood. “I was glad to hear you had dispatched
//Dumbledore. I fled from Britain in cowardly fear of him, having lost faith in
//your return.”
-- Перепрошую, володарю, -- сказав чоловік у мантії, що сміявся. Він не відводив
палички від Гаррі. -- Я зрадів, почувши, що ви позбулися були Дамблдора. Я втік
з Британії через те, що боявся його і втратив віру у ваше повернення.

// 19052
//Voldemort’s chuckle resounded within the graveyard. “Your candor earns you my
//mercy, Mr. Grim. I was surprised to see you here tonight; you are more
//competent than I suspected. But before we turn our attention to happier
//matters, there is a certain affair to which we must attend. Tell me, Mr. Grim,
//if the Boy-Who-Lived swore an oath to you, might you trust him?”
Сміх Волдеморта рознісся цвинтарем:

-- Своєю щирістю ти здобув моє прощення, містере Ґрим. Я був здивований бачити
тебе тут сьогодні. Ти компетентніший, ніж я підозрював. Але перед тим, як
повернутися до приємніших занять, є певна справа, яку ми мусимо владнати. Скажи,
містере Ґрим, якби Хлопчик-Що-Вижив присягнувся б у чомусь, ти міг би йому
повірити?

// 19053
//“Master… I don’t understand…” said Mr. Grim. One or two of the other Death
//Eaters turned their masks toward Voldemort before quickly fixing the skull gaze
//on Harry.
-- Володарю, я не розумію, -- почав містер Ґрим. Один чи два інші смертежери
повернули маски до Волдеморта, та швидко звернули погляди назад на Гаррі.

// 19054
//“Answer me,” Voldemort hissed. “This is not a trick, Mr. Grim, and you
//__will__ answer truthfully or bear the consequences. You knew the boy’s
//forebears, did you not? Knew them for straightforward folk? If the boy freely
//chose to swear to you an oath, even knowing you for a Death Eater, might you
//trust in his words? Answer me!” Voldemort’s voice rose to a shriek.
-- Відповідай, -- прошипів Волдеморт. -- Це не якась хитрість, містере Ґрим, і я
__хочу__ чесної відповіді, або начувайся. Ти знав батьків хлопця, так? Чи були
вони простодушними? Якщо хлопець з власної волі дасть обітницю, хоч він і
знатиме, що ти смертежер, чи зможеш ти повірити його словам? Відповідай! --
Волдеморт перейшов на вереск.

// 19055
//“I… yes, Master, I suppose I might…”
-- Я... так, володарю, гадаю, що так...

// 19056
//“Good,” Voldemort said coldly. “The potential for trust must exist, to be
//sacrificed. And for the bonder of the Unbreakable Vow… which of you shall
//sacrifice their magic? It shall be quite the long Vow… much longer than usual…
//much magic shall be required for that…” Voldemort smiled his awful smile. “Mr.
//White shall do.”
// hedrok: Докладно про незламну обітницю: 074:13148
-- Добре, -- холодно сказав Волдеморт. -- Має бути можливість довіри, щоб
принести її в жертву. Щодо того, хто засвідчить обітницю... хто з вас пожертвує
своєю магією? Це буде доволі довга обітниця... значно довша, ніж зазвичай... на
це потрібно буде чимало магії... -- Волдеморт посміхнувся своєю страхітливою
посмішкою. -- Містер Білий згодиться.

// 19057
//“No, please! __Master, I beg you!__ I served you better than any - as best
//I could -”
-- Ні, будь ласка! __Володарю, благаю!__ Я служив вам краще за всіх... як тільки
міг...

// 19058
//“__Crucio,__” said Voldemort, and Mr. White screamed through his mask’s
//distortion for what seemed like a full minute. “Be grateful if I leave you your
//life! Now approach the boy, Mr. Grim, Mr. White. From behind him, idiot! You
//must not block the others’ wands! And the rest of you, you must fire if Harry
//Potter tries to run, even if it means striking at your fellow Death Eaters.”
-- __Круціо__, -- промовив Волдеморт, і спотворені маскою крики містера Білого
лунали принаймні хвилину. -- Будь вдячний, що лишаю тобі життя! Тепер підійдіть
до хлопця, містере Ґрим, містере Білий. Ззаду, ідіоте! Не блокуй палички інших!
Решта, стріляйте, якщо Гаррі Поттер спробує втекти, навіть якщо для цього
доведеться влучити у ваших товаришів-смертежерів.

// 19059
//Mr. White took time to approach, the black robes seeming to shake, even as Mr.
//Grim moved smoothly into position.
Містер Білий наближався повільно, видавалося, його чорна мантія тремтіла, а
містер Ґрим плавно став на потрібне місце.

// 19060
//“What is to be the Vow, Master?” came the voice of Mr. Grim.
-- Якою буде обітниця, володарю? -- почувся голос містера Ґрима.

// 19061
//“Ah, yes,” Voldemort said. The Dark Lord went on pacing behind the semicircle
//of Death Eaters. “Today - though I hardly expect even you to believe me - today
//we are doing Merlin’s work, my Death Eaters. Yes! Before us stands a great
//danger, who in his blundering folly has been prophesied to wreak destruction
//such as even I can scarcely imagine. The Boy-Who-Lived! The boy who frightens
//__Dementors!__ The cattle who believe they own this world should have been
//more worried when they saw that. Useless, all of them!”
-- А, так, -- сказав Волдеморт. Темний Лорд і далі крокував за спинами півкола
смертежерів. -- Сьогодні -- хоча навряд чи навіть ви мені повірите -- сьогодні
ми виконуємо роботу Мерліна, мої смертежери. Так! Перед нами неймовірна
небезпека, його жахлива дурість, як пророковано, спричинить таку руйнацію, що
навіть я це ледве можу уявити. Хлопчик-Що-Вижив! Хлопчик, що лякає
__дементорів__! Стадо, що вважає себе власниками цього світу, мали б більш
занепокоїтися, побачивши це. Жодної з них усіх користі!

// 19062
//“Forgive me -” said one black robe in a halting voice. “Master - surely, if
//that is so - Master, why don’t we just kill him right away?”
//! 34%
-- Перепрошую... -- непевно почала одна з чорних мантій. -- Володарю... ну, якщо
так... володарю, чому б нам просто його не вбити?

// 19063
//Voldemort laughed, a strange bitter laugh. When he spoke on his high voice was
//precise. “Here is the oath’s intent, Mr. Grim, Mr. White, Harry Potter. Listen
//well and comprehend the Vow that must be sworn, for its intent is also binding,
//and you three must share an understanding of its meaning. You will swear, Harry
//Potter, not to destroy the world, to take no risks when it comes to not
//destroying the world. This Vow may __not__ force you into any positive
//action, on account of that, this Vow does not force your hand to any stupidity.
//Do you understand that, Mr. Grim, Mr. White? We are dealing with a prophecy of
//destruction. A __prophecy!__ They can fulfill themselves in twisted ways.
//We must be cautious that this Vow itself does not bring that prophecy about. We
//dare not let this Vow force Harry Potter to stand idly after some disaster is
//already set in motion by his hand, because he must take some lesser risk if he
//tries to stop it. Nor must the Vow force him to choose a risk of truly vast
//destruction, over a certainty of lesser destruction. But all Harry Potter’s
//__foolishness,__” Voldemort’s voice climbed, “all his
//__recklessness,__ all his __grandiose schemes__ and __good
//intentions__ - he shall not risk them leading to disaster! He shall not gamble
//with the Earth’s fate! No researches that might lead to catastrophe! No
//unbinding of seals, no opening of gates!” Voldemort’s voice lowered again.
//“Unless this very Vow itself is somehow leading into the destruction of the
//world, in which case, Harry Potter, you must ignore it in that particular
//regard. You will __not__ trust yourself alone in making such a
//determination, you must confide honestly and fully in your trusted friend, and
//see if that one agrees. Such is this Vow’s meaning and intent. It forces only
//such acts as Harry Potter might choose himself, having learned that he is a
//prophesied instrument of destruction. For the capacity for choice must also
//exist, to be sacrificed. Do you understand, Mr. White?”
Волдеморт вибухнув дивним гірким сміхом. Він заговорив високим рубаним голосом:

// hedrok: "gates you do not open", "seals you do not breach" 20:3738
-- Ось суть клятви, містере Ґрим, містере Білий, Гаррі Поттере. Слухайте уважно
й усвідомте сенс обітниці, яку треба дати, бо цей сенс теж звʼязує, тож ви
втрьох маєте чудово його розуміти. Ти присягнеш, Гаррі Поттере, не знищувати
світ, і жодним чином не вдаватися до жодних ризиків, що можуть призвести до
знищення світу. Ця обітниця __не може__ змусити тебе на жодні дії, щоб через
саму обітницю ти не вдався до якихось дурощів. Ви розумієте це, містере Ґрим,
містере Білий? Йдеться про пророцтво руйнації. __Пророцтво!__ А пророцтва мають
звичку здійснюватися в химерний спосіб. Треба бути обережними, щоб сама клятва
не призвела до того, про що йдеться в пророцтві. Ми не наважимося дозволити цій
обітниці примусити Гаррі Поттера спокійно стояти осторонь після того, як він сам
же створить якусь катастрофу лише через те, що йому доведеться вдатися до меншого
ризику, якщо він спробує цю катастрофу спинити. Також обітниця не має примусити
його надати перевагу ризику справді повномасштабної руйнації замість того, щоб
вибрати неминучу меншу руйнацію. Хай який Гаррі Поттер __ідіот__, -- голос
Волдеморта підвищився, -- хай який він __нерозсудливий__, незважаючи на всі його
__грандіозні плани__ та __добрі наміри__... він не має ризикувати, коли ризик
може призвести до катастрофи! Він не має гратися з долею Землі! Жодних
досліджень, що викличуть руйнацію! Не зривати жодних печатей, не відчиняти
жодних брам! -- Волдеморт знову стишив голос. -- Хіба що сама ця обітниця
якимось чином призведе до кінця світу, і тоді, Гаррі Поттере, можеш
проігнорувати саме цю її частину. Ти __не довірятимеш__ власній думці в цьому
рішенні, а чесно й повно розкажеш усе довіреному другові, і діятимеш, лише якщо
той погодиться. Ось сенс цієї обітниці. Вона змушує Гаррі Поттера лише до тих
дій, до яких він сам вирішить вдатися, знаючи, що йому пророковано стати
знаряддям руйнації. Бо має бути свобода вибору, щоб принести її в жертву. Усе
зрозуміло, містере Білий?

// 19064
//“I - I think so - oh, Master, __please,__ do not let the Vow be so long -”
-- Я... гадаю, так... ох, володарю, __будь ласка__, хай обітниця буде
коротшою...

// 19065
//“Silence, fool, you do a more useful thing this day than you have ever done.
//Mr. Grim?”
-- Тихо, дурню, сьогодні ти робиш найкориснішу річ у своєму житті. Містере Ґрим?

// 19066
//“I think, Master, that it must be repeated to me.”
-- Гадаю, володарю, треба послухати ще раз.

// 19067
//Voldemort smiled that too-wide smile, and said it all again using different
//words.
Волдеморт посміхнувся цією надто широкою посмішкою, та повторив це все знову,
тільки іншими словами.

// 19068
//“And now,” Voldemort said coldly, “Harry Potter, you will keep your wand low,
//and permit Mr. Grim to touch his wand to yours; and you will speak such words
//as I direct you. If Harry Potter speaks any other word, then cut him down, the
//rest of you.”
-- А тепер, -- холодно сказав Волдеморт, -- Гаррі Поттере, ти триматимеш паличку
направленою вниз та дозволиш містерові Ґриму торкнутися її своєю паличкою. Ти
повторюватимеш за мною слово в слово. Якщо Гаррі Поттер скаже бодай одне інше
слово, усі решта, стріляйте.

// 19069
//“Yes, Master,” came the thirty-four-fold chorus.
-- Так, володарю, -- відгукнувся хор з тридцяти чотирьох голосів.

// 19070
//Harry was chilled, and shivering, and not only because he was naked in the
//night. He didn’t understand why Voldemort was __not__ just killing him.
//There seemed to be only a single line leading into the future, and it was
//Voldemort’s chosen line, and Harry did not know what came after this.
Гаррі було холодно, він тремтів, і не лише через те, що він стояв голий вночі.
Він не розумів, чому Волдеморт просто __не вбʼє__ його. Видавалося, у майбутнє
йшов єдиний шлях, і цей шлях вибирав Волдеморт, і Гаррі гадки не мав, що там
відбудеться далі.

// 19071
//“Mr. White,” said Voldemort. “Touch your wand to Harry Potter’s hand, and
//repeat these words. Magic that flows in me, bind this Vow.”
-- Містере Білий, -- сказав Волдеморт. -- Торкнись паличкою руки Гаррі Поттера
й повторюй слова. Магією, що тече в мені, засвідчую цю обітницю.

// 19072
//Mr. White spoke those words. Even through the distortion effect of his mask, it
//sounded as though his heart were breaking.
Містер Білий промовив ці слова. Незважаючи на ефект спотворення маски, було
чутно, що у нього серце крається.

// 19073
//Behind Voldemort the obelisks chanted, a language that Harry did not know;
//three times they repeated their words, then fell silent.
За спиною Волдеморта обеліски знову почали щось скандувати, мовою, якої Гаррі не знав.
Тричі вони повторили свої слова та замовкли.

// 19074
//“Mr. Grim,” said Voldemort. “Think of the reasons why you might trust this boy,
//if he had given this oath freely. Think of that potential for trust, and
//__sacrifice__ it as you say…”
-- Містере Ґрим, -- сказав Волдеморт, -- думай про те, чому ти міг би повірити
цьому хлопцеві, якби він просто присягнувся. Думай про можливість довіри й
принеси її в __жертву, сказавши__...

// 19075
//“By my trust that I hold for you,” said Mr. Grim, “be you held.”
-- Довірою, що я маю до тебе, -- сказав містер Ґрим, -- будь повʼязаний.

// 19076
//And then it was Harry Potter’s turn to repeat Lord Voldemort’s words, and Harry
//did so.
Далі була черга Гаррі Поттера повторювати слова лорда Волдеморта, і Гаррі так і
зробив.

// 19077
//“I vow…” Harry said. His voice shook, but he spoke. “That I shall not… by any
//act of mine… destroy the world… I shall take no chances… in not destroying the
//world… if my hand is forced… I may take the course… of lesser destruction over
//greater destruction… unless it seems to me that this Vow itself… leads to the
//world’s end… and the friend… in whom I have confided honestly… agrees that this
//is so. By my own free will…” Harry could feel it, as the rite was invoked, the
//shining cords of power wrapping around his wand and Mr. Grim’s wand, wrapping
//around his hand where Mr. White’s wand touched it, wrapping around his
//__self__ on some disturbingly abstract level. Harry could feel himself
//__invoking__ his power of free choice, and he knew that his next words
//would __sacrifice__ it, that this was absolutely the last chance to turn
//back.
-- Я присягаюся... -- почав Гаррі. Його голос тремтів, але він повторював слова.
-- Що я ... жодною своєю дією... не знищуватиму світ... не вдаватимуся до
жодних ризиків... щодо знищення світу... якщо мені доведеться... я можу обрати
шлях... меншої руйнації, щоб запобігти більшій руйнації... хіба що
видаватиметься, що сама ця присяга... призведе до кінця світу... і друг... кому
я в повноті все розповів... погоджується, що це так. Свободою вибору...

Гаррі відчув, як ритуал здійснився: сяйливі мотузки огорнули його руку там,
де її торкалася паличка містера Білого, огорнула __його самого__ на якомусь
неприємно абстрактному рівні. Гаррі міг відчувати, як він __використовує__ силу
свободи вибору, і що наступні слова __принесуть її в жертву__, що це остання
можливість спинити це.

// 19078
//“…so shall it be,” said the coldly precise voice of Lord Voldemort.
-- ...нехай стане так, -- промовив холодний чіткий голос лорда Волдеморта.

// 19079
//“…so shall it be,” Harry repeated, and he knew in that moment that the content
//of the Vow was no longer something he could decide whether or not to do, it was
//simply the way in which his body and mind would move. It was not a vow he could
//break even by sacrificing his life in the process. Like water flowing downhill
//or a calculator summing numbers, it was just a thing-Harry-Potter-would-do.
//! 51%
-- ...нехай стане так, -- повторив Гаррі, усвідомивши, що відтак він більше не
мав жодного вибору щодо цієї обітниці -- згідно з нею діятиме його тіло. Він не
міг порушити обіцянки, навіть пожертвувавши життям. Як вода тече вниз,
калькулятор додає числа, так і Гаррі Поттер не може порушити цю присягу.

// 19080
//“Did the Vow take, Mr. White?”
-- Чи обітниця спрацювала, містере Білий?

// 19081
//Mr. White sounded like he was weeping. “Yes, Master… I have lost so much,
//please, I have been punished enough.”
Видавалося, містер Білий схлипував:

-- Так, володарю... Я втратив так багато, будь ласка, мене достатньо покарано.

// 19082
//“Return to your places…” said Voldemort. “Good. All eyes on the Potter child,
//prepare to fire the instant he tries to flee, or raise his wand, or speak any
//word…” The Dark Lord floated high in the air, the black-clad figure overlooking
//the graveyard. Again he held a gun in his left hand, and his wand in his right.
//“Better. __Now__ we shall kill the Boy-Who-Lived.”
-- Повертайтеся на місця... -- сказав Волдеморт. -- Добре. Усі погляди на малого
Поттера, будьте готові стріляти, щойно він спробує втекти, підніме паличку чи
скаже бодай слово... -- Темний Лорд підлетів високо в повітрі, загорнута в чорне
фігура зависла над цвинтарем. Знову в його лівиці був пістолет, а в правиці --
паличка. -- Уже ліпше. __А тепер__ ми вбʼємо Хлопчика-Що-Вижив.

// 19083
//Mr. White staggered. Mr. Grim was laughing again, and so were others.
Містер Білий похитнувся. Містер Ґрим знову реготав, як і інші.

// 19084
//“I did not do that to be funny,” Voldemort said coldly. “We are dealing with a
//__prophecy__, fools. We are snipping the threads of destiny one by one;
//carefully, carefully, not knowing when we may first encounter resistance. This
//is the order in which the next acts shall be done. First Harry Potter shall be
//stunned, then his limbs severed and the wounds cauterized. Mr. Friendly and Mr.
//Honor will examine him for any trace of unusual magics. One of you shall shoot
//the boy many times with my Muggle weapon, and then as many of you as can shall
//strike him with the Killing Curse. Only then will Mr. Grim crush his skull and
//brains with the mundane substance of a tombstone. I shall verify his corpse,
//then his corpse shall be burned with Fiendfyre, then we will exorcise the
//surrounding area in case he has left a ghost. I myself will guard this place
//until six hours have passed, for I do not fully trust the wards I have set
//against Time’s looping; and four of you shall search the surroundings for signs
//of anything noteworthy. Even after that we must remain vigilant for any sign of
//Harry Potter’s renewed presence, in case Dumbledore has left some unimagined
//trick in play. If you can think of any trick that I have missed in being sure
//that Harry Potter’s threat is ended, speak now and I shall reward you
//handsomely… speak now, in Merlin’s name!”
-- Я зробив це не заради сміху, -- холодно сказав Волдеморт. -- Ми маємо справу
з __пророцтвом__, ду{stress}рні. Ми розриваємо ниточки долі одну за одною.
Обережно, дуже обережно, ми не знаємо, коли на нас очікує спротив. Ось в якому
порядку ми все зробимо. Спочатку оглушимо Гаррі Поттера, відірвемо його кінцівки
та припечемо рани. Містер Дружність та Містер Гідність перевірять, чи немає в
ньому якоїсь незвичної магії. Один з вас розстріляє хлопця з маґлівської зброї.
Потім багато з вас нашлють на нього смертельне прокляття. Лише тоді містер Ґрим
розчавить його череп та мозок простою матерією надгробка. Я перевірю труп, тоді
спалимо труп у зложарі, тоді проведемо екзорцизм навколо -- раптом він залишить
привид. Сам я спостерігатиму за цим місцем шість годин, бо я не до кінця певен в
оберегах проти переміщення в часі. Четверо з вас обшукають усе навколо --
повідомляти про будь-що варте уваги. Навіть після цього ми маємо бути уважними
щодо будь-яких ознак повернення Гаррі Поттера -- можливо, Дамблдор залишив
якийсь неймовірний трюк. Якщо ви можете вигадати будь-що, що я пропустив, щоб
упевнитися в тому, що загроза від Гаррі Поттера буде усунута, кажіть зараз, і
на вас чекає винагорода... кажіть зараз, заради Мерліна!

// 19085
//There was stunned silence amid the cemetery; no one made to speak.
Запанувала приголомшена мовчанка, ніхто не зронив ані слова.

// 19086
//“Useless, the lot of you,” Voldemort said with bitter scorn. “Now I shall ask
//Harry Potter one final question, and he is to answer that question for my ears
//alone, in Parseltongue. Strike the boy down at once if he answers with anything
//but hisses, if he tries to speak one word of human speech.” Then Voldemort
//hissed, “__Power I know not, it wass ssaid that you would have. The
//Muggle Artss I have now learned of from you, and I am already sstudying them.
//Your power over life-eaterss musst be comprehended for onesself, or sso you
//ssay. If there iss any other power you posssesss, that I may come to have, tell
//me of it now. Elsse, I intend to torment certain of thosse you care for. Ssome
//livess I have already promissed you, but otherss I did not. Your mudblood
//sservantss in your little army. Your preciouss parentss. All sshall ssuffer for
//what will sseem to them like eternitiess; and then I sshall ssend them, broken,
//into the life-eater prisson to remember it, until they wasste and die. For each
//unknown power you tell me how to masster, or other ssecret you tell me that I
//desire to know, you may name one more of thosse to insstead be protected and
//honored under my reign. Thiss alsso I promisse and intend to keep.__”
//Voldemort’s smiling expression now came through as if it were a snake’s gaping
//fangs, and the meaning that expression bore among snakes, a promise that
//whoever beheld the teeth was to be consumed by them. ”__Wasste not time
//in thoughtss of esscape, if you care for thosse oness. You have ssixty
//ssecondss to begin telling me ssomething I wissh to know, and then your death
//beginss.”__
-- Жодної від вас користі, -- з гіркою зневагою кинув Волдеморт. -- А тепер я
поставлю Гаррі Поттерові останнє питання, і він відповість на нього лише мені --
парселмовою. Стріляйте, якщо він відповідатиме будь-чим, крім шипіння, якщо
спробує сказати бодай одне людське слово.

А тоді Волдеморт засичав:

// hedrok #пророцтво
-- __Ссила, якої я не відаю, було ссказано, шщо в тебе буде. Про маґлівсські
мисстецтва я вже від тебе дізнався, і я вже вивчаю їх. Твою владу над життєжерами
треба зрозуміти ссамосстійно, чи принаймні ти так кажешш. Якшщо є шще якассь
ссила, якою ти володієшш, розкажи мені про неї зараз. Інакшше я катуватиму
певних людей, шщо тобі не байдужі. Деякі життя я тобі вже пообіцяв, та іншші --
ні. Твої бруднокровні сслуги твого невеличкого війсська. Твої безцінні батьки.
Уссі вони сстраждатимуть, як їм здаватиметься, вічність. А тоді я їх, зламаних,
надішшлю до тюрми життєжерів, шщоб вони згадували це, доки не змарніють та не
помруть. За кожну невідому ссилу, про яку ти розкажешш мені, як її опанувати, чи
за будь-яку іншшу таємницю, яку я бажаю знати, можешш вибрати одного з них, шщоб
натомість він був захищений та шанований за мого правління. Цю обіцянку я не
планую порушшувати.__

Посмішка Волдеморта тепер нагадувала зміїні ікла, вираз, що серед змій мав
певне значення: обіцянку, що хай хто бачить ці зуби, невдовзі буде ними
поглинутий.

-- __Не марнуй часс на думки про втечу, якшщо тобі не начхати на них уссіх. У тебе
шшістдессят ссекунд, шщоб почати розповідати мені шщоссь, шщо я хочу знати, а тоді
почнеться твоя ссмерть.__

***

**Оригінальна примітка автора:**

// 19087
//__This is your final exam.__
__Це ваш річний іспит.__

// 19088
//__You have 60 hours.__
__У вас 60 годин.__

// 19089
//__Your solution must at least allow Harry to evade immediate death,__
__Ваша відповідь має принаймні дозволити Гаррі уникнути негайної смерті,__

// 19090
//__despite being naked, holding only his wand, facing 36 Death Eaters__
__хоча він голий, має лише паличку, і проти нього 36 смертежерів__

// 19091
//__plus the fully resurrected Lord Voldemort.__
__та цілковито відновлений лорд Волдеморт.__

// 19092
//**If a viable solution is posted before**
**Якщо прийнятне рішення буде запропоновано до**

// 19093
//***12:01AM Pacific Time* (8:01AM UTC) on Tuesday, March 3rd,
//2015,**
**00:01 за тихоокеанським часом (8:01 UTC) у вівторок, третього березня
2015-го року,**

// 19094
//**the story will continue to Ch. 121.**
**то ця історія триватиме до 121 розділу.**

// 19095
//**Otherwise you will get a shorter and sadder ending.**
**Інакше на вас чекає коротший та сумніший фінал.**

// 19096
//__Keep in mind the following:__
__Не забувайте:__

// 19097
//__1. Harry must succeed via his own efforts. The cavalry is not coming.__
__1. Гаррі має досягти успіху власними силами. Кавалерія не приїде.__
// 19098
//__Everyone who might want to help Harry thinks he is at a Quidditch
//game.__
__Усі, хто міг би хотіти допомогти Гаррі, вважають, що він на грі у квідич.__

// 19099
//__2. Harry may only use capabilities the story has already shown him to
//have;__
//! 68%
__2. Гаррі може використовувати лише ті здібності, які він уже продемонстрував
впродовж книги, що він здатен використовувати;__
// 19100
//__he cannot develop wordless wandless Legilimency in the next 60
//seconds.__
__він не може навчитися безпаличкової безмовної виманології протягом наступних
60 секунд.__

// 19101
//__3. Voldemort is evil and cannot be persuaded to be good;__
__3. Волдеморт лихий і його не можна переконати стати добрим;__
// 19102
//__the Dark Lord’s utility function cannot be changed by talking to him.__
__функцію корисності Темного Лорда неможливо змінити розмовами.__

// 19103
//__4. If Harry raises his wand or speaks in anything except Parseltongue,__
__4. Якщо Гаррі підведе паличку чи скаже щось не парселмовою,__
// 19104
//__the Death Eaters will fire on him immediately.__
__смертежери негайно вистрілять.__

// 19105
//__5. If the simplest timeline is otherwise one where Harry dies -__
__5. Якщо існує простіша лінія часу, в якій Гаррі помирає...__
// 19106
//__if Harry cannot reach his Time-Turner without Time-Turned help -__
__якщо Гаррі не може дістатися часоворота без допомоги часоворота...__
// 19107
//__then the Time-Turner will not come into play.__
__то часоворот не допоможе.__

// 19108
//__6. It is impossible to tell lies in Parseltongue.__
__6. Брехати парселмовою неможливо.__

// 19109
//__Within these constraints,__
__За цих умов,__

// 19110
//__Harry is allowed to attain his full potential as a rationalist,__
__Гаррі дозволено використовувати свій повний потенціал раціоналіста,__
// 19111
//__now in this moment or never,__
__зараз або ніколи,__
// 19112
//__regardless of his previous flaws.__
__хай яких помилок він припускався раніше.__

// 19113
//__Of course ‘the rational solution’,__
__Звісно__ "`__раціональний розвʼязок__`",
// 19114
//__if you are using the word ‘rational’ correctly,__
__якщо ви правильно використовуєте слово__ "`__раціональний__`",
// 19115
//__is just a needlessly fancy way of saying ‘the best solution’__
-- __це просто надмірно пафосний метод сказати__ "`__найліпше рішення__`"
// 19116
//__or ‘the solution I like’ or ‘the solution I think we should use’,__
__чи__ "`__рішення, що мені подобається`" чи "`рішення, яке, гадаю, варто
використати__`",
// 19117
//__and you should usually say one of the latter instead.__
__і зазвичай ви використовуєте натомість один з цих варіантів.__

// 19118
//__(We only need the word ‘rational’ to talk about ways of thinking,__
__(Нам потрібне слово "`раціональний`" лише коли ми обговорюємо методи
мислення,__
// 19119
//__considered apart from any particular solutions.)__
__без розгляду конкретних розвʼязків.)__

// 19120
//__And by Vinge’s Principle,__
__І за принципом Вінжі,__
// 19121
//__if you know exactly what a smart mind would do,__
__якщо ви точно знаєте, що зробить хтось розумний,__
// 19122
//__you must be at least that smart yourself.__
__то ви самі маєте бути принаймні таким саме розумним.__

// 19123
//__Asking someone “What would an optimal player think is the best move?”__
__На питання__ "`__Який найкращий хід зробить оптимальний гравець?__`"
// 19124
//__should produce answers no better than “What do you think is best?”__
__людина не може відповісти ліпше, ніж на питання__ "`__Що, гадаєте, найкраще?__`"

// 19125
//__So what I mean in practice,__
__Тож на практиці,__
// 19126
//__when I say Harry is allowed to attain his full potential as a
//rationalist,__
__коли я кажу, що Гаррі може використовувати свій повний потенціал
раціоналіста,__
// 19127
//__is that Harry is allowed to solve this problem__
__на практиці я маю на увазі, що Гаррі може розвʼязати цю задачу так,__
// 19128
//__the way YOU would solve it.__
__як розвʼязали б її ВИ.__

// 19129
//__If you can tell me exactly how to do something,__
__Якщо ви точно можете розказати мені, як щось зробити,__
// 19130
//__Harry is allowed to think of it.__
__Гаррі дозволено додуматися до цього.__

// 19131
//__But it does not serve as a solution to say, for example,__
__Та розвʼязком не буде, наприклад,__
// 19132
//__“Harry should persuade Voldemort to let him out of the box”__
"`__Гаррі має переконати Волдеморта відпустити його__`",
// 19133
//__if you can’t yourself figure out how.__
__якщо ви самі не знаєте, як.__

// 19134
//**The rules on Fanfiction dot Net allow at most one review per
//chapter.**
//! 85%
**Правила Fanfiction крапка Net не дозволяють давати більше, ніж один відгук на
розділ.**

// 19135
//**Please submit *ONLY ONE* review of Ch. 113,**
**Будь ласка, надсилайте *ЛИШЕ ОДИН* відгук на розділ 113**
// 19136
//**to submit one suggested solution.**
**з пропонованим розвʼязком.**

// 19137
//__For the best experience, if you have not already been following__
__Якщо ви не стежили за обговореннями попередніх розділів,__
// 19138
//__Internet conversations about recent chapters, I suggest
//__**not**__doing so,__
__пропоную **не** робити цього,__
// 19139
//__trying to complete this exam on your own,__
__і спробувати знайти власну відповідь на цей іспит,__
// 19140
//__not looking at other reviews,__
__не підглядаючи в інші відгуки,__
// 19141
//__and waiting for Ch. 114 to see how you did.__
__та дочекатися 114 розділу, щоб подивитися, чи добре у вас вийшло.__

// 19142
//__I wish you all the best of luck, or rather the best of skill.__
__Хай щастить, чи, радше, хай у вас вийде застосувати свої здібності
якнайкраще.__

// 19143
//__Ch. 114 will post at __**10AM Pacific (6PM UTC) on
//Tuesday, March 3rd, 2015**.__

// 19144
//__ADDED:__
__ДОДАНО:__

// 19145
//__If you have pending exams,__
__Якщо вашої уваги потребують інші іспити,__
// 19146
//__then even though the bystander effect is a thing,__
__то хоч ефект свідка й страшна річ,__
// 19147
//__I expect that the collective effect of__
__я вважаю, що навіть якщо всі,__
// 19148
//__‘everyone with more urgent life issues stays out of the
//effort’__
__в кого є нагальні справи, не докладатимуть зусиль до розвʼязку,__
// 19149
//__shifts the probabilities very little__
__загальний ефект дуже мало вплине на ймовірності__
// 19150
//__(because diminishing marginal returns on more eyes__
__(бо, враховуючи величезну кількість учасників,__
// 19151
//__and an already-huge population that is participating).__
__навряд чи буде втрачено якісь пропозиції).__

// 19152
//**So if you can’t take the time, then please don’t.**
**Тож якщо у вас немає часу, будь ласка, не витрачайте його.**

// 19153
//__Like any author, I enjoy the delicious taste of my readers’ suffering,__
__Як і будь-який автор, я насолоджуюсь неперевершеним смаком страждань
читачів,__
// 19154
//__finer than any chocolate; but I don’t want to *hurt* you.__
__це ліпше за будь-який шоколад. Та я не хочу вам *нашкодити*.__

// 19155
//__Likewise, if you hate hate hate this sort of thing, then don’t
//participate!__
__Відповідно, якщо ви ненавидите-ненавидите-ненавидите такі штуки, не беріть
участь!__

// 19156
//__Other people ARE enjoying it. Just come back in a few days.__
__Іншим це ПОДОБАЄТЬСЯ. Просто повертайтеся за кілька днів.__

// 19157
//__I shouldn’t even need to point this out.__
__Це має бути зайвим попередженням.__

// 19158
//__I remind you again that you have hours to think.__
__Але нагадую, що у вас є години на роздуми.__

// 19159
//__Use the Hold Off On Proposing Solutions, Luke.__
__Використай Відкладання Пропонування Розвʼязків, Люку.__

// 19160
//____

// 19161
//__And really truly, I do mean it,__
__І чесно-чесно,__
// 19162
//__Harry cannot develop any new magical powers__
__Гаррі не може розвинути нові магічні здібності__
// 19163
//__or transcend previously stated constraints on them__
__чи подолати раніше зазначені обмеження__
// 19164
//__in the next sixty seconds.__
__протягом наступних шістдесяти секунд.__

*Примітка перекладача:*

Якщо ви ще не читали книжку до кінця, можете написати свою пропозицію щодо
розвʼязку коментарем у нашій групі ФБ. Переклад наступного розділу буде
опубліковано 14 квітня 2019 о 17:00, тож час є. Принаймні мені читати точно буде
цікаво )
